Timing Violation Report Min Delay Analysis

SmartTime Version v11.9 SP5
Microsemi Corporation - Microsemi Libero Software Release v11.9 SP5 (Version 11.9.5.5)
Date: Thu Apr 16 17:31:38 2020


Design: jtag_interface_top
Family: ProASIC3
Die: A3P250
Package: 144 FBGA
Temperature Range: -40 - 85 C
Voltage Range: 1.425 - 1.575 V
Speed Grade: -1
Design State: Post-Layout
Data source: Silicon verified
Min Operating Conditions: BEST - 1.575 V - -40 C
Max Operating Conditions: WORST - 1.425 V - 85 C
Using Enhanced Min Delay Analysis
Scenario for Timing Analysis: Primary


Path 1
  From:                  fc1/counter[0]:CLK
  To:                    fc1/final_count[0]:D
  Delay (ns):            0.413
  Slack (ns):            0.396
  Arrival (ns):          3.073
  Required (ns):         2.677

Path 2
  From:                  fc2/counter[0]:CLK
  To:                    fc2/final_count[0]:D
  Delay (ns):            0.478
  Slack (ns):            0.457
  Arrival (ns):          3.121
  Required (ns):         2.664

Path 3
  From:                  fc0/counter[3]:CLK
  To:                    fc0/final_count[3]:D
  Delay (ns):            0.572
  Slack (ns):            0.557
  Arrival (ns):          3.232
  Required (ns):         2.675

Path 4
  From:                  fc1/counter[3]:CLK
  To:                    fc1/final_count[3]:D
  Delay (ns):            0.578
  Slack (ns):            0.561
  Arrival (ns):          3.238
  Required (ns):         2.677

Path 5
  From:                  fc2/counter[2]:CLK
  To:                    fc2/final_count[2]:D
  Delay (ns):            0.589
  Slack (ns):            0.562
  Arrival (ns):          3.234
  Required (ns):         2.672

Path 6
  From:                  fc0/counter[0]:CLK
  To:                    fc0/counter[0]:D
  Delay (ns):            0.575
  Slack (ns):            0.575
  Arrival (ns):          3.220
  Required (ns):         2.645

Path 7
  From:                  fc2/counter[0]:CLK
  To:                    fc2/counter[0]:D
  Delay (ns):            0.576
  Slack (ns):            0.576
  Arrival (ns):          3.219
  Required (ns):         2.643

Path 8
  From:                  fc0/counter[2]:CLK
  To:                    fc0/final_count[2]:D
  Delay (ns):            0.598
  Slack (ns):            0.581
  Arrival (ns):          3.246
  Required (ns):         2.665

Path 9
  From:                  fc1/final_count[2]:CLK
  To:                    fc1/ck_ok:D
  Delay (ns):            0.592
  Slack (ns):            0.582
  Arrival (ns):          3.246
  Required (ns):         2.664

Path 10
  From:                  fc0/counter[0]:CLK
  To:                    fc0/final_count[0]:D
  Delay (ns):            0.612
  Slack (ns):            0.582
  Arrival (ns):          3.257
  Required (ns):         2.675

Path 11
  From:                  fc2/counter[1]:CLK
  To:                    fc2/final_count[1]:D
  Delay (ns):            0.612
  Slack (ns):            0.585
  Arrival (ns):          3.257
  Required (ns):         2.672

Path 12
  From:                  fc0/state:CLK
  To:                    fc2/final_count[1]:E
  Delay (ns):            0.601
  Slack (ns):            0.587
  Arrival (ns):          3.259
  Required (ns):         2.672

Path 13
  From:                  fc1/counter[0]:CLK
  To:                    fc1/counter[0]:D
  Delay (ns):            0.632
  Slack (ns):            0.632
  Arrival (ns):          3.292
  Required (ns):         2.660

Path 14
  From:                  fc2/counter[3]:CLK
  To:                    fc2/final_count[3]:D
  Delay (ns):            0.662
  Slack (ns):            0.641
  Arrival (ns):          3.305
  Required (ns):         2.664

Path 15
  From:                  fc2/counter[0]:CLK
  To:                    fc2/final_count[1]:D
  Delay (ns):            0.713
  Slack (ns):            0.684
  Arrival (ns):          3.356
  Required (ns):         2.672

Path 16
  From:                  fc2/counter[1]:CLK
  To:                    fc2/final_count[2]:D
  Delay (ns):            0.712
  Slack (ns):            0.685
  Arrival (ns):          3.357
  Required (ns):         2.672

Path 17
  From:                  fc0/final_count[2]:CLK
  To:                    fc0/ck_ok:D
  Delay (ns):            0.699
  Slack (ns):            0.690
  Arrival (ns):          3.347
  Required (ns):         2.657

Path 18
  From:                  fc0/counter[1]:CLK
  To:                    fc0/final_count[2]:D
  Delay (ns):            0.722
  Slack (ns):            0.705
  Arrival (ns):          3.370
  Required (ns):         2.665

Path 19
  From:                  fc2/final_count[2]:CLK
  To:                    fc2/ck_ok:D
  Delay (ns):            0.727
  Slack (ns):            0.717
  Arrival (ns):          3.381
  Required (ns):         2.664

Path 20
  From:                  fc1/counter[2]:CLK
  To:                    fc1/final_count[2]:D
  Delay (ns):            0.747
  Slack (ns):            0.731
  Arrival (ns):          3.403
  Required (ns):         2.672

Path 21
  From:                  fc0/counter[1]:CLK
  To:                    fc0/final_count[1]:D
  Delay (ns):            0.793
  Slack (ns):            0.766
  Arrival (ns):          3.441
  Required (ns):         2.675

Path 22
  From:                  fc1/counter[1]:CLK
  To:                    fc1/final_count[1]:D
  Delay (ns):            0.787
  Slack (ns):            0.771
  Arrival (ns):          3.443
  Required (ns):         2.672

Path 23
  From:                  fc0/counter[0]:CLK
  To:                    fc0/final_count[2]:D
  Delay (ns):            0.792
  Slack (ns):            0.772
  Arrival (ns):          3.437
  Required (ns):         2.665

Path 24
  From:                  fc2/counter[0]:CLK
  To:                    fc2/final_count[2]:D
  Delay (ns):            0.804
  Slack (ns):            0.775
  Arrival (ns):          3.447
  Required (ns):         2.672

Path 25
  From:                  fc1/counter[2]:CLK
  To:                    fc1/counter[2]:D
  Delay (ns):            0.784
  Slack (ns):            0.784
  Arrival (ns):          3.440
  Required (ns):         2.656

Path 26
  From:                  fc2/counter[0]:CLK
  To:                    fc2/final_count[3]:D
  Delay (ns):            0.805
  Slack (ns):            0.784
  Arrival (ns):          3.448
  Required (ns):         2.664

Path 27
  From:                  fc2/counter[3]:CLK
  To:                    fc2/counter[3]:D
  Delay (ns):            0.785
  Slack (ns):            0.785
  Arrival (ns):          3.428
  Required (ns):         2.643

Path 28
  From:                  fc1/counter[1]:CLK
  To:                    fc1/counter[1]:D
  Delay (ns):            0.804
  Slack (ns):            0.804
  Arrival (ns):          3.460
  Required (ns):         2.656

Path 29
  From:                  fc2/final_count[3]:CLK
  To:                    fc2/ck_ok:D
  Delay (ns):            0.820
  Slack (ns):            0.804
  Arrival (ns):          3.468
  Required (ns):         2.664

Path 30
  From:                  fc0/counter[3]:CLK
  To:                    fc0/counter[3]:D
  Delay (ns):            0.813
  Slack (ns):            0.813
  Arrival (ns):          3.473
  Required (ns):         2.660

Path 31
  From:                  fc0/state:CLK
  To:                    fc2/counter[1]:D
  Delay (ns):            0.816
  Slack (ns):            0.813
  Arrival (ns):          3.474
  Required (ns):         2.661

Path 32
  From:                  fc1/final_count[3]:CLK
  To:                    fc1/ck_ok:D
  Delay (ns):            0.820
  Slack (ns):            0.814
  Arrival (ns):          3.478
  Required (ns):         2.664

Path 33
  From:                  fc1/counter[3]:CLK
  To:                    fc1/counter[3]:D
  Delay (ns):            0.815
  Slack (ns):            0.815
  Arrival (ns):          3.475
  Required (ns):         2.660

Path 34
  From:                  fc0/final_count[3]:CLK
  To:                    fc0/ck_ok:D
  Delay (ns):            0.820
  Slack (ns):            0.819
  Arrival (ns):          3.476
  Required (ns):         2.657

Path 35
  From:                  fc2/counter[2]:CLK
  To:                    fc2/counter[2]:D
  Delay (ns):            0.824
  Slack (ns):            0.824
  Arrival (ns):          3.469
  Required (ns):         2.645

Path 36
  From:                  fc0/counter[1]:CLK
  To:                    fc0/counter[1]:D
  Delay (ns):            0.835
  Slack (ns):            0.835
  Arrival (ns):          3.483
  Required (ns):         2.648

Path 37
  From:                  fc0/counter[2]:CLK
  To:                    fc0/counter[2]:D
  Delay (ns):            0.835
  Slack (ns):            0.835
  Arrival (ns):          3.483
  Required (ns):         2.648

Path 38
  From:                  fc2/counter[1]:CLK
  To:                    fc2/counter[1]:D
  Delay (ns):            0.846
  Slack (ns):            0.846
  Arrival (ns):          3.491
  Required (ns):         2.645

Path 39
  From:                  fc0/state:CLK
  To:                    fc0/final_count[3]:E
  Delay (ns):            0.873
  Slack (ns):            0.856
  Arrival (ns):          3.531
  Required (ns):         2.675

Path 40
  From:                  fc2/final_count[1]:CLK
  To:                    fc2/ck_ok:D
  Delay (ns):            0.870
  Slack (ns):            0.860
  Arrival (ns):          3.524
  Required (ns):         2.664

Path 41
  From:                  fc1/final_count[1]:CLK
  To:                    fc1/ck_ok:D
  Delay (ns):            0.870
  Slack (ns):            0.860
  Arrival (ns):          3.524
  Required (ns):         2.664

Path 42
  From:                  fc0/counter[0]:CLK
  To:                    fc0/final_count[1]:D
  Delay (ns):            0.892
  Slack (ns):            0.862
  Arrival (ns):          3.537
  Required (ns):         2.675

Path 43
  From:                  fc0/final_count[1]:CLK
  To:                    fc0/ck_ok:D
  Delay (ns):            0.870
  Slack (ns):            0.869
  Arrival (ns):          3.526
  Required (ns):         2.657

Path 44
  From:                  fc0/counter[2]:CLK
  To:                    fc0/final_count[3]:D
  Delay (ns):            0.915
  Slack (ns):            0.888
  Arrival (ns):          3.563
  Required (ns):         2.675

Path 45
  From:                  fc0/state:CLK
  To:                    fc2/final_count[3]:E
  Delay (ns):            0.895
  Slack (ns):            0.889
  Arrival (ns):          3.553
  Required (ns):         2.664

Path 46
  From:                  fc2/final_count[0]:CLK
  To:                    fc2/ck_ok:D
  Delay (ns):            0.908
  Slack (ns):            0.892
  Arrival (ns):          3.556
  Required (ns):         2.664

Path 47
  From:                  fc0/state:CLK
  To:                    fc0/final_count[1]:E
  Delay (ns):            0.910
  Slack (ns):            0.893
  Arrival (ns):          3.568
  Required (ns):         2.675

Path 48
  From:                  fc0/state:CLK
  To:                    fc0/final_count[0]:E
  Delay (ns):            0.910
  Slack (ns):            0.893
  Arrival (ns):          3.568
  Required (ns):         2.675

Path 49
  From:                  fc1/final_count[0]:CLK
  To:                    fc1/ck_ok:D
  Delay (ns):            0.907
  Slack (ns):            0.901
  Arrival (ns):          3.565
  Required (ns):         2.664

Path 50
  From:                  fc0/final_count[0]:CLK
  To:                    fc0/ck_ok:D
  Delay (ns):            0.908
  Slack (ns):            0.907
  Arrival (ns):          3.564
  Required (ns):         2.657

Path 51
  From:                  fc2/counter[0]:CLK
  To:                    fc2/counter[3]:D
  Delay (ns):            0.928
  Slack (ns):            0.912
  Arrival (ns):          3.571
  Required (ns):         2.659

Path 52
  From:                  fc0/counter[0]:CLK
  To:                    fc0/counter[1]:D
  Delay (ns):            0.934
  Slack (ns):            0.914
  Arrival (ns):          3.579
  Required (ns):         2.665

Path 53
  From:                  fc0/state:CLK
  To:                    fc1/final_count[3]:E
  Delay (ns):            0.945
  Slack (ns):            0.926
  Arrival (ns):          3.603
  Required (ns):         2.677

Path 54
  From:                  fc0/state:CLK
  To:                    fc1/final_count[0]:E
  Delay (ns):            0.945
  Slack (ns):            0.926
  Arrival (ns):          3.603
  Required (ns):         2.677

Path 55
  From:                  fc1/counter[0]:CLK
  To:                    fc1/final_count[2]:D
  Delay (ns):            0.938
  Slack (ns):            0.926
  Arrival (ns):          3.598
  Required (ns):         2.672

Path 56
  From:                  fc0/state:CLK
  To:                    fc1/final_count[1]:E
  Delay (ns):            0.941
  Slack (ns):            0.927
  Arrival (ns):          3.599
  Required (ns):         2.672

Path 57
  From:                  fc0/state:CLK
  To:                    fc2/final_count[2]:E
  Delay (ns):            0.941
  Slack (ns):            0.927
  Arrival (ns):          3.599
  Required (ns):         2.672

Path 58
  From:                  fc0/state:CLK
  To:                    fc0/final_count[2]:E
  Delay (ns):            0.934
  Slack (ns):            0.927
  Arrival (ns):          3.592
  Required (ns):         2.665

Path 59
  From:                  fc0/state:CLK
  To:                    fc1/final_count[2]:E
  Delay (ns):            0.941
  Slack (ns):            0.927
  Arrival (ns):          3.599
  Required (ns):         2.672

Path 60
  From:                  fc2/counter[0]:CLK
  To:                    fc2/counter[1]:D
  Delay (ns):            0.947
  Slack (ns):            0.929
  Arrival (ns):          3.590
  Required (ns):         2.661

Path 61
  From:                  fc2/counter[1]:CLK
  To:                    fc2/counter[2]:D
  Delay (ns):            0.947
  Slack (ns):            0.931
  Arrival (ns):          3.592
  Required (ns):         2.661

Path 62
  From:                  fc0/counter[1]:CLK
  To:                    fc0/counter[2]:D
  Delay (ns):            0.959
  Slack (ns):            0.942
  Arrival (ns):          3.607
  Required (ns):         2.665

Path 63
  From:                  fc0/state:CLK
  To:                    fc0/counter[0]:D
  Delay (ns):            0.949
  Slack (ns):            0.946
  Arrival (ns):          3.607
  Required (ns):         2.661

Path 64
  From:                  fc1/counter[0]:CLK
  To:                    fc1/final_count[1]:D
  Delay (ns):            0.959
  Slack (ns):            0.947
  Arrival (ns):          3.619
  Required (ns):         2.672

Path 65
  From:                  fc0/state:CLK
  To:                    fc1/counter[0]:D
  Delay (ns):            0.974
  Slack (ns):            0.952
  Arrival (ns):          3.632
  Required (ns):         2.680

Path 66
  From:                  fc0/state:CLK
  To:                    fc1/counter[3]:D
  Delay (ns):            0.974
  Slack (ns):            0.952
  Arrival (ns):          3.632
  Required (ns):         2.680

Path 67
  From:                  fc1/counter[0]:CLK
  To:                    fc1/counter[2]:D
  Delay (ns):            0.975
  Slack (ns):            0.960
  Arrival (ns):          3.635
  Required (ns):         2.675

Path 68
  From:                  fc1/counter[0]:CLK
  To:                    fc1/counter[1]:D
  Delay (ns):            0.976
  Slack (ns):            0.961
  Arrival (ns):          3.636
  Required (ns):         2.675

Path 69
  From:                  fc0/state:CLK
  To:                    fc1/counter[2]:D
  Delay (ns):            0.978
  Slack (ns):            0.961
  Arrival (ns):          3.636
  Required (ns):         2.675

Path 70
  From:                  fc0/state:CLK
  To:                    fc1/counter[1]:D
  Delay (ns):            0.979
  Slack (ns):            0.962
  Arrival (ns):          3.637
  Required (ns):         2.675

Path 71
  From:                  fc0/state:CLK
  To:                    fc0/counter[3]:D
  Delay (ns):            0.985
  Slack (ns):            0.963
  Arrival (ns):          3.643
  Required (ns):         2.680

Path 72
  From:                  fc0/state:CLK
  To:                    fc2/counter[0]:D
  Delay (ns):            0.965
  Slack (ns):            0.964
  Arrival (ns):          3.623
  Required (ns):         2.659

Path 73
  From:                  fc0/state:CLK
  To:                    fc2/counter[3]:D
  Delay (ns):            0.965
  Slack (ns):            0.964
  Arrival (ns):          3.623
  Required (ns):         2.659

Path 74
  From:                  fc1/counter[1]:CLK
  To:                    fc1/final_count[2]:D
  Delay (ns):            0.988
  Slack (ns):            0.972
  Arrival (ns):          3.644
  Required (ns):         2.672

Path 75
  From:                  fc0/state:CLK
  To:                    fc2/counter[2]:D
  Delay (ns):            0.979
  Slack (ns):            0.976
  Arrival (ns):          3.637
  Required (ns):         2.661

Path 76
  From:                  fc0/state:CLK
  To:                    fc0/counter[1]:D
  Delay (ns):            0.985
  Slack (ns):            0.978
  Arrival (ns):          3.643
  Required (ns):         2.665

Path 77
  From:                  fc0/state:CLK
  To:                    fc0/counter[2]:D
  Delay (ns):            0.985
  Slack (ns):            0.978
  Arrival (ns):          3.643
  Required (ns):         2.665

Path 78
  From:                  fc0/state:CLK
  To:                    fc2/final_count[0]:E
  Delay (ns):            0.996
  Slack (ns):            0.990
  Arrival (ns):          3.654
  Required (ns):         2.664

Path 79
  From:                  fc1/counter[1]:CLK
  To:                    fc1/final_count[3]:D
  Delay (ns):            1.015
  Slack (ns):            0.994
  Arrival (ns):          3.671
  Required (ns):         2.677

Path 80
  From:                  fc0/counter[1]:CLK
  To:                    fc0/final_count[3]:D
  Delay (ns):            1.026
  Slack (ns):            0.999
  Arrival (ns):          3.674
  Required (ns):         2.675

Path 81
  From:                  fc2/counter[2]:CLK
  To:                    fc2/final_count[3]:D
  Delay (ns):            1.020
  Slack (ns):            1.001
  Arrival (ns):          3.665
  Required (ns):         2.664

Path 82
  From:                  fc1/counter[1]:CLK
  To:                    fc1/counter[2]:D
  Delay (ns):            1.025
  Slack (ns):            1.006
  Arrival (ns):          3.681
  Required (ns):         2.675

Path 83
  From:                  fc0/counter[0]:CLK
  To:                    fc0/final_count[3]:D
  Delay (ns):            1.036
  Slack (ns):            1.006
  Arrival (ns):          3.681
  Required (ns):         2.675

Path 84
  From:                  fc1/counter[2]:CLK
  To:                    fc1/final_count[3]:D
  Delay (ns):            1.028
  Slack (ns):            1.007
  Arrival (ns):          3.684
  Required (ns):         2.677

Path 85
  From:                  fc0/counter[0]:CLK
  To:                    fc0/counter[2]:D
  Delay (ns):            1.029
  Slack (ns):            1.009
  Arrival (ns):          3.674
  Required (ns):         2.665

Path 86
  From:                  fc2/counter[0]:CLK
  To:                    fc2/counter[2]:D
  Delay (ns):            1.039
  Slack (ns):            1.021
  Arrival (ns):          3.682
  Required (ns):         2.661

Path 87
  From:                  fc1/counter[0]:CLK
  To:                    fc1/final_count[3]:D
  Delay (ns):            1.094
  Slack (ns):            1.077
  Arrival (ns):          3.754
  Required (ns):         2.677

Path 88
  From:                  fc2/counter[1]:CLK
  To:                    fc2/final_count[3]:D
  Delay (ns):            1.109
  Slack (ns):            1.090
  Arrival (ns):          3.754
  Required (ns):         2.664

Path 89
  From:                  fc0/counter[2]:CLK
  To:                    fc0/counter[3]:D
  Delay (ns):            1.156
  Slack (ns):            1.124
  Arrival (ns):          3.804
  Required (ns):         2.680

Path 90
  From:                  fc2/counter[2]:CLK
  To:                    fc2/counter[3]:D
  Delay (ns):            1.143
  Slack (ns):            1.129
  Arrival (ns):          3.788
  Required (ns):         2.659

Path 91
  From:                  fc2/counter[1]:CLK
  To:                    fc2/counter[3]:D
  Delay (ns):            1.232
  Slack (ns):            1.218
  Arrival (ns):          3.877
  Required (ns):         2.659

Path 92
  From:                  fc1/counter[1]:CLK
  To:                    fc1/counter[3]:D
  Delay (ns):            1.252
  Slack (ns):            1.228
  Arrival (ns):          3.908
  Required (ns):         2.680

Path 93
  From:                  fc0/counter[1]:CLK
  To:                    fc0/counter[3]:D
  Delay (ns):            1.267
  Slack (ns):            1.235
  Arrival (ns):          3.915
  Required (ns):         2.680

Path 94
  From:                  fc1/counter[2]:CLK
  To:                    fc1/counter[3]:D
  Delay (ns):            1.265
  Slack (ns):            1.241
  Arrival (ns):          3.921
  Required (ns):         2.680

Path 95
  From:                  fc0/counter[0]:CLK
  To:                    fc0/counter[3]:D
  Delay (ns):            1.277
  Slack (ns):            1.242
  Arrival (ns):          3.922
  Required (ns):         2.680

Path 96
  From:                  fc1/counter[0]:CLK
  To:                    fc1/counter[3]:D
  Delay (ns):            1.331
  Slack (ns):            1.311
  Arrival (ns):          3.991
  Required (ns):         2.680

