Timing Report Max Delay Analysis

SmartTime Version v11.9 SP5
Microsemi Corporation - Microsemi Libero Software Release v11.9 SP5 (Version 11.9.5.5)
Date: Wed Apr 15 16:29:51 2020


Design: jtag_interface_top
Family: ProASIC3
Die: A3P250
Package: 144 FBGA
Temperature Range: -40 - 85 C
Voltage Range: 1.425 - 1.575 V
Speed Grade: -1
Design State: Post-Layout
Data source: Silicon verified
Min Operating Conditions: BEST - 1.575 V - -40 C
Max Operating Conditions: WORST - 1.425 V - 85 C
Using Enhanced Min Delay Analysis
Scenario for Timing Analysis: Primary


-----------------------------------------------------
SUMMARY

Clock Domain:               clocking/Core:GLA
Period (ns):                0.858
Frequency (MHz):            1165.501
Required Period (ns):       25.000
Required Frequency (MHz):   40.000
External Setup (ns):        -1.620
Max Clock-To-Out (ns):      13.569

Clock Domain:               clocking/Core:GLB
Period (ns):                4.350
Frequency (MHz):            229.885
Required Period (ns):       4.167
Required Frequency (MHz):   239.981
External Setup (ns):        -0.285
Max Clock-To-Out (ns):      N/A

Clock Domain:               gbt_clk40
Period (ns):                4.000
Frequency (MHz):            250.000
Required Period (ns):       24.950
Required Frequency (MHz):   40.080
External Setup (ns):        N/A
Max Clock-To-Out (ns):      N/A

Clock Domain:               osc_clk40
Period (ns):                4.000
Frequency (MHz):            250.000
Required Period (ns):       25.000
Required Frequency (MHz):   40.000
External Setup (ns):        N/A
Max Clock-To-Out (ns):      N/A

                            Input to Output
Max Delay (ns):             N/A

END SUMMARY
-----------------------------------------------------

Clock Domain clocking/Core:GLA

Info: The maximum frequency of this clock domain is limited by the minimum pulse widths of pin jtag_out_loc[1]:CLK

SET Register to Register

No Path

END SET Register to Register

----------------------------------------------------

SET External Setup

Path 1
  From:                  gbt_dvalid
  To:                    jtag_out_rem_tri_enable:D
  Delay (ns):            2.915
  Slack (ns):
  Arrival (ns):          2.915
  Required (ns):
  Setup (ns):            0.616
  External Setup (ns):   -1.620

Path 2
  From:                  gbt_tdi_p[0]
  To:                    jtag_out_loc[1]:D
  Delay (ns):            2.790
  Slack (ns):
  Arrival (ns):          2.790
  Required (ns):
  Setup (ns):            0.616
  External Setup (ns):   -1.751

Path 3
  From:                  gbt_tdi_n[0]
  To:                    jtag_out_loc[1]:D
  Delay (ns):            2.776
  Slack (ns):
  Arrival (ns):          2.776
  Required (ns):
  Setup (ns):            0.616
  External Setup (ns):   -1.765

Path 4
  From:                  gbt_tck_p[0]
  To:                    jtag_out_loc[2]:D
  Delay (ns):            2.511
  Slack (ns):
  Arrival (ns):          2.511
  Required (ns):
  Setup (ns):            0.616
  External Setup (ns):   -2.032

Path 5
  From:                  gbt_tck_n[0]
  To:                    jtag_out_loc[2]:D
  Delay (ns):            2.497
  Slack (ns):
  Arrival (ns):          2.497
  Required (ns):
  Setup (ns):            0.616
  External Setup (ns):   -2.046


Expanded Path 1
  From: gbt_dvalid
  To: jtag_out_rem_tri_enable:D
  data required time                             N/C
  data arrival time                          -   2.915
  slack                                          N/C
  ________________________________________________________
  Data arrival time calculation
  0.000                        gbt_dvalid (r)
               +     0.000          net: gbt_dvalid
  0.000                        gbt_dvalid_pad/U0/U0:PAD (r)
               +     0.875          cell: ADLIB:IOPAD_IN
  0.875                        gbt_dvalid_pad/U0/U0:Y (r)
               +     0.000          net: gbt_dvalid_pad/U0/NET1
  0.875                        gbt_dvalid_pad/U0/U1:YIN (r)
               +     0.037          cell: ADLIB:IOIN_IB
  0.912                        gbt_dvalid_pad/U0/U1:Y (r)
               +     1.291          net: gbt_dvalid_c
  2.203                        kc1/jtag_loc_en:A (r)
               +     0.422          cell: ADLIB:NOR3C
  2.625                        kc1/jtag_loc_en:Y (r)
               +     0.290          net: jtag_loc_en
  2.915                        jtag_out_rem_tri_enable:D (r)
                                    
  2.915                        data arrival time
  ________________________________________________________
  Data required time calculation
  N/C                          clocking/Core:GLA
               +     0.000          Clock source
  N/C                          clocking/Core:GLA (f)
               +     4.552          Clock generation
  N/C
               +     0.599          net: GLA
  N/C                          jtag_out_rem_tri_enable:CLK (f)
               -     0.616          Library setup time: ADLIB:DFN0
  N/C                          jtag_out_rem_tri_enable:D


END SET External Setup

----------------------------------------------------

SET Clock to Output

Path 1
  From:                  jtag_out_rem_tri_enable:CLK
  To:                    proasic_tdi[1]
  Delay (ns):            8.418
  Slack (ns):
  Arrival (ns):          13.569
  Required (ns):
  Clock to Out (ns):     13.569

Path 2
  From:                  jtag_out_rem_tri_enable:CLK
  To:                    proasic_rst[1]
  Delay (ns):            8.327
  Slack (ns):
  Arrival (ns):          13.478
  Required (ns):
  Clock to Out (ns):     13.478

Path 3
  From:                  jtag_out_rem_tri_enable:CLK
  To:                    proasic_tck[0]
  Delay (ns):            7.898
  Slack (ns):
  Arrival (ns):          13.049
  Required (ns):
  Clock to Out (ns):     13.049

Path 4
  From:                  jtag_out_rem_tri_enable:CLK
  To:                    proasic_tms[1]
  Delay (ns):            7.285
  Slack (ns):
  Arrival (ns):          12.436
  Required (ns):
  Clock to Out (ns):     12.436

Path 5
  From:                  jtag_out_rem_tri_enable:CLK
  To:                    proasic_tck[1]
  Delay (ns):            6.897
  Slack (ns):
  Arrival (ns):          12.048
  Required (ns):
  Clock to Out (ns):     12.048


Expanded Path 1
  From: jtag_out_rem_tri_enable:CLK
  To: proasic_tdi[1]
  data required time                             N/C
  data arrival time                          -   13.569
  slack                                          N/C
  ________________________________________________________
  Data arrival time calculation
  0.000                        clocking/Core:GLA
               +     0.000          Clock source
  0.000                        clocking/Core:GLA (f)
               +     4.552          Clock generation
  4.552
               +     0.599          net: GLA
  5.151                        jtag_out_rem_tri_enable:CLK (f)
               +     0.565          cell: ADLIB:DFN0
  5.716                        jtag_out_rem_tri_enable:Q (f)
               +     4.679          net: jtag_out_rem_tri_enable
  10.395                       proasic_tdi_pad[1]/U0/U1:E (f)
               +     0.360          cell: ADLIB:IOTRI_OB_EB
  10.755                       proasic_tdi_pad[1]/U0/U1:EOUT (f)
               +     0.000          net: proasic_tdi_pad[1]/U0/NET2
  10.755                       proasic_tdi_pad[1]/U0/U0:E (f)
               +     2.814          cell: ADLIB:IOPAD_TRI
  13.569                       proasic_tdi_pad[1]/U0/U0:PAD (f)
               +     0.000          net: proasic_tdi_0[1]
  13.569                       proasic_tdi[1] (f)
                                    
  13.569                       data arrival time
  ________________________________________________________
  Data required time calculation
  N/C                          clocking/Core:GLA
               +     0.000          Clock source
  N/C                          clocking/Core:GLA (r)
               +     4.552          Clock generation
  N/C
                                    
  N/C                          proasic_tdi[1] (f)


END SET Clock to Output

----------------------------------------------------

SET Register to Asynchronous

No Path

END SET Register to Asynchronous

----------------------------------------------------

SET External Recovery

No Path

END SET External Recovery

----------------------------------------------------

SET Asynchronous to Register

No Path

END SET Asynchronous to Register

----------------------------------------------------

Clock Domain clocking/Core:GLB

SET Register to Register

Path 1
  From:                  fc0/state:CLK
  To:                    fc0/counter[1]:D
  Delay (ns):            3.832
  Slack (ns):            -0.183
  Arrival (ns):          9.670
  Required (ns):         9.487
  Setup (ns):            0.496
  Minimum Period (ns):   4.350

Path 2
  From:                  fc0/state:CLK
  To:                    fc1/counter[1]:D
  Delay (ns):            3.812
  Slack (ns):            -0.153
  Arrival (ns):          9.650
  Required (ns):         9.497
  Setup (ns):            0.496
  Minimum Period (ns):   4.320

Path 3
  From:                  fc0/final_count[2]:CLK
  To:                    fc0/ck_ok:D
  Delay (ns):            3.798
  Slack (ns):            -0.118
  Arrival (ns):          9.636
  Required (ns):         9.518
  Setup (ns):            0.466
  Minimum Period (ns):   4.285

Path 4
  From:                  fc2/counter[2]:CLK
  To:                    fc2/counter[3]:D
  Delay (ns):            3.810
  Slack (ns):            -0.117
  Arrival (ns):          9.626
  Required (ns):         9.509
  Setup (ns):            0.496
  Minimum Period (ns):   4.284

Path 5
  From:                  fc0/state:CLK
  To:                    fc1/counter[2]:D
  Delay (ns):            3.746
  Slack (ns):            -0.087
  Arrival (ns):          9.584
  Required (ns):         9.497
  Setup (ns):            0.496
  Minimum Period (ns):   4.254


Expanded Path 1
  From: fc0/state:CLK
  To: fc0/counter[1]:D
  data required time                             9.487
  data arrival time                          -   9.670
  slack                                          -0.183
  ________________________________________________________
  Data arrival time calculation
  0.000                        clocking/Core:GLB
               +     0.000          Clock source
  0.000                        clocking/Core:GLB (r)
               +     5.201          Clock generation
  5.201
               +     0.637          net: GLB
  5.838                        fc0/state:CLK (r)
               +     0.637          cell: ADLIB:DFN1
  6.475                        fc0/state:Q (f)
               +     0.290          net: fc0/state
  6.765                        fc0/state_RNIM29B:A (f)
               +     0.545          cell: ADLIB:NOR2A
  7.310                        fc0/state_RNIM29B:Y (f)
               +     1.660          net: fc0_counter_0_sqmuxa
  8.970                        fc0/counter_RNO[1]:B (f)
               +     0.422          cell: ADLIB:NOR2A
  9.392                        fc0/counter_RNO[1]:Y (r)
               +     0.278          net: fc0/counter_4[1]
  9.670                        fc0/counter[1]:D (r)
                                    
  9.670                        data arrival time
  ________________________________________________________
  Data required time calculation
  4.167                        clocking/Core:GLB
               +     0.000          Clock source
  4.167                        clocking/Core:GLB (r)
               +     5.201          Clock generation
  9.368
               +     0.615          net: GLB
  9.983                        fc0/counter[1]:CLK (r)
               -     0.496          Library setup time: ADLIB:DFN1
  9.487                        fc0/counter[1]:D
                                    
  9.487                        data required time


END SET Register to Register

----------------------------------------------------

SET External Setup

Path 1
  From:                  gbt_clk40
  To:                    fc0/counter[1]:D
  Delay (ns):            5.035
  Slack (ns):
  Arrival (ns):          5.035
  Required (ns):
  Setup (ns):            0.496
  External Setup (ns):   -0.285

Path 2
  From:                  gbt_clk40
  To:                    fc1/counter[1]:D
  Delay (ns):            5.015
  Slack (ns):
  Arrival (ns):          5.015
  Required (ns):
  Setup (ns):            0.496
  External Setup (ns):   -0.315

Path 3
  From:                  gbt_clk40
  To:                    fc1/counter[2]:D
  Delay (ns):            4.949
  Slack (ns):
  Arrival (ns):          4.949
  Required (ns):
  Setup (ns):            0.496
  External Setup (ns):   -0.381

Path 4
  From:                  gbt_clk40
  To:                    fc2/counter[0]:D
  Delay (ns):            4.986
  Slack (ns):
  Arrival (ns):          4.986
  Required (ns):
  Setup (ns):            0.466
  External Setup (ns):   -0.386

Path 5
  From:                  gbt_clk40
  To:                    fc0/counter[3]:D
  Delay (ns):            4.846
  Slack (ns):
  Arrival (ns):          4.846
  Required (ns):
  Setup (ns):            0.496
  External Setup (ns):   -0.496


Expanded Path 1
  From: gbt_clk40
  To: fc0/counter[1]:D
  data required time                             N/C
  data arrival time                          -   5.035
  slack                                          N/C
  ________________________________________________________
  Data arrival time calculation
  0.000                        gbt_clk40 (r)
               +     0.000          net: gbt_clk40
  0.000                        gbt_clk40_pad/U0/U0:PAD (r)
               +     0.875          cell: ADLIB:IOPAD_IN
  0.875                        gbt_clk40_pad/U0/U0:Y (r)
               +     0.000          net: gbt_clk40_pad/U0/NET1
  0.875                        gbt_clk40_pad/U0/U1:YIN (r)
               +     0.037          cell: ADLIB:IOIN_IB
  0.912                        gbt_clk40_pad/U0/U1:Y (r)
               +     1.318          net: gbt_clk40_c
  2.230                        fc0/state_RNIM29B:B (r)
               +     0.445          cell: ADLIB:NOR2A
  2.675                        fc0/state_RNIM29B:Y (f)
               +     1.660          net: fc0_counter_0_sqmuxa
  4.335                        fc0/counter_RNO[1]:B (f)
               +     0.422          cell: ADLIB:NOR2A
  4.757                        fc0/counter_RNO[1]:Y (r)
               +     0.278          net: fc0/counter_4[1]
  5.035                        fc0/counter[1]:D (r)
                                    
  5.035                        data arrival time
  ________________________________________________________
  Data required time calculation
  N/C                          clocking/Core:GLB
               +     0.000          Clock source
  N/C                          clocking/Core:GLB (r)
               +     5.201          Clock generation
  N/C
               +     0.615          net: GLB
  N/C                          fc0/counter[1]:CLK (r)
               -     0.496          Library setup time: ADLIB:DFN1
  N/C                          fc0/counter[1]:D


END SET External Setup

----------------------------------------------------

SET Clock to Output

No Path

END SET Clock to Output

----------------------------------------------------

SET Register to Asynchronous

No Path

END SET Register to Asynchronous

----------------------------------------------------

SET External Recovery

No Path

END SET External Recovery

----------------------------------------------------

SET Asynchronous to Register

No Path

END SET Asynchronous to Register

----------------------------------------------------

Clock Domain gbt_clk40

Info: The maximum frequency of this clock domain is limited by the minimum pulse widths of pin gbt_clk40_pad/U0/U0:PAD

SET Register to Register

No Path

END SET Register to Register

----------------------------------------------------

SET External Setup

No Path

END SET External Setup

----------------------------------------------------

SET Clock to Output

No Path

END SET Clock to Output

----------------------------------------------------

SET Register to Asynchronous

No Path

END SET Register to Asynchronous

----------------------------------------------------

SET External Recovery

No Path

END SET External Recovery

----------------------------------------------------

SET Asynchronous to Register

No Path

END SET Asynchronous to Register

----------------------------------------------------

Clock Domain osc_clk40

Info: The maximum frequency of this clock domain is limited by the minimum pulse widths of pin osc_clk40_pad/U0/U0:PAD

SET Register to Register

No Path

END SET Register to Register

----------------------------------------------------

SET External Setup

No Path

END SET External Setup

----------------------------------------------------

SET Clock to Output

No Path

END SET Clock to Output

----------------------------------------------------

SET Register to Asynchronous

No Path

END SET Register to Asynchronous

----------------------------------------------------

SET External Recovery

No Path

END SET External Recovery

----------------------------------------------------

SET Asynchronous to Register

No Path

END SET Asynchronous to Register

----------------------------------------------------

Path set Pin to Pin

SET Input to Output

No Path

END SET Input to Output

----------------------------------------------------

Path set User Sets

