Timing Violation Report Max Delay Analysis

SmartTime Version v11.9 SP5
Microsemi Corporation - Microsemi Libero Software Release v11.9 SP5 (Version 11.9.5.5)
Date: Thu Apr 16 17:31:38 2020


Design: jtag_interface_top
Family: ProASIC3
Die: A3P250
Package: 144 FBGA
Temperature Range: -40 - 85 C
Voltage Range: 1.425 - 1.575 V
Speed Grade: -1
Design State: Post-Layout
Data source: Silicon verified
Min Operating Conditions: BEST - 1.575 V - -40 C
Max Operating Conditions: WORST - 1.425 V - 85 C
Using Enhanced Min Delay Analysis
Scenario for Timing Analysis: Primary


Path 1
  From:                  fc1/counter[0]:CLK
  To:                    fc1/counter[3]:D
  Delay (ns):            3.877
  Slack (ns):            -0.176
  Arrival (ns):          9.703
  Required (ns):         9.527

Path 2
  From:                  fc0/counter[0]:CLK
  To:                    fc0/counter[3]:D
  Delay (ns):            3.720
  Slack (ns):            0.018
  Arrival (ns):          9.509
  Required (ns):         9.527

Path 3
  From:                  fc2/counter[1]:CLK
  To:                    fc2/counter[3]:D
  Delay (ns):            3.639
  Slack (ns):            0.027
  Arrival (ns):          9.429
  Required (ns):         9.456

Path 4
  From:                  fc0/counter[1]:CLK
  To:                    fc0/counter[3]:D
  Delay (ns):            3.689
  Slack (ns):            0.041
  Arrival (ns):          9.486
  Required (ns):         9.527

Path 5
  From:                  fc1/counter[2]:CLK
  To:                    fc1/counter[3]:D
  Delay (ns):            3.648
  Slack (ns):            0.064
  Arrival (ns):          9.463
  Required (ns):         9.527

Path 6
  From:                  fc1/counter[1]:CLK
  To:                    fc1/counter[3]:D
  Delay (ns):            3.640
  Slack (ns):            0.072
  Arrival (ns):          9.455
  Required (ns):         9.527

Path 7
  From:                  fc2/counter[2]:CLK
  To:                    fc2/counter[3]:D
  Delay (ns):            3.348
  Slack (ns):            0.318
  Arrival (ns):          9.138
  Required (ns):         9.456

Path 8
  From:                  fc2/counter[1]:CLK
  To:                    fc2/final_count[3]:D
  Delay (ns):            3.311
  Slack (ns):            0.365
  Arrival (ns):          9.101
  Required (ns):         9.466

Path 9
  From:                  fc0/counter[2]:CLK
  To:                    fc0/counter[3]:D
  Delay (ns):            3.363
  Slack (ns):            0.367
  Arrival (ns):          9.160
  Required (ns):         9.527

Path 10
  From:                  fc1/counter[0]:CLK
  To:                    fc1/final_count[3]:D
  Delay (ns):            3.249
  Slack (ns):            0.445
  Arrival (ns):          9.075
  Required (ns):         9.520

Path 11
  From:                  fc2/counter[0]:CLK
  To:                    fc2/counter[2]:D
  Delay (ns):            3.109
  Slack (ns):            0.567
  Arrival (ns):          8.894
  Required (ns):         9.461

Path 12
  From:                  fc0/counter[0]:CLK
  To:                    fc0/counter[2]:D
  Delay (ns):            3.075
  Slack (ns):            0.604
  Arrival (ns):          8.864
  Required (ns):         9.468

Path 13
  From:                  fc1/counter[1]:CLK
  To:                    fc1/counter[2]:D
  Delay (ns):            3.055
  Slack (ns):            0.616
  Arrival (ns):          8.870
  Required (ns):         9.486

Path 14
  From:                  fc0/counter[0]:CLK
  To:                    fc0/final_count[3]:D
  Delay (ns):            3.080
  Slack (ns):            0.647
  Arrival (ns):          8.869
  Required (ns):         9.516

Path 15
  From:                  fc0/state:CLK
  To:                    fc0/counter[1]:D
  Delay (ns):            3.029
  Slack (ns):            0.650
  Arrival (ns):          8.848
  Required (ns):         9.498

Path 16
  From:                  fc0/state:CLK
  To:                    fc0/counter[2]:D
  Delay (ns):            3.029
  Slack (ns):            0.650
  Arrival (ns):          8.848
  Required (ns):         9.498

Path 17
  From:                  fc2/counter[2]:CLK
  To:                    fc2/final_count[3]:D
  Delay (ns):            3.020
  Slack (ns):            0.656
  Arrival (ns):          8.810
  Required (ns):         9.466

Path 18
  From:                  fc0/state:CLK
  To:                    fc2/counter[2]:D
  Delay (ns):            3.013
  Slack (ns):            0.659
  Arrival (ns):          8.832
  Required (ns):         9.491

Path 19
  From:                  fc0/counter[1]:CLK
  To:                    fc0/final_count[3]:D
  Delay (ns):            3.049
  Slack (ns):            0.670
  Arrival (ns):          8.846
  Required (ns):         9.516

Path 20
  From:                  fc0/state:CLK
  To:                    fc0/counter[3]:D
  Delay (ns):            3.029
  Slack (ns):            0.679
  Arrival (ns):          8.848
  Required (ns):         9.527

Path 21
  From:                  fc1/counter[2]:CLK
  To:                    fc1/final_count[3]:D
  Delay (ns):            3.020
  Slack (ns):            0.685
  Arrival (ns):          8.835
  Required (ns):         9.520

Path 22
  From:                  fc1/counter[1]:CLK
  To:                    fc1/final_count[3]:D
  Delay (ns):            3.012
  Slack (ns):            0.693
  Arrival (ns):          8.827
  Required (ns):         9.520

Path 23
  From:                  fc0/state:CLK
  To:                    fc2/counter[0]:D
  Delay (ns):            2.957
  Slack (ns):            0.710
  Arrival (ns):          8.776
  Required (ns):         9.486

Path 24
  From:                  fc0/state:CLK
  To:                    fc2/counter[3]:D
  Delay (ns):            2.957
  Slack (ns):            0.710
  Arrival (ns):          8.776
  Required (ns):         9.486

Path 25
  From:                  fc0/state:CLK
  To:                    fc1/counter[1]:D
  Delay (ns):            2.981
  Slack (ns):            0.716
  Arrival (ns):          8.800
  Required (ns):         9.516

Path 26
  From:                  fc0/state:CLK
  To:                    fc1/counter[2]:D
  Delay (ns):            2.981
  Slack (ns):            0.716
  Arrival (ns):          8.800
  Required (ns):         9.516

Path 27
  From:                  fc0/state:CLK
  To:                    fc1/counter[0]:D
  Delay (ns):            2.991
  Slack (ns):            0.717
  Arrival (ns):          8.810
  Required (ns):         9.527

Path 28
  From:                  fc0/state:CLK
  To:                    fc1/counter[3]:D
  Delay (ns):            2.991
  Slack (ns):            0.717
  Arrival (ns):          8.810
  Required (ns):         9.527

Path 29
  From:                  fc1/counter[0]:CLK
  To:                    fc1/counter[2]:D
  Delay (ns):            2.942
  Slack (ns):            0.718
  Arrival (ns):          8.768
  Required (ns):         9.486

Path 30
  From:                  fc1/counter[1]:CLK
  To:                    fc1/final_count[2]:D
  Delay (ns):            2.948
  Slack (ns):            0.719
  Arrival (ns):          8.763
  Required (ns):         9.482

Path 31
  From:                  fc1/counter[0]:CLK
  To:                    fc1/counter[1]:D
  Delay (ns):            2.940
  Slack (ns):            0.720
  Arrival (ns):          8.766
  Required (ns):         9.486

Path 32
  From:                  fc0/state:CLK
  To:                    fc0/counter[0]:D
  Delay (ns):            2.907
  Slack (ns):            0.764
  Arrival (ns):          8.726
  Required (ns):         9.490

Path 33
  From:                  fc1/counter[0]:CLK
  To:                    fc1/final_count[1]:D
  Delay (ns):            2.886
  Slack (ns):            0.770
  Arrival (ns):          8.712
  Required (ns):         9.482

Path 34
  From:                  fc0/counter[1]:CLK
  To:                    fc0/counter[2]:D
  Delay (ns):            2.886
  Slack (ns):            0.785
  Arrival (ns):          8.683
  Required (ns):         9.468

Path 35
  From:                  fc2/counter[1]:CLK
  To:                    fc2/counter[2]:D
  Delay (ns):            2.860
  Slack (ns):            0.811
  Arrival (ns):          8.650
  Required (ns):         9.461

Path 36
  From:                  fc1/counter[0]:CLK
  To:                    fc1/final_count[2]:D
  Delay (ns):            2.835
  Slack (ns):            0.821
  Arrival (ns):          8.661
  Required (ns):         9.482

Path 37
  From:                  fc2/counter[0]:CLK
  To:                    fc2/counter[1]:D
  Delay (ns):            2.851
  Slack (ns):            0.825
  Arrival (ns):          8.636
  Required (ns):         9.461

Path 38
  From:                  fc2/counter[0]:CLK
  To:                    fc2/counter[3]:D
  Delay (ns):            2.810
  Slack (ns):            0.861
  Arrival (ns):          8.595
  Required (ns):         9.456

Path 39
  From:                  fc0/counter[0]:CLK
  To:                    fc0/counter[1]:D
  Delay (ns):            2.817
  Slack (ns):            0.862
  Arrival (ns):          8.606
  Required (ns):         9.468

Path 40
  From:                  fc0/state:CLK
  To:                    fc2/final_count[0]:E
  Delay (ns):            2.807
  Slack (ns):            0.961
  Arrival (ns):          8.626
  Required (ns):         9.587

Path 41
  From:                  fc0/counter[2]:CLK
  To:                    fc0/final_count[3]:D
  Delay (ns):            2.723
  Slack (ns):            0.996
  Arrival (ns):          8.520
  Required (ns):         9.516

Path 42
  From:                  fc0/counter[0]:CLK
  To:                    fc0/final_count[1]:D
  Delay (ns):            2.699
  Slack (ns):            0.998
  Arrival (ns):          8.488
  Required (ns):         9.486

Path 43
  From:                  fc0/final_count[0]:CLK
  To:                    fc0/ck_ok:D
  Delay (ns):            2.630
  Slack (ns):            1.037
  Arrival (ns):          8.445
  Required (ns):         9.482

Path 44
  From:                  fc1/final_count[0]:CLK
  To:                    fc1/ck_ok:D
  Delay (ns):            2.630
  Slack (ns):            1.047
  Arrival (ns):          8.449
  Required (ns):         9.496

Path 45
  From:                  fc2/final_count[0]:CLK
  To:                    fc2/ck_ok:D
  Delay (ns):            2.630
  Slack (ns):            1.071
  Arrival (ns):          8.425
  Required (ns):         9.496

Path 46
  From:                  fc0/state:CLK
  To:                    fc1/final_count[1]:E
  Delay (ns):            2.702
  Slack (ns):            1.082
  Arrival (ns):          8.521
  Required (ns):         9.603

Path 47
  From:                  fc0/state:CLK
  To:                    fc2/final_count[2]:E
  Delay (ns):            2.702
  Slack (ns):            1.082
  Arrival (ns):          8.521
  Required (ns):         9.603

Path 48
  From:                  fc0/state:CLK
  To:                    fc1/final_count[2]:E
  Delay (ns):            2.702
  Slack (ns):            1.082
  Arrival (ns):          8.521
  Required (ns):         9.603

Path 49
  From:                  fc0/state:CLK
  To:                    fc1/final_count[3]:E
  Delay (ns):            2.709
  Slack (ns):            1.083
  Arrival (ns):          8.528
  Required (ns):         9.611

Path 50
  From:                  fc0/state:CLK
  To:                    fc1/final_count[0]:E
  Delay (ns):            2.709
  Slack (ns):            1.083
  Arrival (ns):          8.528
  Required (ns):         9.611

Path 51
  From:                  fc0/state:CLK
  To:                    fc0/final_count[2]:E
  Delay (ns):            2.681
  Slack (ns):            1.088
  Arrival (ns):          8.500
  Required (ns):         9.588

Path 52
  From:                  fc0/state:CLK
  To:                    fc2/counter[1]:D
  Delay (ns):            2.553
  Slack (ns):            1.119
  Arrival (ns):          8.372
  Required (ns):         9.491

Path 53
  From:                  fc0/state:CLK
  To:                    fc2/final_count[3]:E
  Delay (ns):            2.583
  Slack (ns):            1.185
  Arrival (ns):          8.402
  Required (ns):         9.587

Path 54
  From:                  fc0/state:CLK
  To:                    fc0/final_count[1]:E
  Delay (ns):            2.594
  Slack (ns):            1.194
  Arrival (ns):          8.413
  Required (ns):         9.607

Path 55
  From:                  fc0/state:CLK
  To:                    fc0/final_count[0]:E
  Delay (ns):            2.594
  Slack (ns):            1.194
  Arrival (ns):          8.413
  Required (ns):         9.607

Path 56
  From:                  fc0/final_count[1]:CLK
  To:                    fc0/ck_ok:D
  Delay (ns):            2.439
  Slack (ns):            1.198
  Arrival (ns):          8.254
  Required (ns):         9.452

Path 57
  From:                  fc2/counter[0]:CLK
  To:                    fc2/final_count[3]:D
  Delay (ns):            2.482
  Slack (ns):            1.199
  Arrival (ns):          8.267
  Required (ns):         9.466

Path 58
  From:                  fc2/counter[0]:CLK
  To:                    fc2/final_count[2]:D
  Delay (ns):            2.491
  Slack (ns):            1.206
  Arrival (ns):          8.276
  Required (ns):         9.482

Path 59
  From:                  fc2/final_count[1]:CLK
  To:                    fc2/ck_ok:D
  Delay (ns):            2.439
  Slack (ns):            1.216
  Arrival (ns):          8.250
  Required (ns):         9.466

Path 60
  From:                  fc1/final_count[1]:CLK
  To:                    fc1/ck_ok:D
  Delay (ns):            2.437
  Slack (ns):            1.218
  Arrival (ns):          8.248
  Required (ns):         9.466

Path 61
  From:                  fc0/counter[0]:CLK
  To:                    fc0/final_count[2]:D
  Delay (ns):            2.453
  Slack (ns):            1.225
  Arrival (ns):          8.242
  Required (ns):         9.467

Path 62
  From:                  fc2/counter[1]:CLK
  To:                    fc2/counter[1]:D
  Delay (ns):            2.435
  Slack (ns):            1.236
  Arrival (ns):          8.225
  Required (ns):         9.461

Path 63
  From:                  fc0/counter[1]:CLK
  To:                    fc0/counter[1]:D
  Delay (ns):            2.405
  Slack (ns):            1.266
  Arrival (ns):          8.202
  Required (ns):         9.468

Path 64
  From:                  fc0/counter[2]:CLK
  To:                    fc0/counter[2]:D
  Delay (ns):            2.399
  Slack (ns):            1.272
  Arrival (ns):          8.196
  Required (ns):         9.468

Path 65
  From:                  fc0/state:CLK
  To:                    fc0/final_count[3]:E
  Delay (ns):            2.500
  Slack (ns):            1.288
  Arrival (ns):          8.319
  Required (ns):         9.607

Path 66
  From:                  fc2/counter[2]:CLK
  To:                    fc2/counter[2]:D
  Delay (ns):            2.370
  Slack (ns):            1.301
  Arrival (ns):          8.160
  Required (ns):         9.461

Path 67
  From:                  fc0/final_count[3]:CLK
  To:                    fc0/ck_ok:D
  Delay (ns):            2.329
  Slack (ns):            1.308
  Arrival (ns):          8.144
  Required (ns):         9.452

Path 68
  From:                  fc1/final_count[3]:CLK
  To:                    fc1/ck_ok:D
  Delay (ns):            2.327
  Slack (ns):            1.320
  Arrival (ns):          8.146
  Required (ns):         9.466

Path 69
  From:                  fc1/counter[3]:CLK
  To:                    fc1/counter[3]:D
  Delay (ns):            2.339
  Slack (ns):            1.332
  Arrival (ns):          8.165
  Required (ns):         9.497

Path 70
  From:                  fc0/counter[3]:CLK
  To:                    fc0/counter[3]:D
  Delay (ns):            2.333
  Slack (ns):            1.338
  Arrival (ns):          8.159
  Required (ns):         9.497

Path 71
  From:                  fc2/final_count[3]:CLK
  To:                    fc2/ck_ok:D
  Delay (ns):            2.329
  Slack (ns):            1.342
  Arrival (ns):          8.124
  Required (ns):         9.466

Path 72
  From:                  fc1/counter[1]:CLK
  To:                    fc1/counter[1]:D
  Delay (ns):            2.320
  Slack (ns):            1.351
  Arrival (ns):          8.135
  Required (ns):         9.486

Path 73
  From:                  fc1/counter[1]:CLK
  To:                    fc1/final_count[1]:D
  Delay (ns):            2.266
  Slack (ns):            1.401
  Arrival (ns):          8.081
  Required (ns):         9.482

Path 74
  From:                  fc0/counter[1]:CLK
  To:                    fc0/final_count[1]:D
  Delay (ns):            2.287
  Slack (ns):            1.402
  Arrival (ns):          8.084
  Required (ns):         9.486

Path 75
  From:                  fc0/counter[1]:CLK
  To:                    fc0/final_count[2]:D
  Delay (ns):            2.264
  Slack (ns):            1.406
  Arrival (ns):          8.061
  Required (ns):         9.467

Path 76
  From:                  fc2/counter[3]:CLK
  To:                    fc2/counter[3]:D
  Delay (ns):            2.262
  Slack (ns):            1.409
  Arrival (ns):          8.047
  Required (ns):         9.456

Path 77
  From:                  fc1/counter[2]:CLK
  To:                    fc1/counter[2]:D
  Delay (ns):            2.260
  Slack (ns):            1.411
  Arrival (ns):          8.075
  Required (ns):         9.486

Path 78
  From:                  fc2/counter[1]:CLK
  To:                    fc2/final_count[2]:D
  Delay (ns):            2.242
  Slack (ns):            1.450
  Arrival (ns):          8.032
  Required (ns):         9.482

Path 79
  From:                  fc2/counter[0]:CLK
  To:                    fc2/final_count[1]:D
  Delay (ns):            2.235
  Slack (ns):            1.462
  Arrival (ns):          8.020
  Required (ns):         9.482

Path 80
  From:                  fc1/counter[2]:CLK
  To:                    fc1/final_count[2]:D
  Delay (ns):            2.153
  Slack (ns):            1.514
  Arrival (ns):          7.968
  Required (ns):         9.482

Path 81
  From:                  fc2/final_count[2]:CLK
  To:                    fc2/ck_ok:D
  Delay (ns):            2.115
  Slack (ns):            1.570
  Arrival (ns):          7.926
  Required (ns):         9.496

Path 82
  From:                  fc0/final_count[2]:CLK
  To:                    fc0/ck_ok:D
  Delay (ns):            2.035
  Slack (ns):            1.651
  Arrival (ns):          7.831
  Required (ns):         9.482

Path 83
  From:                  fc2/counter[3]:CLK
  To:                    fc2/final_count[3]:D
  Delay (ns):            1.934
  Slack (ns):            1.747
  Arrival (ns):          7.719
  Required (ns):         9.466

Path 84
  From:                  fc1/counter[0]:CLK
  To:                    fc1/counter[0]:D
  Delay (ns):            1.831
  Slack (ns):            1.870
  Arrival (ns):          7.657
  Required (ns):         9.527

Path 85
  From:                  fc2/counter[1]:CLK
  To:                    fc2/final_count[1]:D
  Delay (ns):            1.819
  Slack (ns):            1.873
  Arrival (ns):          7.609
  Required (ns):         9.482

Path 86
  From:                  fc0/counter[2]:CLK
  To:                    fc0/final_count[2]:D
  Delay (ns):            1.777
  Slack (ns):            1.893
  Arrival (ns):          7.574
  Required (ns):         9.467

Path 87
  From:                  fc2/counter[2]:CLK
  To:                    fc2/final_count[2]:D
  Delay (ns):            1.752
  Slack (ns):            1.940
  Arrival (ns):          7.542
  Required (ns):         9.482

Path 88
  From:                  fc1/final_count[2]:CLK
  To:                    fc1/ck_ok:D
  Delay (ns):            1.743
  Slack (ns):            1.942
  Arrival (ns):          7.554
  Required (ns):         9.496

Path 89
  From:                  fc1/counter[3]:CLK
  To:                    fc1/final_count[3]:D
  Delay (ns):            1.717
  Slack (ns):            1.947
  Arrival (ns):          7.543
  Required (ns):         9.490

Path 90
  From:                  fc0/counter[3]:CLK
  To:                    fc0/final_count[3]:D
  Delay (ns):            1.698
  Slack (ns):            1.962
  Arrival (ns):          7.524
  Required (ns):         9.486

Path 91
  From:                  fc2/counter[0]:CLK
  To:                    fc2/counter[0]:D
  Delay (ns):            1.669
  Slack (ns):            2.032
  Arrival (ns):          7.454
  Required (ns):         9.486

Path 92
  From:                  fc0/counter[0]:CLK
  To:                    fc0/counter[0]:D
  Delay (ns):            1.669
  Slack (ns):            2.032
  Arrival (ns):          7.458
  Required (ns):         9.490

Path 93
  From:                  fc0/state:CLK
  To:                    fc2/final_count[1]:E
  Delay (ns):            1.748
  Slack (ns):            2.036
  Arrival (ns):          7.567
  Required (ns):         9.603

Path 94
  From:                  fc0/counter[0]:CLK
  To:                    fc0/final_count[0]:D
  Delay (ns):            1.626
  Slack (ns):            2.101
  Arrival (ns):          7.415
  Required (ns):         9.516

Path 95
  From:                  fc2/counter[0]:CLK
  To:                    fc2/final_count[0]:D
  Delay (ns):            1.308
  Slack (ns):            2.403
  Arrival (ns):          7.093
  Required (ns):         9.496

Path 96
  From:                  fc1/counter[0]:CLK
  To:                    fc1/final_count[0]:D
  Delay (ns):            1.158
  Slack (ns):            2.536
  Arrival (ns):          6.984
  Required (ns):         9.520

