Timing Violation Report Min Delay Analysis

SmartTime Version v11.9 SP5
Microsemi Corporation - Microsemi Libero Software Release v11.9 SP5 (Version 11.9.5.5)
Date: Wed Apr 15 17:01:26 2020


Design: jtag_interface_top
Family: ProASIC3
Die: A3P250
Package: 144 FBGA
Temperature Range: -40 - 85 C
Voltage Range: 1.425 - 1.575 V
Speed Grade: -1
Design State: Post-Layout
Data source: Silicon verified
Min Operating Conditions: BEST - 1.575 V - -40 C
Max Operating Conditions: WORST - 1.425 V - 85 C
Using Enhanced Min Delay Analysis
Scenario for Timing Analysis: Primary


Path 1
  From:                  fc0/counter[0]:CLK
  To:                    fc0/final_count[0]:D
  Delay (ns):            0.407
  Slack (ns):            0.387
  Arrival (ns):          3.068
  Required (ns):         2.681

Path 2
  From:                  fc2/counter[0]:CLK
  To:                    fc2/final_count[0]:D
  Delay (ns):            0.571
  Slack (ns):            0.547
  Arrival (ns):          3.232
  Required (ns):         2.685

Path 3
  From:                  fc2/counter[3]:CLK
  To:                    fc2/final_count[3]:D
  Delay (ns):            0.572
  Slack (ns):            0.548
  Arrival (ns):          3.233
  Required (ns):         2.685

Path 4
  From:                  fc0/counter[3]:CLK
  To:                    fc0/final_count[3]:D
  Delay (ns):            0.570
  Slack (ns):            0.562
  Arrival (ns):          3.223
  Required (ns):         2.661

Path 5
  From:                  fc2/counter[2]:CLK
  To:                    fc2/final_count[2]:D
  Delay (ns):            0.589
  Slack (ns):            0.568
  Arrival (ns):          3.253
  Required (ns):         2.685

Path 6
  From:                  fc0/counter[2]:CLK
  To:                    fc0/final_count[2]:D
  Delay (ns):            0.590
  Slack (ns):            0.570
  Arrival (ns):          3.251
  Required (ns):         2.681

Path 7
  From:                  fc0/final_count[2]:CLK
  To:                    fc0/ck_ok:D
  Delay (ns):            0.593
  Slack (ns):            0.573
  Arrival (ns):          3.254
  Required (ns):         2.681

Path 8
  From:                  fc1/final_count[2]:CLK
  To:                    fc1/ck_ok:D
  Delay (ns):            0.593
  Slack (ns):            0.575
  Arrival (ns):          3.250
  Required (ns):         2.675

Path 9
  From:                  fc1/counter[0]:CLK
  To:                    fc1/counter[0]:D
  Delay (ns):            0.576
  Slack (ns):            0.576
  Arrival (ns):          3.233
  Required (ns):         2.657

Path 10
  From:                  fc1/counter[0]:CLK
  To:                    fc1/final_count[0]:D
  Delay (ns):            0.607
  Slack (ns):            0.579
  Arrival (ns):          3.264
  Required (ns):         2.685

Path 11
  From:                  fc1/counter[2]:CLK
  To:                    fc1/final_count[2]:D
  Delay (ns):            0.594
  Slack (ns):            0.579
  Arrival (ns):          3.254
  Required (ns):         2.675

Path 12
  From:                  fc2/final_count[2]:CLK
  To:                    fc2/ck_ok:D
  Delay (ns):            0.593
  Slack (ns):            0.582
  Arrival (ns):          3.257
  Required (ns):         2.675

Path 13
  From:                  fc1/counter[1]:CLK
  To:                    fc1/final_count[1]:D
  Delay (ns):            0.616
  Slack (ns):            0.588
  Arrival (ns):          3.273
  Required (ns):         2.685

Path 14
  From:                  fc2/counter[1]:CLK
  To:                    fc2/final_count[1]:D
  Delay (ns):            0.614
  Slack (ns):            0.593
  Arrival (ns):          3.278
  Required (ns):         2.685

Path 15
  From:                  fc2/counter[0]:CLK
  To:                    fc2/counter[0]:D
  Delay (ns):            0.599
  Slack (ns):            0.599
  Arrival (ns):          3.260
  Required (ns):         2.661

Path 16
  From:                  fc0/counter[0]:CLK
  To:                    fc0/counter[0]:D
  Delay (ns):            0.621
  Slack (ns):            0.621
  Arrival (ns):          3.282
  Required (ns):         2.661

Path 17
  From:                  fc1/counter[0]:CLK
  To:                    fc1/counter[1]:D
  Delay (ns):            0.642
  Slack (ns):            0.624
  Arrival (ns):          3.299
  Required (ns):         2.675

Path 18
  From:                  fc0/counter[1]:CLK
  To:                    fc0/final_count[1]:D
  Delay (ns):            0.651
  Slack (ns):            0.631
  Arrival (ns):          3.312
  Required (ns):         2.681

Path 19
  From:                  fc1/counter[3]:CLK
  To:                    fc1/final_count[3]:D
  Delay (ns):            0.661
  Slack (ns):            0.636
  Arrival (ns):          3.321
  Required (ns):         2.685

Path 20
  From:                  fc2/counter[0]:CLK
  To:                    fc2/counter[1]:D
  Delay (ns):            0.666
  Slack (ns):            0.642
  Arrival (ns):          3.327
  Required (ns):         2.685

Path 21
  From:                  fc0/counter[0]:CLK
  To:                    fc0/counter[1]:D
  Delay (ns):            0.688
  Slack (ns):            0.668
  Arrival (ns):          3.349
  Required (ns):         2.681

Path 22
  From:                  fc0/state:CLK
  To:                    fc1/counter[0]:D
  Delay (ns):            0.679
  Slack (ns):            0.668
  Arrival (ns):          3.343
  Required (ns):         2.675

Path 23
  From:                  fc2/counter[3]:CLK
  To:                    fc2/counter[3]:D
  Delay (ns):            0.670
  Slack (ns):            0.670
  Arrival (ns):          3.331
  Required (ns):         2.661

Path 24
  From:                  fc0/state:CLK
  To:                    fc2/final_count[0]:E
  Delay (ns):            0.705
  Slack (ns):            0.684
  Arrival (ns):          3.369
  Required (ns):         2.685

Path 25
  From:                  fc0/state:CLK
  To:                    fc1/final_count[3]:E
  Delay (ns):            0.705
  Slack (ns):            0.684
  Arrival (ns):          3.369
  Required (ns):         2.685

Path 26
  From:                  fc0/state:CLK
  To:                    fc1/final_count[0]:E
  Delay (ns):            0.705
  Slack (ns):            0.684
  Arrival (ns):          3.369
  Required (ns):         2.685

Path 27
  From:                  fc0/state:CLK
  To:                    fc2/final_count[1]:E
  Delay (ns):            0.705
  Slack (ns):            0.684
  Arrival (ns):          3.369
  Required (ns):         2.685

Path 28
  From:                  fc2/counter[0]:CLK
  To:                    fc2/final_count[1]:D
  Delay (ns):            0.716
  Slack (ns):            0.692
  Arrival (ns):          3.377
  Required (ns):         2.685

Path 29
  From:                  fc0/counter[1]:CLK
  To:                    fc0/counter[1]:D
  Delay (ns):            0.693
  Slack (ns):            0.693
  Arrival (ns):          3.354
  Required (ns):         2.661

Path 30
  From:                  fc0/counter[1]:CLK
  To:                    fc0/final_count[2]:D
  Delay (ns):            0.715
  Slack (ns):            0.695
  Arrival (ns):          3.376
  Required (ns):         2.681

Path 31
  From:                  fc2/counter[1]:CLK
  To:                    fc2/counter[1]:D
  Delay (ns):            0.714
  Slack (ns):            0.714
  Arrival (ns):          3.378
  Required (ns):         2.664

Path 32
  From:                  fc2/counter[1]:CLK
  To:                    fc2/final_count[2]:D
  Delay (ns):            0.737
  Slack (ns):            0.716
  Arrival (ns):          3.401
  Required (ns):         2.685

Path 33
  From:                  fc1/counter[1]:CLK
  To:                    fc1/counter[1]:D
  Delay (ns):            0.716
  Slack (ns):            0.716
  Arrival (ns):          3.373
  Required (ns):         2.657

Path 34
  From:                  fc0/counter[0]:CLK
  To:                    fc0/final_count[1]:D
  Delay (ns):            0.738
  Slack (ns):            0.718
  Arrival (ns):          3.399
  Required (ns):         2.681

Path 35
  From:                  fc1/counter[1]:CLK
  To:                    fc1/final_count[2]:D
  Delay (ns):            0.741
  Slack (ns):            0.723
  Arrival (ns):          3.398
  Required (ns):         2.675

Path 36
  From:                  fc0/counter[0]:CLK
  To:                    fc0/final_count[2]:D
  Delay (ns):            0.758
  Slack (ns):            0.738
  Arrival (ns):          3.419
  Required (ns):         2.681

Path 37
  From:                  fc2/counter[0]:CLK
  To:                    fc2/final_count[2]:D
  Delay (ns):            0.772
  Slack (ns):            0.748
  Arrival (ns):          3.433
  Required (ns):         2.685

Path 38
  From:                  fc1/counter[0]:CLK
  To:                    fc1/final_count[3]:D
  Delay (ns):            0.803
  Slack (ns):            0.775
  Arrival (ns):          3.460
  Required (ns):         2.685

Path 39
  From:                  fc0/counter[0]:CLK
  To:                    fc0/final_count[3]:D
  Delay (ns):            0.780
  Slack (ns):            0.780
  Arrival (ns):          3.441
  Required (ns):         2.661

Path 40
  From:                  fc1/counter[0]:CLK
  To:                    fc1/final_count[1]:D
  Delay (ns):            0.814
  Slack (ns):            0.786
  Arrival (ns):          3.471
  Required (ns):         2.685

Path 41
  From:                  fc1/counter[3]:CLK
  To:                    fc1/counter[3]:D
  Delay (ns):            0.792
  Slack (ns):            0.792
  Arrival (ns):          3.452
  Required (ns):         2.660

Path 42
  From:                  fc1/final_count[3]:CLK
  To:                    fc1/ck_ok:D
  Delay (ns):            0.820
  Slack (ns):            0.809
  Arrival (ns):          3.484
  Required (ns):         2.675

Path 43
  From:                  fc0/counter[3]:CLK
  To:                    fc0/counter[3]:D
  Delay (ns):            0.814
  Slack (ns):            0.814
  Arrival (ns):          3.467
  Required (ns):         2.653

Path 44
  From:                  fc2/counter[2]:CLK
  To:                    fc2/counter[2]:D
  Delay (ns):            0.824
  Slack (ns):            0.824
  Arrival (ns):          3.488
  Required (ns):         2.664

Path 45
  From:                  fc0/counter[2]:CLK
  To:                    fc0/counter[2]:D
  Delay (ns):            0.824
  Slack (ns):            0.824
  Arrival (ns):          3.485
  Required (ns):         2.661

Path 46
  From:                  fc1/counter[2]:CLK
  To:                    fc1/counter[2]:D
  Delay (ns):            0.837
  Slack (ns):            0.837
  Arrival (ns):          3.497
  Required (ns):         2.660

Path 47
  From:                  fc0/final_count[1]:CLK
  To:                    fc0/ck_ok:D
  Delay (ns):            0.870
  Slack (ns):            0.850
  Arrival (ns):          3.531
  Required (ns):         2.681

Path 48
  From:                  fc0/state:CLK
  To:                    fc0/counter[0]:D
  Delay (ns):            0.870
  Slack (ns):            0.853
  Arrival (ns):          3.534
  Required (ns):         2.681

Path 49
  From:                  fc2/final_count[1]:CLK
  To:                    fc2/ck_ok:D
  Delay (ns):            0.870
  Slack (ns):            0.859
  Arrival (ns):          3.534
  Required (ns):         2.675

Path 50
  From:                  fc1/final_count[1]:CLK
  To:                    fc1/ck_ok:D
  Delay (ns):            0.870
  Slack (ns):            0.859
  Arrival (ns):          3.534
  Required (ns):         2.675

Path 51
  From:                  fc0/state:CLK
  To:                    fc2/counter[2]:D
  Delay (ns):            0.891
  Slack (ns):            0.870
  Arrival (ns):          3.555
  Required (ns):         2.685

Path 52
  From:                  fc2/counter[2]:CLK
  To:                    fc2/counter[3]:D
  Delay (ns):            0.899
  Slack (ns):            0.882
  Arrival (ns):          3.563
  Required (ns):         2.681

Path 53
  From:                  fc0/final_count[0]:CLK
  To:                    fc0/ck_ok:D
  Delay (ns):            0.908
  Slack (ns):            0.888
  Arrival (ns):          3.569
  Required (ns):         2.681

Path 54
  From:                  fc0/state:CLK
  To:                    fc0/counter[3]:D
  Delay (ns):            0.900
  Slack (ns):            0.893
  Arrival (ns):          3.564
  Required (ns):         2.671

Path 55
  From:                  fc2/counter[2]:CLK
  To:                    fc2/final_count[3]:D
  Delay (ns):            0.915
  Slack (ns):            0.894
  Arrival (ns):          3.579
  Required (ns):         2.685

Path 56
  From:                  fc1/final_count[0]:CLK
  To:                    fc1/ck_ok:D
  Delay (ns):            0.908
  Slack (ns):            0.897
  Arrival (ns):          3.572
  Required (ns):         2.675

Path 57
  From:                  fc2/final_count[0]:CLK
  To:                    fc2/ck_ok:D
  Delay (ns):            0.909
  Slack (ns):            0.898
  Arrival (ns):          3.573
  Required (ns):         2.675

Path 58
  From:                  fc0/state:CLK
  To:                    fc1/counter[2]:D
  Delay (ns):            0.922
  Slack (ns):            0.906
  Arrival (ns):          3.586
  Required (ns):         2.680

Path 59
  From:                  fc1/counter[0]:CLK
  To:                    fc1/final_count[2]:D
  Delay (ns):            0.929
  Slack (ns):            0.911
  Arrival (ns):          3.586
  Required (ns):         2.675

Path 60
  From:                  fc1/counter[0]:CLK
  To:                    fc1/counter[3]:D
  Delay (ns):            0.934
  Slack (ns):            0.911
  Arrival (ns):          3.591
  Required (ns):         2.680

Path 61
  From:                  fc0/final_count[3]:CLK
  To:                    fc0/ck_ok:D
  Delay (ns):            0.949
  Slack (ns):            0.913
  Arrival (ns):          3.594
  Required (ns):         2.681

Path 62
  From:                  fc0/state:CLK
  To:                    fc0/final_count[3]:E
  Delay (ns):            0.920
  Slack (ns):            0.923
  Arrival (ns):          3.584
  Required (ns):         2.661

Path 63
  From:                  fc0/state:CLK
  To:                    fc2/final_count[3]:E
  Delay (ns):            0.946
  Slack (ns):            0.925
  Arrival (ns):          3.610
  Required (ns):         2.685

Path 64
  From:                  fc0/counter[2]:CLK
  To:                    fc0/final_count[3]:D
  Delay (ns):            0.928
  Slack (ns):            0.928
  Arrival (ns):          3.589
  Required (ns):         2.661

Path 65
  From:                  fc0/counter[1]:CLK
  To:                    fc0/counter[2]:D
  Delay (ns):            0.949
  Slack (ns):            0.929
  Arrival (ns):          3.610
  Required (ns):         2.681

Path 66
  From:                  fc0/state:CLK
  To:                    fc0/final_count[2]:E
  Delay (ns):            0.952
  Slack (ns):            0.935
  Arrival (ns):          3.616
  Required (ns):         2.681

Path 67
  From:                  fc0/state:CLK
  To:                    fc1/final_count[2]:E
  Delay (ns):            0.949
  Slack (ns):            0.938
  Arrival (ns):          3.613
  Required (ns):         2.675

Path 68
  From:                  fc0/state:CLK
  To:                    fc1/counter[3]:D
  Delay (ns):            0.955
  Slack (ns):            0.939
  Arrival (ns):          3.619
  Required (ns):         2.680

Path 69
  From:                  fc2/counter[1]:CLK
  To:                    fc2/counter[2]:D
  Delay (ns):            0.972
  Slack (ns):            0.951
  Arrival (ns):          3.636
  Required (ns):         2.685

Path 70
  From:                  fc1/counter[1]:CLK
  To:                    fc1/counter[2]:D
  Delay (ns):            0.984
  Slack (ns):            0.961
  Arrival (ns):          3.641
  Required (ns):         2.680

Path 71
  From:                  fc0/counter[0]:CLK
  To:                    fc0/counter[2]:D
  Delay (ns):            0.992
  Slack (ns):            0.972
  Arrival (ns):          3.653
  Required (ns):         2.681

Path 72
  From:                  fc2/counter[0]:CLK
  To:                    fc2/counter[2]:D
  Delay (ns):            1.007
  Slack (ns):            0.983
  Arrival (ns):          3.668
  Required (ns):         2.685

Path 73
  From:                  fc1/counter[2]:CLK
  To:                    fc1/final_count[3]:D
  Delay (ns):            1.019
  Slack (ns):            0.994
  Arrival (ns):          3.679
  Required (ns):         2.685

Path 74
  From:                  fc0/state:CLK
  To:                    fc2/final_count[2]:E
  Delay (ns):            1.018
  Slack (ns):            0.997
  Arrival (ns):          3.682
  Required (ns):         2.685

Path 75
  From:                  fc2/counter[1]:CLK
  To:                    fc2/counter[3]:D
  Delay (ns):            1.026
  Slack (ns):            1.009
  Arrival (ns):          3.690
  Required (ns):         2.681

Path 76
  From:                  fc0/counter[0]:CLK
  To:                    fc0/counter[3]:D
  Delay (ns):            1.024
  Slack (ns):            1.014
  Arrival (ns):          3.685
  Required (ns):         2.671

Path 77
  From:                  fc2/counter[0]:CLK
  To:                    fc2/counter[3]:D
  Delay (ns):            1.036
  Slack (ns):            1.016
  Arrival (ns):          3.697
  Required (ns):         2.681

Path 78
  From:                  fc2/final_count[3]:CLK
  To:                    fc2/ck_ok:D
  Delay (ns):            1.029
  Slack (ns):            1.018
  Arrival (ns):          3.693
  Required (ns):         2.675

Path 79
  From:                  fc0/counter[1]:CLK
  To:                    fc0/final_count[3]:D
  Delay (ns):            1.019
  Slack (ns):            1.019
  Arrival (ns):          3.680
  Required (ns):         2.661

Path 80
  From:                  fc2/counter[1]:CLK
  To:                    fc2/final_count[3]:D
  Delay (ns):            1.053
  Slack (ns):            1.032
  Arrival (ns):          3.717
  Required (ns):         2.685

Path 81
  From:                  fc2/counter[0]:CLK
  To:                    fc2/final_count[3]:D
  Delay (ns):            1.063
  Slack (ns):            1.039
  Arrival (ns):          3.724
  Required (ns):         2.685

Path 82
  From:                  fc0/state:CLK
  To:                    fc2/counter[0]:D
  Delay (ns):            1.058
  Slack (ns):            1.041
  Arrival (ns):          3.722
  Required (ns):         2.681

Path 83
  From:                  fc0/state:CLK
  To:                    fc0/counter[2]:D
  Delay (ns):            1.070
  Slack (ns):            1.053
  Arrival (ns):          3.734
  Required (ns):         2.681

Path 84
  From:                  fc0/state:CLK
  To:                    fc0/final_count[1]:E
  Delay (ns):            1.096
  Slack (ns):            1.079
  Arrival (ns):          3.760
  Required (ns):         2.681

Path 85
  From:                  fc0/state:CLK
  To:                    fc0/final_count[0]:E
  Delay (ns):            1.096
  Slack (ns):            1.079
  Arrival (ns):          3.760
  Required (ns):         2.681

Path 86
  From:                  fc1/counter[1]:CLK
  To:                    fc1/final_count[3]:D
  Delay (ns):            1.133
  Slack (ns):            1.105
  Arrival (ns):          3.790
  Required (ns):         2.685

Path 87
  From:                  fc1/counter[2]:CLK
  To:                    fc1/counter[3]:D
  Delay (ns):            1.150
  Slack (ns):            1.130
  Arrival (ns):          3.810
  Required (ns):         2.680

Path 88
  From:                  fc0/state:CLK
  To:                    fc2/counter[3]:D
  Delay (ns):            1.149
  Slack (ns):            1.132
  Arrival (ns):          3.813
  Required (ns):         2.681

Path 89
  From:                  fc1/counter[0]:CLK
  To:                    fc1/counter[2]:D
  Delay (ns):            1.172
  Slack (ns):            1.149
  Arrival (ns):          3.829
  Required (ns):         2.680

Path 90
  From:                  fc0/state:CLK
  To:                    fc1/counter[1]:D
  Delay (ns):            1.172
  Slack (ns):            1.161
  Arrival (ns):          3.836
  Required (ns):         2.675

Path 91
  From:                  fc0/counter[2]:CLK
  To:                    fc0/counter[3]:D
  Delay (ns):            1.172
  Slack (ns):            1.162
  Arrival (ns):          3.833
  Required (ns):         2.671

Path 92
  From:                  fc0/state:CLK
  To:                    fc0/counter[1]:D
  Delay (ns):            1.207
  Slack (ns):            1.190
  Arrival (ns):          3.871
  Required (ns):         2.681

Path 93
  From:                  fc1/counter[1]:CLK
  To:                    fc1/counter[3]:D
  Delay (ns):            1.264
  Slack (ns):            1.241
  Arrival (ns):          3.921
  Required (ns):         2.680

Path 94
  From:                  fc0/counter[1]:CLK
  To:                    fc0/counter[3]:D
  Delay (ns):            1.263
  Slack (ns):            1.253
  Arrival (ns):          3.924
  Required (ns):         2.671

Path 95
  From:                  fc0/state:CLK
  To:                    fc1/final_count[1]:E
  Delay (ns):            1.292
  Slack (ns):            1.271
  Arrival (ns):          3.956
  Required (ns):         2.685

Path 96
  From:                  fc0/state:CLK
  To:                    fc2/counter[1]:D
  Delay (ns):            1.319
  Slack (ns):            1.298
  Arrival (ns):          3.983
  Required (ns):         2.685

