Timing Report Max Delay Analysis

SmartTime Version v11.9 SP5
Microsemi Corporation - Microsemi Libero Software Release v11.9 SP5 (Version 11.9.5.5)
Date: Wed Apr 15 16:15:01 2020


Design: jtag_interface_top
Family: ProASIC3
Die: A3P250
Package: 144 FBGA
Temperature Range: -40 - 85 C
Voltage Range: 1.425 - 1.575 V
Speed Grade: -1
Design State: Post-Layout
Data source: Silicon verified
Min Operating Conditions: BEST - 1.575 V - -40 C
Max Operating Conditions: WORST - 1.425 V - 85 C
Using Enhanced Min Delay Analysis
Scenario for Timing Analysis: Primary


-----------------------------------------------------
SUMMARY

Clock Domain:               clocking/Core:GLA
Period (ns):                0.856
Frequency (MHz):            1168.224
Required Period (ns):       25.000
Required Frequency (MHz):   40.000
External Setup (ns):        -1.228
Max Clock-To-Out (ns):      11.787

Clock Domain:               clocking/Core:GLB
Period (ns):                4.229
Frequency (MHz):            236.463
Required Period (ns):       4.167
Required Frequency (MHz):   239.981
External Setup (ns):        -0.997
Max Clock-To-Out (ns):      N/A

Clock Domain:               gbt_clk40
Period (ns):                4.000
Frequency (MHz):            250.000
Required Period (ns):       24.950
Required Frequency (MHz):   40.080
External Setup (ns):        N/A
Max Clock-To-Out (ns):      N/A

Clock Domain:               osc_clk40
Period (ns):                4.000
Frequency (MHz):            250.000
Required Period (ns):       25.000
Required Frequency (MHz):   40.000
External Setup (ns):        N/A
Max Clock-To-Out (ns):      N/A

                            Input to Output
Max Delay (ns):             N/A

END SUMMARY
-----------------------------------------------------

Clock Domain clocking/Core:GLA

Info: The maximum frequency of this clock domain is limited by the minimum pulse widths of pin jtag_out_rem[2]:CLK

SET Register to Register

No Path

END SET Register to Register

----------------------------------------------------

SET External Setup

Path 1
  From:                  gbt_rst_p[1]
  To:                    jtag_out_rem[3]:D
  Delay (ns):            3.317
  Slack (ns):
  Arrival (ns):          3.317
  Required (ns):
  Setup (ns):            0.616
  External Setup (ns):   -1.228

Path 2
  From:                  gbt_rst_n[1]
  To:                    jtag_out_rem[3]:D
  Delay (ns):            3.303
  Slack (ns):
  Arrival (ns):          3.303
  Required (ns):
  Setup (ns):            0.616
  External Setup (ns):   -1.242

Path 3
  From:                  gbt_tck_p[0]
  To:                    jtag_out_loc[2]:D
  Delay (ns):            2.722
  Slack (ns):
  Arrival (ns):          2.722
  Required (ns):
  Setup (ns):            0.616
  External Setup (ns):   -1.823

Path 4
  From:                  gbt_tdi_p[0]
  To:                    jtag_out_loc[1]:D
  Delay (ns):            2.710
  Slack (ns):
  Arrival (ns):          2.710
  Required (ns):
  Setup (ns):            0.616
  External Setup (ns):   -1.830

Path 5
  From:                  gbt_dvalid
  To:                    jtag_out_rem_tri_enable:D
  Delay (ns):            2.702
  Slack (ns):
  Arrival (ns):          2.702
  Required (ns):
  Setup (ns):            0.616
  External Setup (ns):   -1.833


Expanded Path 1
  From: gbt_rst_p[1]
  To: jtag_out_rem[3]:D
  data required time                             N/C
  data arrival time                          -   3.317
  slack                                          N/C
  ________________________________________________________
  Data arrival time calculation
  0.000                        gbt_rst_p[1] (f)
               +     0.000          net: gbt_rst_p[1]
  0.000                        jtag_in1/\\INBUF_LVDS[3]\\/U0/U0:PAD (f)
               +     1.436          cell: ADLIB:IOPADP_IN
  1.436                        jtag_in1/\\INBUF_LVDS[3]\\/U0/U0:Y (f)
               +     0.000          net: jtag_in1/_INBUF_LVDS[3]_/U0/NET1
  1.436                        jtag_in1/\\INBUF_LVDS[3]\\/U0/U1:YIN (f)
               +     0.035          cell: ADLIB:IOIN_IB
  1.471                        jtag_in1/\\INBUF_LVDS[3]\\/U0/U1:Y (f)
               +     1.846          net: jtag_rem[3]
  3.317                        jtag_out_rem[3]:D (f)
                                    
  3.317                        data arrival time
  ________________________________________________________
  Data required time calculation
  N/C                          clocking/Core:GLA
               +     0.000          Clock source
  N/C                          clocking/Core:GLA (f)
               +     4.552          Clock generation
  N/C
               +     0.609          net: GLA
  N/C                          jtag_out_rem[3]:CLK (f)
               -     0.616          Library setup time: ADLIB:DFN0
  N/C                          jtag_out_rem[3]:D


END SET External Setup

----------------------------------------------------

SET Clock to Output

Path 1
  From:                  jtag_out_rem_tri_enable:CLK
  To:                    proasic_tdi[1]
  Delay (ns):            6.636
  Slack (ns):
  Arrival (ns):          11.787
  Required (ns):
  Clock to Out (ns):     11.787

Path 2
  From:                  jtag_out_rem_tri_enable:CLK
  To:                    proasic_tms[0]
  Delay (ns):            6.328
  Slack (ns):
  Arrival (ns):          11.479
  Required (ns):
  Clock to Out (ns):     11.479

Path 3
  From:                  jtag_out_rem_tri_enable:CLK
  To:                    proasic_rst[0]
  Delay (ns):            6.300
  Slack (ns):
  Arrival (ns):          11.451
  Required (ns):
  Clock to Out (ns):     11.451

Path 4
  From:                  jtag_out_rem_tri_enable:CLK
  To:                    proasic_tms[1]
  Delay (ns):            6.118
  Slack (ns):
  Arrival (ns):          11.269
  Required (ns):
  Clock to Out (ns):     11.269

Path 5
  From:                  jtag_out_rem_tri_enable:CLK
  To:                    proasic_tck[1]
  Delay (ns):            6.093
  Slack (ns):
  Arrival (ns):          11.244
  Required (ns):
  Clock to Out (ns):     11.244


Expanded Path 1
  From: jtag_out_rem_tri_enable:CLK
  To: proasic_tdi[1]
  data required time                             N/C
  data arrival time                          -   11.787
  slack                                          N/C
  ________________________________________________________
  Data arrival time calculation
  0.000                        clocking/Core:GLA
               +     0.000          Clock source
  0.000                        clocking/Core:GLA (f)
               +     4.552          Clock generation
  4.552
               +     0.599          net: GLA
  5.151                        jtag_out_rem_tri_enable:CLK (f)
               +     0.565          cell: ADLIB:DFN0
  5.716                        jtag_out_rem_tri_enable:Q (f)
               +     2.897          net: jtag_out_rem_tri_enable
  8.613                        proasic_tdi_pad[1]/U0/U1:E (f)
               +     0.360          cell: ADLIB:IOTRI_OB_EB
  8.973                        proasic_tdi_pad[1]/U0/U1:EOUT (f)
               +     0.000          net: proasic_tdi_pad[1]/U0/NET2
  8.973                        proasic_tdi_pad[1]/U0/U0:E (f)
               +     2.814          cell: ADLIB:IOPAD_TRI
  11.787                       proasic_tdi_pad[1]/U0/U0:PAD (f)
               +     0.000          net: proasic_tdi_0[1]
  11.787                       proasic_tdi[1] (f)
                                    
  11.787                       data arrival time
  ________________________________________________________
  Data required time calculation
  N/C                          clocking/Core:GLA
               +     0.000          Clock source
  N/C                          clocking/Core:GLA (r)
               +     4.552          Clock generation
  N/C
                                    
  N/C                          proasic_tdi[1] (f)


END SET Clock to Output

----------------------------------------------------

SET Register to Asynchronous

No Path

END SET Register to Asynchronous

----------------------------------------------------

SET External Recovery

No Path

END SET External Recovery

----------------------------------------------------

SET Asynchronous to Register

No Path

END SET Asynchronous to Register

----------------------------------------------------

Clock Domain clocking/Core:GLB

SET Register to Register

Path 1
  From:                  fc1/counter[0]:CLK
  To:                    fc1/counter[3]:D
  Delay (ns):            3.763
  Slack (ns):            -0.062
  Arrival (ns):          9.588
  Required (ns):         9.526
  Setup (ns):            0.466
  Minimum Period (ns):   4.229

Path 2
  From:                  fc2/counter[2]:CLK
  To:                    fc2/counter[3]:D
  Delay (ns):            3.630
  Slack (ns):            0.041
  Arrival (ns):          9.455
  Required (ns):         9.496
  Setup (ns):            0.496
  Minimum Period (ns):   4.126

Path 3
  From:                  fc1/counter[2]:CLK
  To:                    fc1/counter[3]:D
  Delay (ns):            3.600
  Slack (ns):            0.094
  Arrival (ns):          9.432
  Required (ns):         9.526
  Setup (ns):            0.466
  Minimum Period (ns):   4.073

Path 4
  From:                  fc0/counter[0]:CLK
  To:                    fc0/counter[3]:D
  Delay (ns):            3.560
  Slack (ns):            0.109
  Arrival (ns):          9.392
  Required (ns):         9.501
  Setup (ns):            0.466
  Minimum Period (ns):   4.058

Path 5
  From:                  fc2/counter[1]:CLK
  To:                    fc2/counter[3]:D
  Delay (ns):            3.535
  Slack (ns):            0.136
  Arrival (ns):          9.360
  Required (ns):         9.496
  Setup (ns):            0.496
  Minimum Period (ns):   4.031


Expanded Path 1
  From: fc1/counter[0]:CLK
  To: fc1/counter[3]:D
  data required time                             9.526
  data arrival time                          -   9.588
  slack                                          -0.062
  ________________________________________________________
  Data arrival time calculation
  0.000                        clocking/Core:GLB
               +     0.000          Clock source
  0.000                        clocking/Core:GLB (r)
               +     5.201          Clock generation
  5.201
               +     0.624          net: GLB
  5.825                        fc1/counter[0]:CLK (r)
               +     0.637          cell: ADLIB:DFN1
  6.462                        fc1/counter[0]:Q (f)
               +     0.478          net: fc1/counter[0]
  6.940                        HIEFFPLA_INST_2_1969:C (f)
               +     0.589          cell: ADLIB:AND3
  7.529                        HIEFFPLA_INST_2_1969:Y (f)
               +     0.280          net: HIEFFPLA_NET_2_2580
  7.809                        HIEFFPLA_INST_2_1966:B (f)
               +     0.809          cell: ADLIB:XOR2
  8.618                        HIEFFPLA_INST_2_1966:Y (r)
               +     0.336          net: HIEFFPLA_NET_2_2581
  8.954                        HIEFFPLA_INST_2_1939:C (r)
               +     0.344          cell: ADLIB:OA1A
  9.298                        HIEFFPLA_INST_2_1939:Y (r)
               +     0.290          net: HIEFFPLA_NET_2_2588
  9.588                        fc1/counter[3]:D (r)
                                    
  9.588                        data arrival time
  ________________________________________________________
  Data required time calculation
  4.167                        clocking/Core:GLB
               +     0.000          Clock source
  4.167                        clocking/Core:GLB (r)
               +     5.201          Clock generation
  9.368
               +     0.624          net: GLB
  9.992                        fc1/counter[3]:CLK (r)
               -     0.466          Library setup time: ADLIB:DFN1
  9.526                        fc1/counter[3]:D
                                    
  9.526                        data required time


END SET Register to Register

----------------------------------------------------

SET External Setup

Path 1
  From:                  gbt_clk40
  To:                    fc1/final_count[3]:E
  Delay (ns):            4.460
  Slack (ns):
  Arrival (ns):          4.460
  Required (ns):
  Setup (ns):            0.375
  External Setup (ns):   -0.997

Path 2
  From:                  gbt_clk40
  To:                    fc0/counter[1]:D
  Delay (ns):            4.132
  Slack (ns):
  Arrival (ns):          4.132
  Required (ns):
  Setup (ns):            0.466
  External Setup (ns):   -1.212

Path 3
  From:                  gbt_clk40
  To:                    fc2/counter[1]:D
  Delay (ns):            4.132
  Slack (ns):
  Arrival (ns):          4.132
  Required (ns):
  Setup (ns):            0.466
  External Setup (ns):   -1.227

Path 4
  From:                  gbt_rxrdy
  To:                    fc0/ck_ok:D
  Delay (ns):            4.106
  Slack (ns):
  Arrival (ns):          4.106
  Required (ns):
  Setup (ns):            0.466
  External Setup (ns):   -1.238

Path 5
  From:                  gbt_clk40
  To:                    fc1/final_count[2]:E
  Delay (ns):            4.127
  Slack (ns):
  Arrival (ns):          4.127
  Required (ns):
  Setup (ns):            0.375
  External Setup (ns):   -1.323


Expanded Path 1
  From: gbt_clk40
  To: fc1/final_count[3]:E
  data required time                             N/C
  data arrival time                          -   4.460
  slack                                          N/C
  ________________________________________________________
  Data arrival time calculation
  0.000                        gbt_clk40 (r)
               +     0.000          net: gbt_clk40
  0.000                        gbt_clk40_pad/U0/U0:PAD (r)
               +     0.875          cell: ADLIB:IOPAD_IN
  0.875                        gbt_clk40_pad/U0/U0:Y (r)
               +     0.000          net: gbt_clk40_pad/U0/NET1
  0.875                        gbt_clk40_pad/U0/U1:YIN (r)
               +     0.037          cell: ADLIB:IOIN_IB
  0.912                        gbt_clk40_pad/U0/U1:Y (r)
               +     1.571          net: gbt_clk40_c
  2.483                        HIEFFPLA_INST_2_1928:B (r)
               +     0.445          cell: ADLIB:NOR2A
  2.928                        HIEFFPLA_INST_2_1928:Y (f)
               +     1.532          net: HIEFFPLA_NET_2_2593
  4.460                        fc1/final_count[3]:E (f)
                                    
  4.460                        data arrival time
  ________________________________________________________
  Data required time calculation
  N/C                          clocking/Core:GLB
               +     0.000          Clock source
  N/C                          clocking/Core:GLB (r)
               +     5.201          Clock generation
  N/C
               +     0.631          net: GLB
  N/C                          fc1/final_count[3]:CLK (r)
               -     0.375          Library setup time: ADLIB:DFN1E1
  N/C                          fc1/final_count[3]:E


END SET External Setup

----------------------------------------------------

SET Clock to Output

No Path

END SET Clock to Output

----------------------------------------------------

SET Register to Asynchronous

No Path

END SET Register to Asynchronous

----------------------------------------------------

SET External Recovery

No Path

END SET External Recovery

----------------------------------------------------

SET Asynchronous to Register

No Path

END SET Asynchronous to Register

----------------------------------------------------

Clock Domain gbt_clk40

Info: The maximum frequency of this clock domain is limited by the minimum pulse widths of pin gbt_clk40_pad/U0/U0:PAD

SET Register to Register

No Path

END SET Register to Register

----------------------------------------------------

SET External Setup

No Path

END SET External Setup

----------------------------------------------------

SET Clock to Output

No Path

END SET Clock to Output

----------------------------------------------------

SET Register to Asynchronous

No Path

END SET Register to Asynchronous

----------------------------------------------------

SET External Recovery

No Path

END SET External Recovery

----------------------------------------------------

SET Asynchronous to Register

No Path

END SET Asynchronous to Register

----------------------------------------------------

Clock Domain osc_clk40

Info: The maximum frequency of this clock domain is limited by the minimum pulse widths of pin osc_clk40_pad/U0/U0:PAD

SET Register to Register

No Path

END SET Register to Register

----------------------------------------------------

SET External Setup

No Path

END SET External Setup

----------------------------------------------------

SET Clock to Output

No Path

END SET Clock to Output

----------------------------------------------------

SET Register to Asynchronous

No Path

END SET Register to Asynchronous

----------------------------------------------------

SET External Recovery

No Path

END SET External Recovery

----------------------------------------------------

SET Asynchronous to Register

No Path

END SET Asynchronous to Register

----------------------------------------------------

Path set Pin to Pin

SET Input to Output

No Path

END SET Input to Output

----------------------------------------------------

Path set User Sets

