Timing Violation Report Min Delay Analysis

SmartTime Version v11.9 SP5
Microsemi Corporation - Microsemi Libero Software Release v11.9 SP5 (Version 11.9.5.5)
Date: Thu Apr 16 17:20:58 2020


Design: jtag_interface_top
Family: ProASIC3
Die: A3P250
Package: 144 FBGA
Temperature Range: -40 - 85 C
Voltage Range: 1.425 - 1.575 V
Speed Grade: -1
Design State: Post-Layout
Data source: Silicon verified
Min Operating Conditions: BEST - 1.575 V - -40 C
Max Operating Conditions: WORST - 1.425 V - 85 C
Using Enhanced Min Delay Analysis
Scenario for Timing Analysis: Primary


Path 1
  From:                  fc2/counter[0]:CLK
  To:                    fc2/final_count[0]:D
  Delay (ns):            0.407
  Slack (ns):            0.386
  Arrival (ns):          3.051
  Required (ns):         2.665

Path 2
  From:                  fc0/counter[0]:CLK
  To:                    fc0/final_count[0]:D
  Delay (ns):            0.434
  Slack (ns):            0.406
  Arrival (ns):          3.071
  Required (ns):         2.665

Path 3
  From:                  fc0/counter[3]:CLK
  To:                    fc0/final_count[3]:D
  Delay (ns):            0.582
  Slack (ns):            0.539
  Arrival (ns):          3.204
  Required (ns):         2.665

Path 4
  From:                  fc2/counter[3]:CLK
  To:                    fc2/final_count[3]:D
  Delay (ns):            0.571
  Slack (ns):            0.550
  Arrival (ns):          3.215
  Required (ns):         2.665

Path 5
  From:                  fc1/counter[3]:CLK
  To:                    fc1/final_count[3]:D
  Delay (ns):            0.571
  Slack (ns):            0.550
  Arrival (ns):          3.215
  Required (ns):         2.665

Path 6
  From:                  fc1/final_count[2]:CLK
  To:                    fc1/ck_ok:D
  Delay (ns):            0.592
  Slack (ns):            0.564
  Arrival (ns):          3.229
  Required (ns):         2.665

Path 7
  From:                  fc2/counter[2]:CLK
  To:                    fc2/final_count[2]:D
  Delay (ns):            0.589
  Slack (ns):            0.568
  Arrival (ns):          3.233
  Required (ns):         2.665

Path 8
  From:                  fc2/final_count[2]:CLK
  To:                    fc2/ck_ok:D
  Delay (ns):            0.592
  Slack (ns):            0.571
  Arrival (ns):          3.236
  Required (ns):         2.665

Path 9
  From:                  fc1/counter[2]:CLK
  To:                    fc1/final_count[2]:D
  Delay (ns):            0.589
  Slack (ns):            0.571
  Arrival (ns):          3.226
  Required (ns):         2.655

Path 10
  From:                  fc0/final_count[2]:CLK
  To:                    fc0/ck_ok:D
  Delay (ns):            0.592
  Slack (ns):            0.571
  Arrival (ns):          3.236
  Required (ns):         2.665

Path 11
  From:                  fc1/counter[0]:CLK
  To:                    fc1/counter[0]:D
  Delay (ns):            0.583
  Slack (ns):            0.583
  Arrival (ns):          3.220
  Required (ns):         2.637

Path 12
  From:                  fc0/counter[1]:CLK
  To:                    fc0/final_count[1]:D
  Delay (ns):            0.615
  Slack (ns):            0.587
  Arrival (ns):          3.252
  Required (ns):         2.665

Path 13
  From:                  fc2/counter[1]:CLK
  To:                    fc2/final_count[1]:D
  Delay (ns):            0.615
  Slack (ns):            0.594
  Arrival (ns):          3.259
  Required (ns):         2.665

Path 14
  From:                  fc2/counter[0]:CLK
  To:                    fc2/counter[0]:D
  Delay (ns):            0.621
  Slack (ns):            0.621
  Arrival (ns):          3.265
  Required (ns):         2.644

Path 15
  From:                  fc1/counter[0]:CLK
  To:                    fc1/counter[1]:D
  Delay (ns):            0.643
  Slack (ns):            0.625
  Arrival (ns):          3.280
  Required (ns):         2.655

Path 16
  From:                  fc0/counter[0]:CLK
  To:                    fc0/counter[0]:D
  Delay (ns):            0.645
  Slack (ns):            0.645
  Arrival (ns):          3.282
  Required (ns):         2.637

Path 17
  From:                  fc0/counter[2]:CLK
  To:                    fc0/final_count[2]:D
  Delay (ns):            0.682
  Slack (ns):            0.654
  Arrival (ns):          3.319
  Required (ns):         2.665

Path 18
  From:                  fc0/state:CLK
  To:                    fc0/counter[0]:D
  Delay (ns):            0.666
  Slack (ns):            0.655
  Arrival (ns):          3.310
  Required (ns):         2.655

Path 19
  From:                  fc2/counter[0]:CLK
  To:                    fc2/counter[1]:D
  Delay (ns):            0.688
  Slack (ns):            0.667
  Arrival (ns):          3.332
  Required (ns):         2.665

Path 20
  From:                  fc1/counter[3]:CLK
  To:                    fc1/counter[3]:D
  Delay (ns):            0.670
  Slack (ns):            0.670
  Arrival (ns):          3.314
  Required (ns):         2.644

Path 21
  From:                  fc1/counter[1]:CLK
  To:                    fc1/counter[1]:D
  Delay (ns):            0.670
  Slack (ns):            0.670
  Arrival (ns):          3.307
  Required (ns):         2.637

Path 22
  From:                  fc1/counter[0]:CLK
  To:                    fc1/final_count[0]:D
  Delay (ns):            0.716
  Slack (ns):            0.688
  Arrival (ns):          3.353
  Required (ns):         2.665

Path 23
  From:                  fc0/counter[0]:CLK
  To:                    fc0/counter[1]:D
  Delay (ns):            0.711
  Slack (ns):            0.693
  Arrival (ns):          3.348
  Required (ns):         2.655

Path 24
  From:                  fc2/counter[1]:CLK
  To:                    fc2/counter[1]:D
  Delay (ns):            0.715
  Slack (ns):            0.715
  Arrival (ns):          3.359
  Required (ns):         2.644

Path 25
  From:                  fc0/counter[1]:CLK
  To:                    fc0/counter[1]:D
  Delay (ns):            0.715
  Slack (ns):            0.715
  Arrival (ns):          3.352
  Required (ns):         2.637

Path 26
  From:                  fc2/counter[1]:CLK
  To:                    fc2/final_count[2]:D
  Delay (ns):            0.737
  Slack (ns):            0.716
  Arrival (ns):          3.381
  Required (ns):         2.665

Path 27
  From:                  fc2/counter[0]:CLK
  To:                    fc2/final_count[1]:D
  Delay (ns):            0.738
  Slack (ns):            0.717
  Arrival (ns):          3.382
  Required (ns):         2.665

Path 28
  From:                  fc0/counter[0]:CLK
  To:                    fc0/final_count[1]:D
  Delay (ns):            0.761
  Slack (ns):            0.733
  Arrival (ns):          3.398
  Required (ns):         2.665

Path 29
  From:                  fc2/counter[0]:CLK
  To:                    fc2/final_count[2]:D
  Delay (ns):            0.758
  Slack (ns):            0.737
  Arrival (ns):          3.402
  Required (ns):         2.665

Path 30
  From:                  fc0/counter[1]:CLK
  To:                    fc0/final_count[2]:D
  Delay (ns):            0.824
  Slack (ns):            0.796
  Arrival (ns):          3.461
  Required (ns):         2.665

Path 31
  From:                  fc1/final_count[3]:CLK
  To:                    fc1/ck_ok:D
  Delay (ns):            0.820
  Slack (ns):            0.799
  Arrival (ns):          3.464
  Required (ns):         2.665

Path 32
  From:                  fc0/final_count[3]:CLK
  To:                    fc0/ck_ok:D
  Delay (ns):            0.820
  Slack (ns):            0.799
  Arrival (ns):          3.464
  Required (ns):         2.665

Path 33
  From:                  fc2/counter[3]:CLK
  To:                    fc2/counter[3]:D
  Delay (ns):            0.805
  Slack (ns):            0.805
  Arrival (ns):          3.449
  Required (ns):         2.644

Path 34
  From:                  fc0/counter[2]:CLK
  To:                    fc0/counter[2]:D
  Delay (ns):            0.814
  Slack (ns):            0.814
  Arrival (ns):          3.451
  Required (ns):         2.637

Path 35
  From:                  fc0/counter[3]:CLK
  To:                    fc0/counter[3]:D
  Delay (ns):            0.821
  Slack (ns):            0.821
  Arrival (ns):          3.443
  Required (ns):         2.622

Path 36
  From:                  fc1/counter[2]:CLK
  To:                    fc1/counter[2]:D
  Delay (ns):            0.823
  Slack (ns):            0.823
  Arrival (ns):          3.460
  Required (ns):         2.637

Path 37
  From:                  fc2/counter[2]:CLK
  To:                    fc2/counter[2]:D
  Delay (ns):            0.824
  Slack (ns):            0.824
  Arrival (ns):          3.468
  Required (ns):         2.644

Path 38
  From:                  fc0/state:CLK
  To:                    fc2/counter[0]:D
  Delay (ns):            0.846
  Slack (ns):            0.825
  Arrival (ns):          3.490
  Required (ns):         2.665

Path 39
  From:                  fc0/counter[0]:CLK
  To:                    fc0/final_count[2]:D
  Delay (ns):            0.868
  Slack (ns):            0.840
  Arrival (ns):          3.505
  Required (ns):         2.665

Path 40
  From:                  fc2/final_count[1]:CLK
  To:                    fc2/ck_ok:D
  Delay (ns):            0.870
  Slack (ns):            0.849
  Arrival (ns):          3.514
  Required (ns):         2.665

Path 41
  From:                  fc1/final_count[1]:CLK
  To:                    fc1/ck_ok:D
  Delay (ns):            0.870
  Slack (ns):            0.849
  Arrival (ns):          3.514
  Required (ns):         2.665

Path 42
  From:                  fc0/final_count[1]:CLK
  To:                    fc0/ck_ok:D
  Delay (ns):            0.870
  Slack (ns):            0.849
  Arrival (ns):          3.514
  Required (ns):         2.665

Path 43
  From:                  fc1/counter[1]:CLK
  To:                    fc1/final_count[2]:D
  Delay (ns):            0.889
  Slack (ns):            0.871
  Arrival (ns):          3.526
  Required (ns):         2.655

Path 44
  From:                  fc1/counter[2]:CLK
  To:                    fc1/counter[3]:D
  Delay (ns):            0.899
  Slack (ns):            0.871
  Arrival (ns):          3.536
  Required (ns):         2.665

Path 45
  From:                  fc0/state:CLK
  To:                    fc2/counter[1]:D
  Delay (ns):            0.895
  Slack (ns):            0.874
  Arrival (ns):          3.539
  Required (ns):         2.665

Path 46
  From:                  fc0/state:CLK
  To:                    fc1/counter[3]:D
  Delay (ns):            0.895
  Slack (ns):            0.874
  Arrival (ns):          3.539
  Required (ns):         2.665

Path 47
  From:                  fc1/counter[0]:CLK
  To:                    fc1/final_count[2]:D
  Delay (ns):            0.894
  Slack (ns):            0.876
  Arrival (ns):          3.531
  Required (ns):         2.655

Path 48
  From:                  fc1/counter[2]:CLK
  To:                    fc1/final_count[3]:D
  Delay (ns):            0.914
  Slack (ns):            0.886
  Arrival (ns):          3.551
  Required (ns):         2.665

Path 49
  From:                  fc1/final_count[0]:CLK
  To:                    fc1/ck_ok:D
  Delay (ns):            0.907
  Slack (ns):            0.886
  Arrival (ns):          3.551
  Required (ns):         2.665

Path 50
  From:                  fc0/final_count[0]:CLK
  To:                    fc0/ck_ok:D
  Delay (ns):            0.907
  Slack (ns):            0.886
  Arrival (ns):          3.551
  Required (ns):         2.665

Path 51
  From:                  fc2/final_count[0]:CLK
  To:                    fc2/ck_ok:D
  Delay (ns):            0.908
  Slack (ns):            0.887
  Arrival (ns):          3.552
  Required (ns):         2.665

Path 52
  From:                  fc2/counter[2]:CLK
  To:                    fc2/final_count[3]:D
  Delay (ns):            0.914
  Slack (ns):            0.893
  Arrival (ns):          3.558
  Required (ns):         2.665

Path 53
  From:                  fc0/counter[2]:CLK
  To:                    fc0/final_count[3]:D
  Delay (ns):            0.924
  Slack (ns):            0.896
  Arrival (ns):          3.561
  Required (ns):         2.665

Path 54
  From:                  fc0/state:CLK
  To:                    fc2/counter[2]:D
  Delay (ns):            0.945
  Slack (ns):            0.924
  Arrival (ns):          3.589
  Required (ns):         2.665

Path 55
  From:                  fc1/counter[1]:CLK
  To:                    fc1/final_count[1]:D
  Delay (ns):            0.956
  Slack (ns):            0.928
  Arrival (ns):          3.593
  Required (ns):         2.665

Path 56
  From:                  fc0/counter[1]:CLK
  To:                    fc0/counter[2]:D
  Delay (ns):            0.956
  Slack (ns):            0.938
  Arrival (ns):          3.593
  Required (ns):         2.655

Path 57
  From:                  fc0/state:CLK
  To:                    fc2/counter[3]:D
  Delay (ns):            0.967
  Slack (ns):            0.946
  Arrival (ns):          3.611
  Required (ns):         2.665

Path 58
  From:                  fc2/counter[1]:CLK
  To:                    fc2/counter[2]:D
  Delay (ns):            0.972
  Slack (ns):            0.951
  Arrival (ns):          3.616
  Required (ns):         2.665

Path 59
  From:                  fc0/state:CLK
  To:                    fc0/final_count[2]:E
  Delay (ns):            0.973
  Slack (ns):            0.952
  Arrival (ns):          3.617
  Required (ns):         2.665

Path 60
  From:                  fc1/counter[1]:CLK
  To:                    fc1/counter[3]:D
  Delay (ns):            0.981
  Slack (ns):            0.953
  Arrival (ns):          3.618
  Required (ns):         2.665

Path 61
  From:                  fc2/counter[0]:CLK
  To:                    fc2/counter[2]:D
  Delay (ns):            0.993
  Slack (ns):            0.972
  Arrival (ns):          3.637
  Required (ns):         2.665

Path 62
  From:                  fc1/counter[1]:CLK
  To:                    fc1/final_count[3]:D
  Delay (ns):            1.007
  Slack (ns):            0.979
  Arrival (ns):          3.644
  Required (ns):         2.665

Path 63
  From:                  fc1/counter[0]:CLK
  To:                    fc1/final_count[1]:D
  Delay (ns):            1.009
  Slack (ns):            0.981
  Arrival (ns):          3.646
  Required (ns):         2.665

Path 64
  From:                  fc0/counter[0]:CLK
  To:                    fc0/counter[2]:D
  Delay (ns):            1.000
  Slack (ns):            0.982
  Arrival (ns):          3.637
  Required (ns):         2.655

Path 65
  From:                  fc1/counter[0]:CLK
  To:                    fc1/counter[3]:D
  Delay (ns):            1.014
  Slack (ns):            0.986
  Arrival (ns):          3.651
  Required (ns):         2.665

Path 66
  From:                  fc2/final_count[3]:CLK
  To:                    fc2/ck_ok:D
  Delay (ns):            1.014
  Slack (ns):            0.993
  Arrival (ns):          3.658
  Required (ns):         2.665

Path 67
  From:                  fc0/state:CLK
  To:                    fc1/final_count[2]:E
  Delay (ns):            1.015
  Slack (ns):            1.004
  Arrival (ns):          3.659
  Required (ns):         2.655

Path 68
  From:                  fc0/state:CLK
  To:                    fc2/final_count[0]:E
  Delay (ns):            1.031
  Slack (ns):            1.010
  Arrival (ns):          3.675
  Required (ns):         2.665

Path 69
  From:                  fc0/state:CLK
  To:                    fc2/final_count[1]:E
  Delay (ns):            1.031
  Slack (ns):            1.010
  Arrival (ns):          3.675
  Required (ns):         2.665

Path 70
  From:                  fc1/counter[0]:CLK
  To:                    fc1/final_count[3]:D
  Delay (ns):            1.040
  Slack (ns):            1.012
  Arrival (ns):          3.677
  Required (ns):         2.665

Path 71
  From:                  fc0/counter[1]:CLK
  To:                    fc0/final_count[3]:D
  Delay (ns):            1.052
  Slack (ns):            1.024
  Arrival (ns):          3.689
  Required (ns):         2.665

Path 72
  From:                  fc2/counter[1]:CLK
  To:                    fc2/final_count[3]:D
  Delay (ns):            1.048
  Slack (ns):            1.027
  Arrival (ns):          3.692
  Required (ns):         2.665

Path 73
  From:                  fc0/state:CLK
  To:                    fc1/final_count[3]:E
  Delay (ns):            1.059
  Slack (ns):            1.038
  Arrival (ns):          3.703
  Required (ns):         2.665

Path 74
  From:                  fc0/state:CLK
  To:                    fc1/final_count[1]:E
  Delay (ns):            1.059
  Slack (ns):            1.038
  Arrival (ns):          3.703
  Required (ns):         2.665

Path 75
  From:                  fc0/state:CLK
  To:                    fc1/final_count[0]:E
  Delay (ns):            1.059
  Slack (ns):            1.038
  Arrival (ns):          3.703
  Required (ns):         2.665

Path 76
  From:                  fc0/state:CLK
  To:                    fc0/final_count[3]:E
  Delay (ns):            1.059
  Slack (ns):            1.038
  Arrival (ns):          3.703
  Required (ns):         2.665

Path 77
  From:                  fc0/state:CLK
  To:                    fc0/final_count[1]:E
  Delay (ns):            1.059
  Slack (ns):            1.038
  Arrival (ns):          3.703
  Required (ns):         2.665

Path 78
  From:                  fc0/state:CLK
  To:                    fc0/final_count[0]:E
  Delay (ns):            1.059
  Slack (ns):            1.038
  Arrival (ns):          3.703
  Required (ns):         2.665

Path 79
  From:                  fc0/state:CLK
  To:                    fc0/counter[2]:D
  Delay (ns):            1.056
  Slack (ns):            1.045
  Arrival (ns):          3.700
  Required (ns):         2.655

Path 80
  From:                  fc0/state:CLK
  To:                    fc2/final_count[3]:E
  Delay (ns):            1.092
  Slack (ns):            1.071
  Arrival (ns):          3.736
  Required (ns):         2.665

Path 81
  From:                  fc0/state:CLK
  To:                    fc0/counter[3]:D
  Delay (ns):            1.071
  Slack (ns):            1.078
  Arrival (ns):          3.715
  Required (ns):         2.637

Path 82
  From:                  fc0/counter[0]:CLK
  To:                    fc0/final_count[3]:D
  Delay (ns):            1.108
  Slack (ns):            1.080
  Arrival (ns):          3.745
  Required (ns):         2.665

Path 83
  From:                  fc0/state:CLK
  To:                    fc1/counter[2]:D
  Delay (ns):            1.099
  Slack (ns):            1.088
  Arrival (ns):          3.743
  Required (ns):         2.655

Path 84
  From:                  fc0/state:CLK
  To:                    fc1/counter[1]:D
  Delay (ns):            1.108
  Slack (ns):            1.097
  Arrival (ns):          3.752
  Required (ns):         2.655

Path 85
  From:                  fc1/counter[1]:CLK
  To:                    fc1/counter[2]:D
  Delay (ns):            1.123
  Slack (ns):            1.105
  Arrival (ns):          3.760
  Required (ns):         2.655

Path 86
  From:                  fc2/counter[0]:CLK
  To:                    fc2/final_count[3]:D
  Delay (ns):            1.131
  Slack (ns):            1.110
  Arrival (ns):          3.775
  Required (ns):         2.665

Path 87
  From:                  fc1/counter[0]:CLK
  To:                    fc1/counter[2]:D
  Delay (ns):            1.128
  Slack (ns):            1.110
  Arrival (ns):          3.765
  Required (ns):         2.655

Path 88
  From:                  fc0/state:CLK
  To:                    fc0/counter[1]:D
  Delay (ns):            1.128
  Slack (ns):            1.117
  Arrival (ns):          3.772
  Required (ns):         2.655

Path 89
  From:                  fc2/counter[2]:CLK
  To:                    fc2/counter[3]:D
  Delay (ns):            1.148
  Slack (ns):            1.127
  Arrival (ns):          3.792
  Required (ns):         2.665

Path 90
  From:                  fc0/counter[2]:CLK
  To:                    fc0/counter[3]:D
  Delay (ns):            1.163
  Slack (ns):            1.163
  Arrival (ns):          3.800
  Required (ns):         2.637

Path 91
  From:                  fc0/state:CLK
  To:                    fc2/final_count[2]:E
  Delay (ns):            1.209
  Slack (ns):            1.188
  Arrival (ns):          3.853
  Required (ns):         2.665

Path 92
  From:                  fc2/counter[1]:CLK
  To:                    fc2/counter[3]:D
  Delay (ns):            1.282
  Slack (ns):            1.261
  Arrival (ns):          3.926
  Required (ns):         2.665

Path 93
  From:                  fc0/state:CLK
  To:                    fc1/counter[0]:D
  Delay (ns):            1.296
  Slack (ns):            1.285
  Arrival (ns):          3.940
  Required (ns):         2.655

Path 94
  From:                  fc0/counter[1]:CLK
  To:                    fc0/counter[3]:D
  Delay (ns):            1.291
  Slack (ns):            1.291
  Arrival (ns):          3.928
  Required (ns):         2.637

Path 95
  From:                  fc2/counter[0]:CLK
  To:                    fc2/counter[3]:D
  Delay (ns):            1.365
  Slack (ns):            1.344
  Arrival (ns):          4.009
  Required (ns):         2.665

Path 96
  From:                  fc0/counter[0]:CLK
  To:                    fc0/counter[3]:D
  Delay (ns):            1.347
  Slack (ns):            1.347
  Arrival (ns):          3.984
  Required (ns):         2.637

