Timing Report Max Delay Analysis

SmartTime Version v11.9 SP5
Microsemi Corporation - Microsemi Libero Software Release v11.9 SP5 (Version 11.9.5.5)
Date: Wed Apr 15 17:02:41 2020


Design: jtag_interface_top
Family: ProASIC3
Die: A3P250
Package: 144 FBGA
Temperature Range: -40 - 85 C
Voltage Range: 1.425 - 1.575 V
Speed Grade: -1
Design State: Post-Layout
Data source: Silicon verified
Min Operating Conditions: BEST - 1.575 V - -40 C
Max Operating Conditions: WORST - 1.425 V - 85 C
Using Enhanced Min Delay Analysis
Scenario for Timing Analysis: Primary


-----------------------------------------------------
SUMMARY

Clock Domain:               clocking/Core:GLA
Period (ns):                0.864
Frequency (MHz):            1157.407
Required Period (ns):       25.000
Required Frequency (MHz):   40.000
External Setup (ns):        -1.564
Max Clock-To-Out (ns):      13.310

Clock Domain:               clocking/Core:GLB
Period (ns):                4.165
Frequency (MHz):            240.096
Required Period (ns):       4.167
Required Frequency (MHz):   239.981
External Setup (ns):        -1.104
Max Clock-To-Out (ns):      N/A

Clock Domain:               gbt_clk40
Period (ns):                4.000
Frequency (MHz):            250.000
Required Period (ns):       24.950
Required Frequency (MHz):   40.080
External Setup (ns):        N/A
Max Clock-To-Out (ns):      N/A

Clock Domain:               osc_clk40
Period (ns):                4.000
Frequency (MHz):            250.000
Required Period (ns):       25.000
Required Frequency (MHz):   40.000
External Setup (ns):        N/A
Max Clock-To-Out (ns):      N/A

                            Input to Output
Max Delay (ns):             N/A

END SUMMARY
-----------------------------------------------------

Clock Domain clocking/Core:GLA

Info: The maximum frequency of this clock domain is limited by the minimum pulse widths of pin jtag_out_rem[2]:CLK

SET Register to Register

No Path

END SET Register to Register

----------------------------------------------------

SET External Setup

Path 1
  From:                  gbt_dvalid
  To:                    jtag_out_rem_tri_enable:D
  Delay (ns):            2.991
  Slack (ns):
  Arrival (ns):          2.991
  Required (ns):
  Setup (ns):            0.616
  External Setup (ns):   -1.564

Path 2
  From:                  gbt_rst_p[0]
  To:                    jtag_out_loc[3]:D
  Delay (ns):            2.807
  Slack (ns):
  Arrival (ns):          2.807
  Required (ns):
  Setup (ns):            0.616
  External Setup (ns):   -1.742

Path 3
  From:                  gbt_rst_n[0]
  To:                    jtag_out_loc[3]:D
  Delay (ns):            2.793
  Slack (ns):
  Arrival (ns):          2.793
  Required (ns):
  Setup (ns):            0.616
  External Setup (ns):   -1.756

Path 4
  From:                  gbt_rst_p[1]
  To:                    jtag_out_rem[3]:D
  Delay (ns):            2.755
  Slack (ns):
  Arrival (ns):          2.755
  Required (ns):
  Setup (ns):            0.616
  External Setup (ns):   -1.786

Path 5
  From:                  gbt_rst_n[1]
  To:                    jtag_out_rem[3]:D
  Delay (ns):            2.745
  Slack (ns):
  Arrival (ns):          2.745
  Required (ns):
  Setup (ns):            0.616
  External Setup (ns):   -1.796


Expanded Path 1
  From: gbt_dvalid
  To: jtag_out_rem_tri_enable:D
  data required time                             N/C
  data arrival time                          -   2.991
  slack                                          N/C
  ________________________________________________________
  Data arrival time calculation
  0.000                        gbt_dvalid (r)
               +     0.000          net: gbt_dvalid
  0.000                        gbt_dvalid_pad/U0/U0:PAD (r)
               +     0.875          cell: ADLIB:IOPAD_IN
  0.875                        gbt_dvalid_pad/U0/U0:Y (r)
               +     0.000          net: gbt_dvalid_pad/U0/NET1
  0.875                        gbt_dvalid_pad/U0/U1:YIN (r)
               +     0.037          cell: ADLIB:IOIN_IB
  0.912                        gbt_dvalid_pad/U0/U1:Y (r)
               +     1.343          net: gbt_dvalid_c
  2.255                        HIEFFPLA_INST_2_727:A (r)
               +     0.422          cell: ADLIB:AND3
  2.677                        HIEFFPLA_INST_2_727:Y (r)
               +     0.314          net: HIEFFPLA_NET_2_1551
  2.991                        jtag_out_rem_tri_enable:D (r)
                                    
  2.991                        data arrival time
  ________________________________________________________
  Data required time calculation
  N/C                          clocking/Core:GLA
               +     0.000          Clock source
  N/C                          clocking/Core:GLA (f)
               +     4.552          Clock generation
  N/C
               +     0.619          net: GLA
  N/C                          jtag_out_rem_tri_enable:CLK (f)
               -     0.616          Library setup time: ADLIB:DFN0
  N/C                          jtag_out_rem_tri_enable:D


END SET External Setup

----------------------------------------------------

SET Clock to Output

Path 1
  From:                  jtag_out_rem_tri_enable:CLK
  To:                    proasic_tck[1]
  Delay (ns):            8.139
  Slack (ns):
  Arrival (ns):          13.310
  Required (ns):
  Clock to Out (ns):     13.310

Path 2
  From:                  jtag_out_rem_tri_enable:CLK
  To:                    proasic_tms[1]
  Delay (ns):            6.948
  Slack (ns):
  Arrival (ns):          12.119
  Required (ns):
  Clock to Out (ns):     12.119

Path 3
  From:                  jtag_out_rem_tri_enable:CLK
  To:                    proasic_rst[0]
  Delay (ns):            6.637
  Slack (ns):
  Arrival (ns):          11.808
  Required (ns):
  Clock to Out (ns):     11.808

Path 4
  From:                  jtag_out_rem_tri_enable:CLK
  To:                    proasic_rst[1]
  Delay (ns):            6.504
  Slack (ns):
  Arrival (ns):          11.675
  Required (ns):
  Clock to Out (ns):     11.675

Path 5
  From:                  jtag_out_rem_tri_enable:CLK
  To:                    proasic_tdi[0]
  Delay (ns):            6.303
  Slack (ns):
  Arrival (ns):          11.474
  Required (ns):
  Clock to Out (ns):     11.474


Expanded Path 1
  From: jtag_out_rem_tri_enable:CLK
  To: proasic_tck[1]
  data required time                             N/C
  data arrival time                          -   13.310
  slack                                          N/C
  ________________________________________________________
  Data arrival time calculation
  0.000                        clocking/Core:GLA
               +     0.000          Clock source
  0.000                        clocking/Core:GLA (f)
               +     4.552          Clock generation
  4.552
               +     0.619          net: GLA
  5.171                        jtag_out_rem_tri_enable:CLK (f)
               +     0.565          cell: ADLIB:DFN0
  5.736                        jtag_out_rem_tri_enable:Q (f)
               +     4.400          net: jtag_out_rem_tri_enable
  10.136                       proasic_tck_pad[1]/U0/U1:E (f)
               +     0.360          cell: ADLIB:IOTRI_OB_EB
  10.496                       proasic_tck_pad[1]/U0/U1:EOUT (f)
               +     0.000          net: proasic_tck_pad[1]/U0/NET2
  10.496                       proasic_tck_pad[1]/U0/U0:E (f)
               +     2.814          cell: ADLIB:IOPAD_TRI
  13.310                       proasic_tck_pad[1]/U0/U0:PAD (f)
               +     0.000          net: proasic_tck_0[1]
  13.310                       proasic_tck[1] (f)
                                    
  13.310                       data arrival time
  ________________________________________________________
  Data required time calculation
  N/C                          clocking/Core:GLA
               +     0.000          Clock source
  N/C                          clocking/Core:GLA (r)
               +     4.552          Clock generation
  N/C
                                    
  N/C                          proasic_tck[1] (f)


END SET Clock to Output

----------------------------------------------------

SET Register to Asynchronous

No Path

END SET Register to Asynchronous

----------------------------------------------------

SET External Recovery

No Path

END SET External Recovery

----------------------------------------------------

SET Asynchronous to Register

No Path

END SET Asynchronous to Register

----------------------------------------------------

Clock Domain clocking/Core:GLB

SET Register to Register

Path 1
  From:                  fc2/counter[1]:CLK
  To:                    fc2/counter[3]:D
  Delay (ns):            3.669
  Slack (ns):            0.002
  Arrival (ns):          9.483
  Required (ns):         9.485
  Setup (ns):            0.496
  Minimum Period (ns):   4.165

Path 2
  From:                  fc1/counter[2]:CLK
  To:                    fc1/counter[3]:D
  Delay (ns):            3.646
  Slack (ns):            0.006
  Arrival (ns):          9.465
  Required (ns):         9.471
  Setup (ns):            0.496
  Minimum Period (ns):   4.161

Path 3
  From:                  fc0/counter[2]:CLK
  To:                    fc0/counter[3]:D
  Delay (ns):            3.630
  Slack (ns):            0.041
  Arrival (ns):          9.441
  Required (ns):         9.482
  Setup (ns):            0.496
  Minimum Period (ns):   4.126

Path 4
  From:                  fc0/state:CLK
  To:                    fc1/counter[2]:D
  Delay (ns):            3.561
  Slack (ns):            0.159
  Arrival (ns):          9.361
  Required (ns):         9.520
  Setup (ns):            0.466
  Minimum Period (ns):   4.008

Path 5
  From:                  fc0/state:CLK
  To:                    fc1/counter[0]:D
  Delay (ns):            3.527
  Slack (ns):            0.193
  Arrival (ns):          9.327
  Required (ns):         9.520
  Setup (ns):            0.466
  Minimum Period (ns):   3.974


Expanded Path 1
  From: fc2/counter[1]:CLK
  To: fc2/counter[3]:D
  data required time                             9.485
  data arrival time                          -   9.483
  slack                                          0.002
  ________________________________________________________
  Data arrival time calculation
  0.000                        clocking/Core:GLB
               +     0.000          Clock source
  0.000                        clocking/Core:GLB (r)
               +     5.201          Clock generation
  5.201
               +     0.613          net: GLB
  5.814                        fc2/counter[1]:CLK (r)
               +     0.637          cell: ADLIB:DFN1
  6.451                        fc2/counter[1]:Q (f)
               +     0.434          net: fc2/counter[1]
  6.885                        HIEFFPLA_INST_2_723:B (f)
               +     0.545          cell: ADLIB:AND2
  7.430                        HIEFFPLA_INST_2_723:Y (f)
               +     0.290          net: HIEFFPLA_NET_2_1553
  7.720                        HIEFFPLA_INST_2_725:A (f)
               +     0.857          cell: ADLIB:AX1C
  8.577                        HIEFFPLA_INST_2_725:Y (f)
               +     0.267          net: HIEFFPLA_NET_2_1552
  8.844                        HIEFFPLA_INST_2_716:C (f)
               +     0.350          cell: ADLIB:OA1A
  9.194                        HIEFFPLA_INST_2_716:Y (f)
               +     0.289          net: HIEFFPLA_NET_2_1556
  9.483                        fc2/counter[3]:D (f)
                                    
  9.483                        data arrival time
  ________________________________________________________
  Data required time calculation
  4.167                        clocking/Core:GLB
               +     0.000          Clock source
  4.167                        clocking/Core:GLB (r)
               +     5.201          Clock generation
  9.368
               +     0.613          net: GLB
  9.981                        fc2/counter[3]:CLK (r)
               -     0.496          Library setup time: ADLIB:DFN1
  9.485                        fc2/counter[3]:D
                                    
  9.485                        data required time


END SET Register to Register

----------------------------------------------------

SET External Setup

Path 1
  From:                  gbt_clk40
  To:                    fc2/final_count[2]:E
  Delay (ns):            4.326
  Slack (ns):
  Arrival (ns):          4.326
  Required (ns):
  Setup (ns):            0.375
  External Setup (ns):   -1.104

Path 2
  From:                  gbt_clk40
  To:                    fc1/final_count[3]:E
  Delay (ns):            4.319
  Slack (ns):
  Arrival (ns):          4.319
  Required (ns):
  Setup (ns):            0.375
  External Setup (ns):   -1.125

Path 3
  From:                  gbt_clk40
  To:                    fc0/final_count[0]:E
  Delay (ns):            4.029
  Slack (ns):
  Arrival (ns):          4.029
  Required (ns):
  Setup (ns):            0.375
  External Setup (ns):   -1.407

Path 4
  From:                  gbt_clk40
  To:                    fc0/final_count[3]:E
  Delay (ns):            3.872
  Slack (ns):
  Arrival (ns):          3.872
  Required (ns):
  Setup (ns):            0.375
  External Setup (ns):   -1.564

Path 5
  From:                  gbt_clk40
  To:                    fc0/final_count[1]:E
  Delay (ns):            3.872
  Slack (ns):
  Arrival (ns):          3.872
  Required (ns):
  Setup (ns):            0.375
  External Setup (ns):   -1.564


Expanded Path 1
  From: gbt_clk40
  To: fc2/final_count[2]:E
  data required time                             N/C
  data arrival time                          -   4.326
  slack                                          N/C
  ________________________________________________________
  Data arrival time calculation
  0.000                        gbt_clk40 (r)
               +     0.000          net: gbt_clk40
  0.000                        gbt_clk40_pad/U0/U0:PAD (r)
               +     0.875          cell: ADLIB:IOPAD_IN
  0.875                        gbt_clk40_pad/U0/U0:Y (r)
               +     0.000          net: gbt_clk40_pad/U0/NET1
  0.875                        gbt_clk40_pad/U0/U1:YIN (r)
               +     0.037          cell: ADLIB:IOIN_IB
  0.912                        gbt_clk40_pad/U0/U1:Y (r)
               +     1.120          net: gbt_clk40_c
  2.032                        HIEFFPLA_INST_2_677:B (r)
               +     0.445          cell: ADLIB:NOR2A
  2.477                        HIEFFPLA_INST_2_677:Y (f)
               +     1.849          net: HIEFFPLA_NET_2_1572
  4.326                        fc2/final_count[2]:E (f)
                                    
  4.326                        data arrival time
  ________________________________________________________
  Data required time calculation
  N/C                          clocking/Core:GLB
               +     0.000          Clock source
  N/C                          clocking/Core:GLB (r)
               +     5.201          Clock generation
  N/C
               +     0.604          net: GLB
  N/C                          fc2/final_count[2]:CLK (r)
               -     0.375          Library setup time: ADLIB:DFN1E1
  N/C                          fc2/final_count[2]:E


END SET External Setup

----------------------------------------------------

SET Clock to Output

No Path

END SET Clock to Output

----------------------------------------------------

SET Register to Asynchronous

No Path

END SET Register to Asynchronous

----------------------------------------------------

SET External Recovery

No Path

END SET External Recovery

----------------------------------------------------

SET Asynchronous to Register

No Path

END SET Asynchronous to Register

----------------------------------------------------

Clock Domain gbt_clk40

Info: The maximum frequency of this clock domain is limited by the minimum pulse widths of pin gbt_clk40_pad/U0/U0:PAD

SET Register to Register

No Path

END SET Register to Register

----------------------------------------------------

SET External Setup

No Path

END SET External Setup

----------------------------------------------------

SET Clock to Output

No Path

END SET Clock to Output

----------------------------------------------------

SET Register to Asynchronous

No Path

END SET Register to Asynchronous

----------------------------------------------------

SET External Recovery

No Path

END SET External Recovery

----------------------------------------------------

SET Asynchronous to Register

No Path

END SET Asynchronous to Register

----------------------------------------------------

Clock Domain osc_clk40

Info: The maximum frequency of this clock domain is limited by the minimum pulse widths of pin osc_clk40_pad/U0/U0:PAD

SET Register to Register

No Path

END SET Register to Register

----------------------------------------------------

SET External Setup

No Path

END SET External Setup

----------------------------------------------------

SET Clock to Output

No Path

END SET Clock to Output

----------------------------------------------------

SET Register to Asynchronous

No Path

END SET Register to Asynchronous

----------------------------------------------------

SET External Recovery

No Path

END SET External Recovery

----------------------------------------------------

SET Asynchronous to Register

No Path

END SET Asynchronous to Register

----------------------------------------------------

Path set Pin to Pin

SET Input to Output

No Path

END SET Input to Output

----------------------------------------------------

Path set User Sets

