Timing Report Max Delay Analysis

SmartTime Version v11.9 SP5
Microsemi Corporation - Microsemi Libero Software Release v11.9 SP5 (Version 11.9.5.5)
Date: Thu Apr 16 17:19:13 2020


Design: jtag_interface_top
Family: ProASIC3
Die: A3P250
Package: 144 FBGA
Temperature Range: -40 - 85 C
Voltage Range: 1.425 - 1.575 V
Speed Grade: -1
Design State: Post-Layout
Data source: Silicon verified
Min Operating Conditions: BEST - 1.575 V - -40 C
Max Operating Conditions: WORST - 1.425 V - 85 C
Using Enhanced Min Delay Analysis
Scenario for Timing Analysis: Primary


-----------------------------------------------------
SUMMARY

Clock Domain:               clocking/Core:GLA
Period (ns):                0.856
Frequency (MHz):            1168.224
Required Period (ns):       25.000
Required Frequency (MHz):   40.000
External Setup (ns):        -1.642
Max Clock-To-Out (ns):      12.611

Clock Domain:               clocking/Core:GLB
Period (ns):                4.541
Frequency (MHz):            220.216
Required Period (ns):       4.167
Required Frequency (MHz):   239.981
External Setup (ns):        -0.085
Max Clock-To-Out (ns):      N/A

Clock Domain:               gbt_clk40
Period (ns):                4.000
Frequency (MHz):            250.000
Required Period (ns):       24.950
Required Frequency (MHz):   40.080
External Setup (ns):        N/A
Max Clock-To-Out (ns):      N/A

Clock Domain:               osc_clk40
Period (ns):                4.000
Frequency (MHz):            250.000
Required Period (ns):       25.000
Required Frequency (MHz):   40.000
External Setup (ns):        N/A
Max Clock-To-Out (ns):      N/A

                            Input to Output
Max Delay (ns):             N/A

END SUMMARY
-----------------------------------------------------

Clock Domain clocking/Core:GLA

Info: The maximum frequency of this clock domain is limited by the minimum pulse widths of pin jtag_out_rem[1]:CLK

SET Register to Register

No Path

END SET Register to Register

----------------------------------------------------

SET External Setup

Path 1
  From:                  gbt_dvalid
  To:                    jtag_out_rem_tri_enable:D
  Delay (ns):            2.893
  Slack (ns):
  Arrival (ns):          2.893
  Required (ns):
  Setup (ns):            0.616
  External Setup (ns):   -1.642

Path 2
  From:                  gbt_tms_p[0]
  To:                    jtag_out_loc[0]:D
  Delay (ns):            2.673
  Slack (ns):
  Arrival (ns):          2.673
  Required (ns):
  Setup (ns):            0.616
  External Setup (ns):   -1.874

Path 3
  From:                  gbt_tms_n[0]
  To:                    jtag_out_loc[0]:D
  Delay (ns):            2.659
  Slack (ns):
  Arrival (ns):          2.659
  Required (ns):
  Setup (ns):            0.616
  External Setup (ns):   -1.888

Path 4
  From:                  gbt_tck_p[1]
  To:                    jtag_out_rem[2]:D
  Delay (ns):            2.567
  Slack (ns):
  Arrival (ns):          2.567
  Required (ns):
  Setup (ns):            0.616
  External Setup (ns):   -1.968

Path 5
  From:                  gbt_tck_n[1]
  To:                    jtag_out_rem[2]:D
  Delay (ns):            2.559
  Slack (ns):
  Arrival (ns):          2.559
  Required (ns):
  Setup (ns):            0.616
  External Setup (ns):   -1.976


Expanded Path 1
  From: gbt_dvalid
  To: jtag_out_rem_tri_enable:D
  data required time                             N/C
  data arrival time                          -   2.893
  slack                                          N/C
  ________________________________________________________
  Data arrival time calculation
  0.000                        gbt_dvalid (r)
               +     0.000          net: gbt_dvalid
  0.000                        gbt_dvalid_pad/U0/U0:PAD (r)
               +     0.875          cell: ADLIB:IOPAD_IN
  0.875                        gbt_dvalid_pad/U0/U0:Y (r)
               +     0.000          net: gbt_dvalid_pad/U0/NET1
  0.875                        gbt_dvalid_pad/U0/U1:YIN (r)
               +     0.037          cell: ADLIB:IOIN_IB
  0.912                        gbt_dvalid_pad/U0/U1:Y (r)
               +     1.269          net: gbt_dvalid_c
  2.181                        HIEFFPLA_INST_1_723:A (r)
               +     0.422          cell: ADLIB:AND3
  2.603                        HIEFFPLA_INST_1_723:Y (r)
               +     0.290          net: HIEFFPLA_NET_1_1542
  2.893                        jtag_out_rem_tri_enable:D (r)
                                    
  2.893                        data arrival time
  ________________________________________________________
  Data required time calculation
  N/C                          clocking/Core:GLA
               +     0.000          Clock source
  N/C                          clocking/Core:GLA (f)
               +     4.552          Clock generation
  N/C
               +     0.599          net: GLA
  N/C                          jtag_out_rem_tri_enable:CLK (f)
               -     0.616          Library setup time: ADLIB:DFN0
  N/C                          jtag_out_rem_tri_enable:D


END SET External Setup

----------------------------------------------------

SET Clock to Output

Path 1
  From:                  jtag_out_rem_tri_enable:CLK
  To:                    proasic_tms[0]
  Delay (ns):            7.460
  Slack (ns):
  Arrival (ns):          12.611
  Required (ns):
  Clock to Out (ns):     12.611

Path 2
  From:                  jtag_out_rem_tri_enable:CLK
  To:                    proasic_tdi[1]
  Delay (ns):            7.296
  Slack (ns):
  Arrival (ns):          12.447
  Required (ns):
  Clock to Out (ns):     12.447

Path 3
  From:                  jtag_out_rem_tri_enable:CLK
  To:                    proasic_tck[0]
  Delay (ns):            6.964
  Slack (ns):
  Arrival (ns):          12.115
  Required (ns):
  Clock to Out (ns):     12.115

Path 4
  From:                  jtag_out_rem_tri_enable:CLK
  To:                    proasic_tdi[0]
  Delay (ns):            6.941
  Slack (ns):
  Arrival (ns):          12.092
  Required (ns):
  Clock to Out (ns):     12.092

Path 5
  From:                  jtag_out_rem_tri_enable:CLK
  To:                    proasic_rst[1]
  Delay (ns):            6.663
  Slack (ns):
  Arrival (ns):          11.814
  Required (ns):
  Clock to Out (ns):     11.814


Expanded Path 1
  From: jtag_out_rem_tri_enable:CLK
  To: proasic_tms[0]
  data required time                             N/C
  data arrival time                          -   12.611
  slack                                          N/C
  ________________________________________________________
  Data arrival time calculation
  0.000                        clocking/Core:GLA
               +     0.000          Clock source
  0.000                        clocking/Core:GLA (f)
               +     4.552          Clock generation
  4.552
               +     0.599          net: GLA
  5.151                        jtag_out_rem_tri_enable:CLK (f)
               +     0.565          cell: ADLIB:DFN0
  5.716                        jtag_out_rem_tri_enable:Q (f)
               +     3.721          net: jtag_out_rem_tri_enable
  9.437                        proasic_tms_pad[0]/U0/U1:E (f)
               +     0.360          cell: ADLIB:IOTRI_OB_EB
  9.797                        proasic_tms_pad[0]/U0/U1:EOUT (f)
               +     0.000          net: proasic_tms_pad[0]/U0/NET2
  9.797                        proasic_tms_pad[0]/U0/U0:E (f)
               +     2.814          cell: ADLIB:IOPAD_TRI
  12.611                       proasic_tms_pad[0]/U0/U0:PAD (f)
               +     0.000          net: proasic_tms_0[0]
  12.611                       proasic_tms[0] (f)
                                    
  12.611                       data arrival time
  ________________________________________________________
  Data required time calculation
  N/C                          clocking/Core:GLA
               +     0.000          Clock source
  N/C                          clocking/Core:GLA (r)
               +     4.552          Clock generation
  N/C
                                    
  N/C                          proasic_tms[0] (f)


END SET Clock to Output

----------------------------------------------------

SET Register to Asynchronous

No Path

END SET Register to Asynchronous

----------------------------------------------------

SET External Recovery

No Path

END SET External Recovery

----------------------------------------------------

SET Asynchronous to Register

No Path

END SET Asynchronous to Register

----------------------------------------------------

Clock Domain clocking/Core:GLB

SET Register to Register

Path 1
  From:                  fc1/counter[1]:CLK
  To:                    fc1/counter[3]:D
  Delay (ns):            3.997
  Slack (ns):            -0.374
  Arrival (ns):          9.840
  Required (ns):         9.466
  Setup (ns):            0.496
  Minimum Period (ns):   4.541

Path 2
  From:                  fc1/counter[0]:CLK
  To:                    fc1/counter[3]:D
  Delay (ns):            3.893
  Slack (ns):            -0.270
  Arrival (ns):          9.736
  Required (ns):         9.466
  Setup (ns):            0.496
  Minimum Period (ns):   4.437

Path 3
  From:                  fc0/counter[1]:CLK
  To:                    fc0/counter[3]:D
  Delay (ns):            3.826
  Slack (ns):            -0.169
  Arrival (ns):          9.624
  Required (ns):         9.455
  Setup (ns):            0.496
  Minimum Period (ns):   4.336

Path 4
  From:                  fc2/counter[1]:CLK
  To:                    fc2/counter[3]:D
  Delay (ns):            3.760
  Slack (ns):            -0.089
  Arrival (ns):          9.603
  Required (ns):         9.514
  Setup (ns):            0.496
  Minimum Period (ns):   4.256

Path 5
  From:                  fc0/counter[0]:CLK
  To:                    fc0/counter[3]:D
  Delay (ns):            3.735
  Slack (ns):            -0.087
  Arrival (ns):          9.542
  Required (ns):         9.455
  Setup (ns):            0.496
  Minimum Period (ns):   4.254


Expanded Path 1
  From: fc1/counter[1]:CLK
  To: fc1/counter[3]:D
  data required time                             9.466
  data arrival time                          -   9.840
  slack                                          -0.374
  ________________________________________________________
  Data arrival time calculation
  0.000                        clocking/Core:GLB
               +     0.000          Clock source
  0.000                        clocking/Core:GLB (r)
               +     5.201          Clock generation
  5.201
               +     0.642          net: GLB
  5.843                        fc1/counter[1]:CLK (r)
               +     0.637          cell: ADLIB:DFN1
  6.480                        fc1/counter[1]:Q (f)
               +     0.484          net: fc1/counter[1]
  6.964                        HIEFFPLA_INST_1_700:B (f)
               +     0.545          cell: ADLIB:AND2
  7.509                        HIEFFPLA_INST_1_700:Y (f)
               +     0.526          net: HIEFFPLA_NET_1_1552
  8.035                        HIEFFPLA_INST_1_702:A (f)
               +     0.857          cell: ADLIB:AX1C
  8.892                        HIEFFPLA_INST_1_702:Y (f)
               +     0.318          net: HIEFFPLA_NET_1_1551
  9.210                        HIEFFPLA_INST_1_693:C (f)
               +     0.350          cell: ADLIB:OA1A
  9.560                        HIEFFPLA_INST_1_693:Y (f)
               +     0.280          net: HIEFFPLA_NET_1_1555
  9.840                        fc1/counter[3]:D (f)
                                    
  9.840                        data arrival time
  ________________________________________________________
  Data required time calculation
  4.167                        clocking/Core:GLB
               +     0.000          Clock source
  4.167                        clocking/Core:GLB (r)
               +     5.201          Clock generation
  9.368
               +     0.594          net: GLB
  9.962                        fc1/counter[3]:CLK (r)
               -     0.496          Library setup time: ADLIB:DFN1
  9.466                        fc1/counter[3]:D
                                    
  9.466                        data required time


END SET Register to Register

----------------------------------------------------

SET External Setup

Path 1
  From:                  gbt_clk40
  To:                    fc1/counter[2]:D
  Delay (ns):            5.292
  Slack (ns):
  Arrival (ns):          5.292
  Required (ns):
  Setup (ns):            0.466
  External Setup (ns):   -0.085

Path 2
  From:                  gbt_clk40
  To:                    fc0/counter[2]:D
  Delay (ns):            5.152
  Slack (ns):
  Arrival (ns):          5.152
  Required (ns):
  Setup (ns):            0.466
  External Setup (ns):   -0.180

Path 3
  From:                  gbt_clk40
  To:                    fc0/counter[1]:D
  Delay (ns):            4.972
  Slack (ns):
  Arrival (ns):          4.972
  Required (ns):
  Setup (ns):            0.466
  External Setup (ns):   -0.360

Path 4
  From:                  gbt_clk40
  To:                    fc2/final_count[0]:E
  Delay (ns):            5.038
  Slack (ns):
  Arrival (ns):          5.038
  Required (ns):
  Setup (ns):            0.375
  External Setup (ns):   -0.430

Path 5
  From:                  gbt_clk40
  To:                    fc1/final_count[3]:E
  Delay (ns):            4.914
  Slack (ns):
  Arrival (ns):          4.914
  Required (ns):
  Setup (ns):            0.375
  External Setup (ns):   -0.554


Expanded Path 1
  From: gbt_clk40
  To: fc1/counter[2]:D
  data required time                             N/C
  data arrival time                          -   5.292
  slack                                          N/C
  ________________________________________________________
  Data arrival time calculation
  0.000                        gbt_clk40 (r)
               +     0.000          net: gbt_clk40
  0.000                        gbt_clk40_pad/U0/U0:PAD (r)
               +     0.875          cell: ADLIB:IOPAD_IN
  0.875                        gbt_clk40_pad/U0/U0:Y (r)
               +     0.000          net: gbt_clk40_pad/U0/NET1
  0.875                        gbt_clk40_pad/U0/U1:YIN (r)
               +     0.037          cell: ADLIB:IOIN_IB
  0.912                        gbt_clk40_pad/U0/U1:Y (r)
               +     1.809          net: gbt_clk40_c
  2.721                        HIEFFPLA_INST_1_675:B (r)
               +     0.445          cell: ADLIB:NOR2A
  3.166                        HIEFFPLA_INST_1_675:Y (f)
               +     1.381          net: HIEFFPLA_NET_1_1563
  4.547                        HIEFFPLA_INST_1_690:C (f)
               +     0.455          cell: ADLIB:XA1B
  5.002                        HIEFFPLA_INST_1_690:Y (r)
               +     0.290          net: HIEFFPLA_NET_1_1556
  5.292                        fc1/counter[2]:D (r)
                                    
  5.292                        data arrival time
  ________________________________________________________
  Data required time calculation
  N/C                          clocking/Core:GLB
               +     0.000          Clock source
  N/C                          clocking/Core:GLB (r)
               +     5.201          Clock generation
  N/C
               +     0.642          net: GLB
  N/C                          fc1/counter[2]:CLK (r)
               -     0.466          Library setup time: ADLIB:DFN1
  N/C                          fc1/counter[2]:D


END SET External Setup

----------------------------------------------------

SET Clock to Output

No Path

END SET Clock to Output

----------------------------------------------------

SET Register to Asynchronous

No Path

END SET Register to Asynchronous

----------------------------------------------------

SET External Recovery

No Path

END SET External Recovery

----------------------------------------------------

SET Asynchronous to Register

No Path

END SET Asynchronous to Register

----------------------------------------------------

Clock Domain gbt_clk40

Info: The maximum frequency of this clock domain is limited by the minimum pulse widths of pin gbt_clk40_pad/U0/U0:PAD

SET Register to Register

No Path

END SET Register to Register

----------------------------------------------------

SET External Setup

No Path

END SET External Setup

----------------------------------------------------

SET Clock to Output

No Path

END SET Clock to Output

----------------------------------------------------

SET Register to Asynchronous

No Path

END SET Register to Asynchronous

----------------------------------------------------

SET External Recovery

No Path

END SET External Recovery

----------------------------------------------------

SET Asynchronous to Register

No Path

END SET Asynchronous to Register

----------------------------------------------------

Clock Domain osc_clk40

Info: The maximum frequency of this clock domain is limited by the minimum pulse widths of pin osc_clk40_pad/U0/U0:PAD

SET Register to Register

No Path

END SET Register to Register

----------------------------------------------------

SET External Setup

No Path

END SET External Setup

----------------------------------------------------

SET Clock to Output

No Path

END SET Clock to Output

----------------------------------------------------

SET Register to Asynchronous

No Path

END SET Register to Asynchronous

----------------------------------------------------

SET External Recovery

No Path

END SET External Recovery

----------------------------------------------------

SET Asynchronous to Register

No Path

END SET Asynchronous to Register

----------------------------------------------------

Path set Pin to Pin

SET Input to Output

No Path

END SET Input to Output

----------------------------------------------------

Path set User Sets

