Timing Violation Report Max Delay Analysis

SmartTime Version v11.9 SP5
Microsemi Corporation - Microsemi Libero Software Release v11.9 SP5 (Version 11.9.5.5)
Date: Wed Apr 15 17:01:07 2020


Design: jtag_interface_top
Family: ProASIC3
Die: A3P250
Package: 144 FBGA
Temperature Range: -40 - 85 C
Voltage Range: 1.425 - 1.575 V
Speed Grade: -1
Design State: Post-Layout
Data source: Silicon verified
Min Operating Conditions: BEST - 1.575 V - -40 C
Max Operating Conditions: WORST - 1.425 V - 85 C
Using Enhanced Min Delay Analysis
Scenario for Timing Analysis: Primary


Path 1
  From:                  fc0/state:CLK
  To:                    fc2/counter[1]:D
  Delay (ns):            3.788
  Slack (ns):            -0.096
  Arrival (ns):          9.605
  Required (ns):         9.509

Path 2
  From:                  fc1/final_count[3]:CLK
  To:                    fc1/ck_ok:D
  Delay (ns):            3.683
  Slack (ns):            0.009
  Arrival (ns):          9.500
  Required (ns):         9.509

Path 3
  From:                  fc0/state:CLK
  To:                    fc0/counter[2]:D
  Delay (ns):            3.517
  Slack (ns):            0.163
  Arrival (ns):          9.334
  Required (ns):         9.497

Path 4
  From:                  fc0/state:CLK
  To:                    fc1/counter[1]:D
  Delay (ns):            3.501
  Slack (ns):            0.170
  Arrival (ns):          9.318
  Required (ns):         9.488

Path 5
  From:                  fc0/state:CLK
  To:                    fc1/counter[3]:D
  Delay (ns):            3.498
  Slack (ns):            0.181
  Arrival (ns):          9.315
  Required (ns):         9.496

Path 6
  From:                  fc1/final_count[2]:CLK
  To:                    fc1/ck_ok:D
  Delay (ns):            3.510
  Slack (ns):            0.212
  Arrival (ns):          9.327
  Required (ns):         9.539

Path 7
  From:                  fc0/state:CLK
  To:                    fc0/counter[1]:D
  Delay (ns):            3.460
  Slack (ns):            0.220
  Arrival (ns):          9.277
  Required (ns):         9.497

Path 8
  From:                  fc0/state:CLK
  To:                    fc2/counter[3]:D
  Delay (ns):            3.402
  Slack (ns):            0.244
  Arrival (ns):          9.219
  Required (ns):         9.463

Path 9
  From:                  fc2/counter[1]:CLK
  To:                    fc2/counter[3]:D
  Delay (ns):            3.376
  Slack (ns):            0.249
  Arrival (ns):          9.214
  Required (ns):         9.463

Path 10
  From:                  fc0/final_count[3]:CLK
  To:                    fc0/ck_ok:D
  Delay (ns):            3.426
  Slack (ns):            0.277
  Arrival (ns):          9.212
  Required (ns):         9.489

Path 11
  From:                  fc1/counter[1]:CLK
  To:                    fc1/counter[3]:D
  Delay (ns):            3.401
  Slack (ns):            0.278
  Arrival (ns):          9.218
  Required (ns):         9.496

Path 12
  From:                  fc2/counter[2]:CLK
  To:                    fc2/counter[3]:D
  Delay (ns):            3.342
  Slack (ns):            0.283
  Arrival (ns):          9.180
  Required (ns):         9.463

Path 13
  From:                  fc0/counter[1]:CLK
  To:                    fc0/counter[3]:D
  Delay (ns):            3.377
  Slack (ns):            0.286
  Arrival (ns):          9.203
  Required (ns):         9.489

Path 14
  From:                  fc2/final_count[3]:CLK
  To:                    fc2/ck_ok:D
  Delay (ns):            3.428
  Slack (ns):            0.289
  Arrival (ns):          9.220
  Required (ns):         9.509

Path 15
  From:                  fc0/counter[0]:CLK
  To:                    fc0/counter[3]:D
  Delay (ns):            3.369
  Slack (ns):            0.295
  Arrival (ns):          9.194
  Required (ns):         9.489

Path 16
  From:                  fc1/counter[2]:CLK
  To:                    fc1/counter[3]:D
  Delay (ns):            3.367
  Slack (ns):            0.312
  Arrival (ns):          9.184
  Required (ns):         9.496

Path 17
  From:                  fc0/counter[2]:CLK
  To:                    fc0/counter[3]:D
  Delay (ns):            3.344
  Slack (ns):            0.319
  Arrival (ns):          9.170
  Required (ns):         9.489

Path 18
  From:                  fc0/state:CLK
  To:                    fc0/counter[3]:D
  Delay (ns):            3.343
  Slack (ns):            0.329
  Arrival (ns):          9.160
  Required (ns):         9.489

Path 19
  From:                  fc0/state:CLK
  To:                    fc0/counter[0]:D
  Delay (ns):            3.365
  Slack (ns):            0.344
  Arrival (ns):          9.182
  Required (ns):         9.526

Path 20
  From:                  fc0/final_count[2]:CLK
  To:                    fc0/ck_ok:D
  Delay (ns):            3.335
  Slack (ns):            0.366
  Arrival (ns):          9.153
  Required (ns):         9.519

Path 21
  From:                  fc2/final_count[2]:CLK
  To:                    fc2/ck_ok:D
  Delay (ns):            3.335
  Slack (ns):            0.366
  Arrival (ns):          9.173
  Required (ns):         9.539

Path 22
  From:                  fc2/counter[0]:CLK
  To:                    fc2/counter[3]:D
  Delay (ns):            3.237
  Slack (ns):            0.388
  Arrival (ns):          9.075
  Required (ns):         9.463

Path 23
  From:                  fc1/counter[0]:CLK
  To:                    fc1/counter[3]:D
  Delay (ns):            3.247
  Slack (ns):            0.411
  Arrival (ns):          9.085
  Required (ns):         9.496

Path 24
  From:                  fc2/counter[0]:CLK
  To:                    fc2/counter[2]:D
  Delay (ns):            3.148
  Slack (ns):            0.553
  Arrival (ns):          8.986
  Required (ns):         9.539

Path 25
  From:                  fc0/counter[1]:CLK
  To:                    fc0/counter[2]:D
  Delay (ns):            3.113
  Slack (ns):            0.588
  Arrival (ns):          8.939
  Required (ns):         9.527

Path 26
  From:                  fc0/state:CLK
  To:                    fc0/final_count[0]:E
  Delay (ns):            3.201
  Slack (ns):            0.592
  Arrival (ns):          9.018
  Required (ns):         9.610

Path 27
  From:                  fc0/counter[1]:CLK
  To:                    fc0/counter[1]:D
  Delay (ns):            3.108
  Slack (ns):            0.593
  Arrival (ns):          8.934
  Required (ns):         9.527

Path 28
  From:                  fc1/counter[0]:CLK
  To:                    fc1/counter[2]:D
  Delay (ns):            3.084
  Slack (ns):            0.596
  Arrival (ns):          8.922
  Required (ns):         9.518

Path 29
  From:                  fc0/counter[0]:CLK
  To:                    fc0/counter[1]:D
  Delay (ns):            3.085
  Slack (ns):            0.617
  Arrival (ns):          8.910
  Required (ns):         9.527

Path 30
  From:                  fc2/counter[1]:CLK
  To:                    fc2/counter[1]:D
  Delay (ns):            3.075
  Slack (ns):            0.626
  Arrival (ns):          8.913
  Required (ns):         9.539

Path 31
  From:                  fc1/counter[1]:CLK
  To:                    fc1/counter[1]:D
  Delay (ns):            3.075
  Slack (ns):            0.626
  Arrival (ns):          8.892
  Required (ns):         9.518

Path 32
  From:                  fc0/counter[0]:CLK
  To:                    fc0/counter[2]:D
  Delay (ns):            3.043
  Slack (ns):            0.659
  Arrival (ns):          8.868
  Required (ns):         9.527

Path 33
  From:                  fc0/state:CLK
  To:                    fc1/final_count[3]:E
  Delay (ns):            3.123
  Slack (ns):            0.669
  Arrival (ns):          8.940
  Required (ns):         9.609

Path 34
  From:                  fc2/counter[1]:CLK
  To:                    fc2/counter[2]:D
  Delay (ns):            3.025
  Slack (ns):            0.676
  Arrival (ns):          8.863
  Required (ns):         9.539

Path 35
  From:                  fc1/counter[1]:CLK
  To:                    fc1/counter[2]:D
  Delay (ns):            3.025
  Slack (ns):            0.676
  Arrival (ns):          8.842
  Required (ns):         9.518

Path 36
  From:                  fc0/state:CLK
  To:                    fc0/final_count[1]:E
  Delay (ns):            3.087
  Slack (ns):            0.714
  Arrival (ns):          8.904
  Required (ns):         9.618

Path 37
  From:                  fc0/state:CLK
  To:                    fc1/final_count[1]:E
  Delay (ns):            3.088
  Slack (ns):            0.725
  Arrival (ns):          8.905
  Required (ns):         9.630

Path 38
  From:                  fc1/counter[3]:CLK
  To:                    fc1/counter[3]:D
  Delay (ns):            2.964
  Slack (ns):            0.737
  Arrival (ns):          8.789
  Required (ns):         9.526

Path 39
  From:                  fc0/counter[3]:CLK
  To:                    fc0/counter[3]:D
  Delay (ns):            2.946
  Slack (ns):            0.755
  Arrival (ns):          8.764
  Required (ns):         9.519

Path 40
  From:                  fc2/counter[3]:CLK
  To:                    fc2/counter[3]:D
  Delay (ns):            2.946
  Slack (ns):            0.755
  Arrival (ns):          8.738
  Required (ns):         9.493

Path 41
  From:                  fc2/final_count[0]:CLK
  To:                    fc2/ck_ok:D
  Delay (ns):            2.895
  Slack (ns):            0.806
  Arrival (ns):          8.733
  Required (ns):         9.539

Path 42
  From:                  fc1/counter[0]:CLK
  To:                    fc1/final_count[2]:D
  Delay (ns):            2.819
  Slack (ns):            0.831
  Arrival (ns):          8.657
  Required (ns):         9.488

Path 43
  From:                  fc2/counter[0]:CLK
  To:                    fc2/final_count[2]:D
  Delay (ns):            2.829
  Slack (ns):            0.842
  Arrival (ns):          8.667
  Required (ns):         9.509

Path 44
  From:                  fc0/state:CLK
  To:                    fc2/counter[0]:D
  Delay (ns):            2.831
  Slack (ns):            0.891
  Arrival (ns):          8.648
  Required (ns):         9.539

Path 45
  From:                  fc0/state:CLK
  To:                    fc1/counter[0]:D
  Delay (ns):            2.831
  Slack (ns):            0.891
  Arrival (ns):          8.648
  Required (ns):         9.539

Path 46
  From:                  fc0/state:CLK
  To:                    fc2/final_count[2]:E
  Delay (ns):            2.910
  Slack (ns):            0.903
  Arrival (ns):          8.727
  Required (ns):         9.630

Path 47
  From:                  fc1/counter[1]:CLK
  To:                    fc1/final_count[2]:D
  Delay (ns):            2.760
  Slack (ns):            0.911
  Arrival (ns):          8.577
  Required (ns):         9.488

Path 48
  From:                  fc2/counter[0]:CLK
  To:                    fc2/counter[1]:D
  Delay (ns):            2.778
  Slack (ns):            0.923
  Arrival (ns):          8.616
  Required (ns):         9.539

Path 49
  From:                  fc0/state:CLK
  To:                    fc1/final_count[2]:E
  Delay (ns):            2.867
  Slack (ns):            0.925
  Arrival (ns):          8.684
  Required (ns):         9.609

Path 50
  From:                  fc1/counter[0]:CLK
  To:                    fc1/counter[1]:D
  Delay (ns):            2.715
  Slack (ns):            0.965
  Arrival (ns):          8.553
  Required (ns):         9.518

Path 51
  From:                  fc2/counter[1]:CLK
  To:                    fc2/final_count[2]:D
  Delay (ns):            2.706
  Slack (ns):            0.965
  Arrival (ns):          8.544
  Required (ns):         9.509

Path 52
  From:                  fc0/final_count[1]:CLK
  To:                    fc0/ck_ok:D
  Delay (ns):            2.704
  Slack (ns):            0.989
  Arrival (ns):          8.530
  Required (ns):         9.519

Path 53
  From:                  fc2/counter[1]:CLK
  To:                    fc2/final_count[3]:D
  Delay (ns):            2.652
  Slack (ns):            1.003
  Arrival (ns):          8.490
  Required (ns):         9.493

Path 54
  From:                  fc0/state:CLK
  To:                    fc0/final_count[3]:E
  Delay (ns):            2.756
  Slack (ns):            1.005
  Arrival (ns):          8.573
  Required (ns):         9.578

Path 55
  From:                  fc0/state:CLK
  To:                    fc1/counter[2]:D
  Delay (ns):            2.666
  Slack (ns):            1.005
  Arrival (ns):          8.483
  Required (ns):         9.488

Path 56
  From:                  fc0/counter[1]:CLK
  To:                    fc0/final_count[3]:D
  Delay (ns):            2.653
  Slack (ns):            1.008
  Arrival (ns):          8.479
  Required (ns):         9.487

Path 57
  From:                  fc0/counter[0]:CLK
  To:                    fc0/final_count[3]:D
  Delay (ns):            2.645
  Slack (ns):            1.017
  Arrival (ns):          8.470
  Required (ns):         9.487

Path 58
  From:                  fc0/state:CLK
  To:                    fc2/counter[2]:D
  Delay (ns):            2.666
  Slack (ns):            1.026
  Arrival (ns):          8.483
  Required (ns):         9.509

Path 59
  From:                  fc0/state:CLK
  To:                    fc0/final_count[2]:E
  Delay (ns):            2.756
  Slack (ns):            1.037
  Arrival (ns):          8.573
  Required (ns):         9.610

Path 60
  From:                  fc2/counter[2]:CLK
  To:                    fc2/final_count[3]:D
  Delay (ns):            2.618
  Slack (ns):            1.037
  Arrival (ns):          8.456
  Required (ns):         9.493

Path 61
  From:                  fc0/counter[2]:CLK
  To:                    fc0/final_count[3]:D
  Delay (ns):            2.620
  Slack (ns):            1.041
  Arrival (ns):          8.446
  Required (ns):         9.487

Path 62
  From:                  fc1/counter[1]:CLK
  To:                    fc1/final_count[3]:D
  Delay (ns):            2.653
  Slack (ns):            1.048
  Arrival (ns):          8.470
  Required (ns):         9.518

Path 63
  From:                  fc0/state:CLK
  To:                    fc2/final_count[3]:E
  Delay (ns):            2.702
  Slack (ns):            1.065
  Arrival (ns):          8.519
  Required (ns):         9.584

Path 64
  From:                  fc0/counter[2]:CLK
  To:                    fc0/counter[2]:D
  Delay (ns):            2.624
  Slack (ns):            1.077
  Arrival (ns):          8.450
  Required (ns):         9.527

Path 65
  From:                  fc1/counter[2]:CLK
  To:                    fc1/final_count[3]:D
  Delay (ns):            2.619
  Slack (ns):            1.082
  Arrival (ns):          8.436
  Required (ns):         9.518

Path 66
  From:                  fc1/final_count[0]:CLK
  To:                    fc1/ck_ok:D
  Delay (ns):            2.586
  Slack (ns):            1.115
  Arrival (ns):          8.424
  Required (ns):         9.539

Path 67
  From:                  fc0/final_count[0]:CLK
  To:                    fc0/ck_ok:D
  Delay (ns):            2.586
  Slack (ns):            1.115
  Arrival (ns):          8.404
  Required (ns):         9.519

Path 68
  From:                  fc2/counter[0]:CLK
  To:                    fc2/final_count[3]:D
  Delay (ns):            2.513
  Slack (ns):            1.142
  Arrival (ns):          8.351
  Required (ns):         9.493

Path 69
  From:                  fc1/counter[2]:CLK
  To:                    fc1/counter[2]:D
  Delay (ns):            2.537
  Slack (ns):            1.164
  Arrival (ns):          8.354
  Required (ns):         9.518

Path 70
  From:                  fc2/counter[2]:CLK
  To:                    fc2/counter[2]:D
  Delay (ns):            2.537
  Slack (ns):            1.164
  Arrival (ns):          8.375
  Required (ns):         9.539

Path 71
  From:                  fc2/final_count[1]:CLK
  To:                    fc2/ck_ok:D
  Delay (ns):            2.526
  Slack (ns):            1.175
  Arrival (ns):          8.364
  Required (ns):         9.539

Path 72
  From:                  fc1/final_count[1]:CLK
  To:                    fc1/ck_ok:D
  Delay (ns):            2.526
  Slack (ns):            1.175
  Arrival (ns):          8.364
  Required (ns):         9.539

Path 73
  From:                  fc1/counter[0]:CLK
  To:                    fc1/final_count[3]:D
  Delay (ns):            2.499
  Slack (ns):            1.181
  Arrival (ns):          8.337
  Required (ns):         9.518

Path 74
  From:                  fc0/counter[0]:CLK
  To:                    fc0/final_count[0]:D
  Delay (ns):            2.509
  Slack (ns):            1.185
  Arrival (ns):          8.334
  Required (ns):         9.519

Path 75
  From:                  fc0/state:CLK
  To:                    fc1/final_count[0]:E
  Delay (ns):            2.584
  Slack (ns):            1.229
  Arrival (ns):          8.401
  Required (ns):         9.630

Path 76
  From:                  fc0/state:CLK
  To:                    fc2/final_count[0]:E
  Delay (ns):            2.578
  Slack (ns):            1.235
  Arrival (ns):          8.395
  Required (ns):         9.630

Path 77
  From:                  fc1/counter[2]:CLK
  To:                    fc1/final_count[2]:D
  Delay (ns):            2.314
  Slack (ns):            1.387
  Arrival (ns):          8.131
  Required (ns):         9.518

Path 78
  From:                  fc0/counter[1]:CLK
  To:                    fc0/final_count[2]:D
  Delay (ns):            2.262
  Slack (ns):            1.401
  Arrival (ns):          8.088
  Required (ns):         9.489

Path 79
  From:                  fc0/counter[1]:CLK
  To:                    fc0/final_count[1]:D
  Delay (ns):            2.267
  Slack (ns):            1.404
  Arrival (ns):          8.093
  Required (ns):         9.497

Path 80
  From:                  fc2/counter[1]:CLK
  To:                    fc2/final_count[1]:D
  Delay (ns):            2.243
  Slack (ns):            1.428
  Arrival (ns):          8.081
  Required (ns):         9.509

Path 81
  From:                  fc0/counter[0]:CLK
  To:                    fc0/final_count[1]:D
  Delay (ns):            2.244
  Slack (ns):            1.428
  Arrival (ns):          8.069
  Required (ns):         9.497

Path 82
  From:                  fc0/state:CLK
  To:                    fc2/final_count[1]:E
  Delay (ns):            2.383
  Slack (ns):            1.430
  Arrival (ns):          8.200
  Required (ns):         9.630

Path 83
  From:                  fc1/counter[1]:CLK
  To:                    fc1/final_count[1]:D
  Delay (ns):            2.243
  Slack (ns):            1.449
  Arrival (ns):          8.060
  Required (ns):         9.509

Path 84
  From:                  fc2/counter[2]:CLK
  To:                    fc2/final_count[2]:D
  Delay (ns):            2.218
  Slack (ns):            1.453
  Arrival (ns):          8.056
  Required (ns):         9.509

Path 85
  From:                  fc0/counter[0]:CLK
  To:                    fc0/final_count[2]:D
  Delay (ns):            2.192
  Slack (ns):            1.472
  Arrival (ns):          8.017
  Required (ns):         9.489

Path 86
  From:                  fc0/counter[3]:CLK
  To:                    fc0/final_count[3]:D
  Delay (ns):            2.114
  Slack (ns):            1.525
  Arrival (ns):          7.932
  Required (ns):         9.457

Path 87
  From:                  fc1/counter[3]:CLK
  To:                    fc1/final_count[3]:D
  Delay (ns):            2.112
  Slack (ns):            1.551
  Arrival (ns):          7.937
  Required (ns):         9.488

Path 88
  From:                  fc2/counter[3]:CLK
  To:                    fc2/final_count[3]:D
  Delay (ns):            2.114
  Slack (ns):            1.557
  Arrival (ns):          7.906
  Required (ns):         9.463

Path 89
  From:                  fc2/counter[0]:CLK
  To:                    fc2/final_count[1]:D
  Delay (ns):            1.946
  Slack (ns):            1.725
  Arrival (ns):          7.784
  Required (ns):         9.509

Path 90
  From:                  fc2/counter[0]:CLK
  To:                    fc2/final_count[0]:D
  Delay (ns):            1.914
  Slack (ns):            1.787
  Arrival (ns):          7.752
  Required (ns):         9.539

Path 91
  From:                  fc2/counter[0]:CLK
  To:                    fc2/counter[0]:D
  Delay (ns):            1.914
  Slack (ns):            1.787
  Arrival (ns):          7.752
  Required (ns):         9.539

Path 92
  From:                  fc1/counter[0]:CLK
  To:                    fc1/final_count[1]:D
  Delay (ns):            1.883
  Slack (ns):            1.788
  Arrival (ns):          7.721
  Required (ns):         9.509

Path 93
  From:                  fc1/counter[0]:CLK
  To:                    fc1/final_count[0]:D
  Delay (ns):            1.851
  Slack (ns):            1.850
  Arrival (ns):          7.689
  Required (ns):         9.539

Path 94
  From:                  fc1/counter[0]:CLK
  To:                    fc1/counter[0]:D
  Delay (ns):            1.851
  Slack (ns):            1.850
  Arrival (ns):          7.689
  Required (ns):         9.539

Path 95
  From:                  fc0/counter[2]:CLK
  To:                    fc0/final_count[2]:D
  Delay (ns):            1.773
  Slack (ns):            1.890
  Arrival (ns):          7.599
  Required (ns):         9.489

Path 96
  From:                  fc0/counter[0]:CLK
  To:                    fc0/counter[0]:D
  Delay (ns):            1.732
  Slack (ns):            1.969
  Arrival (ns):          7.557
  Required (ns):         9.526

