Timing Violation Report Max Delay Analysis

SmartTime Version v11.9 SP5
Microsemi Corporation - Microsemi Libero Software Release v11.9 SP5 (Version 11.9.5.5)
Date: Thu Apr 16 17:18:47 2020


Design: jtag_interface_top
Family: ProASIC3
Die: A3P250
Package: 144 FBGA
Temperature Range: -40 - 85 C
Voltage Range: 1.425 - 1.575 V
Speed Grade: -1
Design State: Post-Layout
Data source: Silicon verified
Min Operating Conditions: BEST - 1.575 V - -40 C
Max Operating Conditions: WORST - 1.425 V - 85 C
Using Enhanced Min Delay Analysis
Scenario for Timing Analysis: Primary


Path 1
  From:                  fc1/counter[0]:CLK
  To:                    fc1/final_count[3]:D
  Delay (ns):            4.048
  Slack (ns):            -0.347
  Arrival (ns):          9.862
  Required (ns):         9.515

Path 2
  From:                  fc0/counter[0]:CLK
  To:                    fc0/counter[3]:D
  Delay (ns):            4.003
  Slack (ns):            -0.312
  Arrival (ns):          9.845
  Required (ns):         9.533

Path 3
  From:                  fc2/counter[0]:CLK
  To:                    fc2/counter[3]:D
  Delay (ns):            3.904
  Slack (ns):            -0.214
  Arrival (ns):          9.736
  Required (ns):         9.522

Path 4
  From:                  fc1/counter[1]:CLK
  To:                    fc1/final_count[3]:D
  Delay (ns):            3.882
  Slack (ns):            -0.181
  Arrival (ns):          9.696
  Required (ns):         9.515

Path 5
  From:                  fc0/counter[1]:CLK
  To:                    fc0/counter[3]:D
  Delay (ns):            3.809
  Slack (ns):            -0.130
  Arrival (ns):          9.663
  Required (ns):         9.533

Path 6
  From:                  fc0/state:CLK
  To:                    fc0/counter[1]:D
  Delay (ns):            3.831
  Slack (ns):            -0.108
  Arrival (ns):          9.663
  Required (ns):         9.555

Path 7
  From:                  fc2/counter[1]:CLK
  To:                    fc2/counter[3]:D
  Delay (ns):            3.774
  Slack (ns):            -0.106
  Arrival (ns):          9.628
  Required (ns):         9.522

Path 8
  From:                  fc0/state:CLK
  To:                    fc1/counter[3]:D
  Delay (ns):            3.674
  Slack (ns):            0.009
  Arrival (ns):          9.506
  Required (ns):         9.515

Path 9
  From:                  fc1/counter[2]:CLK
  To:                    fc1/final_count[3]:D
  Delay (ns):            3.620
  Slack (ns):            0.063
  Arrival (ns):          9.452
  Required (ns):         9.515

Path 10
  From:                  fc1/counter[0]:CLK
  To:                    fc1/counter[3]:D
  Delay (ns):            3.564
  Slack (ns):            0.107
  Arrival (ns):          9.378
  Required (ns):         9.485

Path 11
  From:                  fc0/state:CLK
  To:                    fc1/counter[1]:D
  Delay (ns):            3.525
  Slack (ns):            0.158
  Arrival (ns):          9.357
  Required (ns):         9.515

Path 12
  From:                  fc1/counter[1]:CLK
  To:                    fc1/counter[3]:D
  Delay (ns):            3.400
  Slack (ns):            0.271
  Arrival (ns):          9.214
  Required (ns):         9.485

Path 13
  From:                  fc0/counter[0]:CLK
  To:                    fc0/final_count[3]:D
  Delay (ns):            3.405
  Slack (ns):            0.296
  Arrival (ns):          9.247
  Required (ns):         9.543

Path 14
  From:                  fc2/counter[2]:CLK
  To:                    fc2/counter[3]:D
  Delay (ns):            3.374
  Slack (ns):            0.306
  Arrival (ns):          9.216
  Required (ns):         9.522

Path 15
  From:                  fc0/counter[2]:CLK
  To:                    fc0/counter[3]:D
  Delay (ns):            3.401
  Slack (ns):            0.311
  Arrival (ns):          9.222
  Required (ns):         9.533

Path 16
  From:                  fc0/final_count[3]:CLK
  To:                    fc0/ck_ok:D
  Delay (ns):            3.292
  Slack (ns):            0.379
  Arrival (ns):          9.134
  Required (ns):         9.513

Path 17
  From:                  fc2/counter[0]:CLK
  To:                    fc2/final_count[3]:D
  Delay (ns):            3.306
  Slack (ns):            0.405
  Arrival (ns):          9.138
  Required (ns):         9.543

Path 18
  From:                  fc1/counter[0]:CLK
  To:                    fc1/counter[2]:D
  Delay (ns):            3.273
  Slack (ns):            0.416
  Arrival (ns):          9.087
  Required (ns):         9.503

Path 19
  From:                  fc1/counter[2]:CLK
  To:                    fc1/counter[3]:D
  Delay (ns):            3.186
  Slack (ns):            0.467
  Arrival (ns):          9.018
  Required (ns):         9.485

Path 20
  From:                  fc0/counter[1]:CLK
  To:                    fc0/final_count[3]:D
  Delay (ns):            3.211
  Slack (ns):            0.478
  Arrival (ns):          9.065
  Required (ns):         9.543

Path 21
  From:                  fc0/counter[0]:CLK
  To:                    fc0/counter[1]:D
  Delay (ns):            3.181
  Slack (ns):            0.502
  Arrival (ns):          9.023
  Required (ns):         9.525

Path 22
  From:                  fc2/counter[1]:CLK
  To:                    fc2/final_count[3]:D
  Delay (ns):            3.176
  Slack (ns):            0.513
  Arrival (ns):          9.030
  Required (ns):         9.543

Path 23
  From:                  fc1/counter[1]:CLK
  To:                    fc1/counter[2]:D
  Delay (ns):            3.170
  Slack (ns):            0.519
  Arrival (ns):          8.984
  Required (ns):         9.503

Path 24
  From:                  fc0/state:CLK
  To:                    fc1/final_count[0]:E
  Delay (ns):            3.226
  Slack (ns):            0.548
  Arrival (ns):          9.058
  Required (ns):         9.606

Path 25
  From:                  fc2/counter[0]:CLK
  To:                    fc2/final_count[2]:D
  Delay (ns):            3.053
  Slack (ns):            0.581
  Arrival (ns):          8.885
  Required (ns):         9.466

Path 26
  From:                  fc0/state:CLK
  To:                    fc0/counter[2]:D
  Delay (ns):            3.095
  Slack (ns):            0.595
  Arrival (ns):          8.927
  Required (ns):         9.522

Path 27
  From:                  fc0/state:CLK
  To:                    fc2/counter[3]:D
  Delay (ns):            3.095
  Slack (ns):            0.595
  Arrival (ns):          8.927
  Required (ns):         9.522

Path 28
  From:                  fc2/counter[1]:CLK
  To:                    fc2/final_count[2]:D
  Delay (ns):            2.988
  Slack (ns):            0.624
  Arrival (ns):          8.842
  Required (ns):         9.466

Path 29
  From:                  fc0/state:CLK
  To:                    fc0/counter[3]:D
  Delay (ns):            3.058
  Slack (ns):            0.643
  Arrival (ns):          8.890
  Required (ns):         9.533

Path 30
  From:                  fc2/counter[0]:CLK
  To:                    fc2/counter[2]:D
  Delay (ns):            3.031
  Slack (ns):            0.650
  Arrival (ns):          8.863
  Required (ns):         9.513

Path 31
  From:                  fc0/counter[0]:CLK
  To:                    fc0/counter[2]:D
  Delay (ns):            2.999
  Slack (ns):            0.651
  Arrival (ns):          8.841
  Required (ns):         9.492

Path 32
  From:                  fc0/state:CLK
  To:                    fc2/final_count[2]:E
  Delay (ns):            3.093
  Slack (ns):            0.662
  Arrival (ns):          8.925
  Required (ns):         9.587

Path 33
  From:                  fc0/counter[1]:CLK
  To:                    fc0/counter[2]:D
  Delay (ns):            2.976
  Slack (ns):            0.662
  Arrival (ns):          8.830
  Required (ns):         9.492

Path 34
  From:                  fc0/state:CLK
  To:                    fc2/counter[0]:D
  Delay (ns):            3.012
  Slack (ns):            0.689
  Arrival (ns):          8.844
  Required (ns):         9.533

Path 35
  From:                  fc0/state:CLK
  To:                    fc1/counter[0]:D
  Delay (ns):            2.993
  Slack (ns):            0.690
  Arrival (ns):          8.825
  Required (ns):         9.515

Path 36
  From:                  fc0/state:CLK
  To:                    fc2/final_count[3]:E
  Delay (ns):            3.110
  Slack (ns):            0.692
  Arrival (ns):          8.942
  Required (ns):         9.634

Path 37
  From:                  fc2/counter[1]:CLK
  To:                    fc2/counter[2]:D
  Delay (ns):            2.966
  Slack (ns):            0.693
  Arrival (ns):          8.820
  Required (ns):         9.513

Path 38
  From:                  fc0/state:CLK
  To:                    fc2/final_count[0]:E
  Delay (ns):            3.095
  Slack (ns):            0.719
  Arrival (ns):          8.927
  Required (ns):         9.646

Path 39
  From:                  fc0/state:CLK
  To:                    fc0/final_count[3]:E
  Delay (ns):            3.061
  Slack (ns):            0.741
  Arrival (ns):          8.893
  Required (ns):         9.634

Path 40
  From:                  fc0/state:CLK
  To:                    fc1/final_count[3]:E
  Delay (ns):            2.929
  Slack (ns):            0.845
  Arrival (ns):          8.761
  Required (ns):         9.606

Path 41
  From:                  fc2/final_count[0]:CLK
  To:                    fc2/ck_ok:D
  Delay (ns):            2.733
  Slack (ns):            0.914
  Arrival (ns):          8.587
  Required (ns):         9.501

Path 42
  From:                  fc0/state:CLK
  To:                    fc2/counter[1]:D
  Delay (ns):            2.807
  Slack (ns):            0.916
  Arrival (ns):          8.639
  Required (ns):         9.555

Path 43
  From:                  fc0/counter[2]:CLK
  To:                    fc0/final_count[3]:D
  Delay (ns):            2.803
  Slack (ns):            0.919
  Arrival (ns):          8.624
  Required (ns):         9.543

Path 44
  From:                  fc2/counter[2]:CLK
  To:                    fc2/final_count[3]:D
  Delay (ns):            2.776
  Slack (ns):            0.925
  Arrival (ns):          8.618
  Required (ns):         9.543

Path 45
  From:                  fc0/state:CLK
  To:                    fc2/final_count[1]:E
  Delay (ns):            2.796
  Slack (ns):            0.946
  Arrival (ns):          8.628
  Required (ns):         9.574

Path 46
  From:                  fc0/state:CLK
  To:                    fc0/final_count[1]:E
  Delay (ns):            2.844
  Slack (ns):            0.948
  Arrival (ns):          8.676
  Required (ns):         9.624

Path 47
  From:                  fc0/final_count[0]:CLK
  To:                    fc0/ck_ok:D
  Delay (ns):            2.700
  Slack (ns):            0.989
  Arrival (ns):          8.554
  Required (ns):         9.543

Path 48
  From:                  fc1/counter[0]:CLK
  To:                    fc1/final_count[2]:D
  Delay (ns):            2.657
  Slack (ns):            1.032
  Arrival (ns):          8.471
  Required (ns):         9.503

Path 49
  From:                  fc0/state:CLK
  To:                    fc0/counter[0]:D
  Delay (ns):            2.668
  Slack (ns):            1.043
  Arrival (ns):          8.500
  Required (ns):         9.543

Path 50
  From:                  fc1/final_count[0]:CLK
  To:                    fc1/ck_ok:D
  Delay (ns):            2.630
  Slack (ns):            1.071
  Arrival (ns):          8.444
  Required (ns):         9.515

Path 51
  From:                  fc1/counter[1]:CLK
  To:                    fc1/final_count[2]:D
  Delay (ns):            2.554
  Slack (ns):            1.135
  Arrival (ns):          8.368
  Required (ns):         9.503

Path 52
  From:                  fc2/final_count[1]:CLK
  To:                    fc2/ck_ok:D
  Delay (ns):            2.541
  Slack (ns):            1.148
  Arrival (ns):          8.323
  Required (ns):         9.471

Path 53
  From:                  fc0/state:CLK
  To:                    fc0/final_count[2]:E
  Delay (ns):            2.630
  Slack (ns):            1.151
  Arrival (ns):          8.462
  Required (ns):         9.613

Path 54
  From:                  fc0/final_count[1]:CLK
  To:                    fc0/ck_ok:D
  Delay (ns):            2.510
  Slack (ns):            1.171
  Arrival (ns):          8.342
  Required (ns):         9.513

Path 55
  From:                  fc2/counter[2]:CLK
  To:                    fc2/final_count[2]:D
  Delay (ns):            2.470
  Slack (ns):            1.184
  Arrival (ns):          8.312
  Required (ns):         9.496

Path 56
  From:                  fc2/final_count[3]:CLK
  To:                    fc2/ck_ok:D
  Delay (ns):            2.429
  Slack (ns):            1.200
  Arrival (ns):          8.271
  Required (ns):         9.471

Path 57
  From:                  fc1/final_count[1]:CLK
  To:                    fc1/ck_ok:D
  Delay (ns):            2.439
  Slack (ns):            1.232
  Arrival (ns):          8.253
  Required (ns):         9.485

Path 58
  From:                  fc0/counter[0]:CLK
  To:                    fc0/final_count[2]:D
  Delay (ns):            2.383
  Slack (ns):            1.267
  Arrival (ns):          8.225
  Required (ns):         9.492

Path 59
  From:                  fc2/counter[2]:CLK
  To:                    fc2/counter[2]:D
  Delay (ns):            2.402
  Slack (ns):            1.269
  Arrival (ns):          8.244
  Required (ns):         9.513

Path 60
  From:                  fc2/counter[0]:CLK
  To:                    fc2/final_count[1]:D
  Delay (ns):            2.348
  Slack (ns):            1.273
  Arrival (ns):          8.180
  Required (ns):         9.453

Path 61
  From:                  fc0/counter[2]:CLK
  To:                    fc0/counter[2]:D
  Delay (ns):            2.398
  Slack (ns):            1.273
  Arrival (ns):          8.219
  Required (ns):         9.492

Path 62
  From:                  fc0/counter[1]:CLK
  To:                    fc0/final_count[2]:D
  Delay (ns):            2.360
  Slack (ns):            1.278
  Arrival (ns):          8.214
  Required (ns):         9.492

Path 63
  From:                  fc1/counter[2]:CLK
  To:                    fc1/counter[2]:D
  Delay (ns):            2.368
  Slack (ns):            1.303
  Arrival (ns):          8.200
  Required (ns):         9.503

Path 64
  From:                  fc0/counter[3]:CLK
  To:                    fc0/counter[3]:D
  Delay (ns):            2.343
  Slack (ns):            1.328
  Arrival (ns):          8.175
  Required (ns):         9.503

Path 65
  From:                  fc0/counter[0]:CLK
  To:                    fc0/final_count[1]:D
  Delay (ns):            2.331
  Slack (ns):            1.330
  Arrival (ns):          8.173
  Required (ns):         9.503

Path 66
  From:                  fc1/final_count[3]:CLK
  To:                    fc1/ck_ok:D
  Delay (ns):            2.329
  Slack (ns):            1.342
  Arrival (ns):          8.143
  Required (ns):         9.485

Path 67
  From:                  fc2/counter[3]:CLK
  To:                    fc2/counter[3]:D
  Delay (ns):            2.318
  Slack (ns):            1.353
  Arrival (ns):          8.139
  Required (ns):         9.492

Path 68
  From:                  fc1/counter[0]:CLK
  To:                    fc1/counter[1]:D
  Delay (ns):            2.283
  Slack (ns):            1.388
  Arrival (ns):          8.097
  Required (ns):         9.485

Path 69
  From:                  fc1/counter[0]:CLK
  To:                    fc1/final_count[1]:D
  Delay (ns):            2.254
  Slack (ns):            1.417
  Arrival (ns):          8.068
  Required (ns):         9.485

Path 70
  From:                  fc0/state:CLK
  To:                    fc1/final_count[1]:E
  Delay (ns):            2.328
  Slack (ns):            1.446
  Arrival (ns):          8.160
  Required (ns):         9.606

Path 71
  From:                  fc0/state:CLK
  To:                    fc2/counter[2]:D
  Delay (ns):            2.251
  Slack (ns):            1.460
  Arrival (ns):          8.083
  Required (ns):         9.543

Path 72
  From:                  fc0/state:CLK
  To:                    fc1/counter[2]:D
  Delay (ns):            2.199
  Slack (ns):            1.502
  Arrival (ns):          8.031
  Required (ns):         9.533

Path 73
  From:                  fc0/counter[1]:CLK
  To:                    fc0/counter[1]:D
  Delay (ns):            2.160
  Slack (ns):            1.511
  Arrival (ns):          8.014
  Required (ns):         9.525

Path 74
  From:                  fc2/counter[1]:CLK
  To:                    fc2/counter[1]:D
  Delay (ns):            2.149
  Slack (ns):            1.522
  Arrival (ns):          8.003
  Required (ns):         9.525

Path 75
  From:                  fc1/counter[1]:CLK
  To:                    fc1/final_count[1]:D
  Delay (ns):            2.086
  Slack (ns):            1.585
  Arrival (ns):          7.900
  Required (ns):         9.485

Path 76
  From:                  fc2/counter[0]:CLK
  To:                    fc2/counter[1]:D
  Delay (ns):            2.039
  Slack (ns):            1.654
  Arrival (ns):          7.871
  Required (ns):         9.525

Path 77
  From:                  fc1/counter[1]:CLK
  To:                    fc1/counter[1]:D
  Delay (ns):            1.982
  Slack (ns):            1.689
  Arrival (ns):          7.796
  Required (ns):         9.485

Path 78
  From:                  fc1/counter[3]:CLK
  To:                    fc1/counter[3]:D
  Delay (ns):            1.977
  Slack (ns):            1.694
  Arrival (ns):          7.791
  Required (ns):         9.485

Path 79
  From:                  fc2/counter[1]:CLK
  To:                    fc2/final_count[1]:D
  Delay (ns):            1.871
  Slack (ns):            1.728
  Arrival (ns):          7.725
  Required (ns):         9.453

Path 80
  From:                  fc0/state:CLK
  To:                    fc1/final_count[2]:E
  Delay (ns):            2.038
  Slack (ns):            1.754
  Arrival (ns):          7.870
  Required (ns):         9.624

Path 81
  From:                  fc0/state:CLK
  To:                    fc0/final_count[0]:E
  Delay (ns):            2.056
  Slack (ns):            1.758
  Arrival (ns):          7.888
  Required (ns):         9.646

Path 82
  From:                  fc0/counter[1]:CLK
  To:                    fc0/final_count[1]:D
  Delay (ns):            1.880
  Slack (ns):            1.769
  Arrival (ns):          7.734
  Required (ns):         9.503

Path 83
  From:                  fc2/counter[0]:CLK
  To:                    fc2/counter[0]:D
  Delay (ns):            1.829
  Slack (ns):            1.872
  Arrival (ns):          7.661
  Required (ns):         9.533

Path 84
  From:                  fc0/counter[0]:CLK
  To:                    fc0/counter[0]:D
  Delay (ns):            1.824
  Slack (ns):            1.877
  Arrival (ns):          7.666
  Required (ns):         9.543

Path 85
  From:                  fc0/counter[2]:CLK
  To:                    fc0/final_count[2]:D
  Delay (ns):            1.782
  Slack (ns):            1.889
  Arrival (ns):          7.603
  Required (ns):         9.492

Path 86
  From:                  fc2/final_count[2]:CLK
  To:                    fc2/ck_ok:D
  Delay (ns):            1.806
  Slack (ns):            1.900
  Arrival (ns):          7.601
  Required (ns):         9.501

Path 87
  From:                  fc1/counter[2]:CLK
  To:                    fc1/final_count[2]:D
  Delay (ns):            1.752
  Slack (ns):            1.919
  Arrival (ns):          7.584
  Required (ns):         9.503

Path 88
  From:                  fc0/counter[3]:CLK
  To:                    fc0/final_count[3]:D
  Delay (ns):            1.751
  Slack (ns):            1.930
  Arrival (ns):          7.583
  Required (ns):         9.513

Path 89
  From:                  fc0/final_count[2]:CLK
  To:                    fc0/ck_ok:D
  Delay (ns):            1.788
  Slack (ns):            1.934
  Arrival (ns):          7.609
  Required (ns):         9.543

Path 90
  From:                  fc1/final_count[2]:CLK
  To:                    fc1/ck_ok:D
  Delay (ns):            1.743
  Slack (ns):            1.940
  Arrival (ns):          7.575
  Required (ns):         9.515

Path 91
  From:                  fc1/counter[0]:CLK
  To:                    fc1/counter[0]:D
  Delay (ns):            1.738
  Slack (ns):            1.963
  Arrival (ns):          7.552
  Required (ns):         9.515

Path 92
  From:                  fc1/counter[3]:CLK
  To:                    fc1/final_count[3]:D
  Delay (ns):            1.705
  Slack (ns):            1.966
  Arrival (ns):          7.519
  Required (ns):         9.485

Path 93
  From:                  fc2/counter[3]:CLK
  To:                    fc2/final_count[3]:D
  Delay (ns):            1.726
  Slack (ns):            1.966
  Arrival (ns):          7.547
  Required (ns):         9.513

Path 94
  From:                  fc2/counter[0]:CLK
  To:                    fc2/final_count[0]:D
  Delay (ns):            1.180
  Slack (ns):            2.543
  Arrival (ns):          7.012
  Required (ns):         9.555

Path 95
  From:                  fc0/counter[0]:CLK
  To:                    fc0/final_count[0]:D
  Delay (ns):            1.154
  Slack (ns):            2.559
  Arrival (ns):          6.996
  Required (ns):         9.555

Path 96
  From:                  fc1/counter[0]:CLK
  To:                    fc1/final_count[0]:D
  Delay (ns):            1.081
  Slack (ns):            2.620
  Arrival (ns):          6.895
  Required (ns):         9.515

