Timing Violation Report Min Delay Analysis

SmartTime Version v11.9 SP5
Microsemi Corporation - Microsemi Libero Software Release v11.9 SP5 (Version 11.9.5.5)
Date: Thu Apr 16 17:29:25 2020


Design: jtag_interface_top
Family: ProASIC3
Die: A3P250
Package: 144 FBGA
Temperature Range: -40 - 85 C
Voltage Range: 1.425 - 1.575 V
Speed Grade: -1
Design State: Post-Layout
Data source: Silicon verified
Min Operating Conditions: BEST - 1.575 V - -40 C
Max Operating Conditions: WORST - 1.425 V - 85 C
Using Enhanced Min Delay Analysis
Scenario for Timing Analysis: Primary


Path 1
  From:                  fc2/counter[0]:CLK
  To:                    fc2/final_count[0]:D
  Delay (ns):            0.351
  Slack (ns):            0.346
  Arrival (ns):          3.025
  Required (ns):         2.679

Path 2
  From:                  fc1/counter[0]:CLK
  To:                    fc1/final_count[0]:D
  Delay (ns):            0.378
  Slack (ns):            0.356
  Arrival (ns):          3.052
  Required (ns):         2.696

Path 3
  From:                  fc0/counter[0]:CLK
  To:                    fc0/final_count[0]:D
  Delay (ns):            0.429
  Slack (ns):            0.410
  Arrival (ns):          3.089
  Required (ns):         2.679

Path 4
  From:                  fc1/final_count[2]:CLK
  To:                    fc1/ck_ok:D
  Delay (ns):            0.533
  Slack (ns):            0.511
  Arrival (ns):          3.207
  Required (ns):         2.696

Path 5
  From:                  fc0/final_count[2]:CLK
  To:                    fc0/ck_ok:D
  Delay (ns):            0.533
  Slack (ns):            0.528
  Arrival (ns):          3.193
  Required (ns):         2.665

Path 6
  From:                  fc2/counter[3]:CLK
  To:                    fc2/final_count[3]:D
  Delay (ns):            0.574
  Slack (ns):            0.529
  Arrival (ns):          3.225
  Required (ns):         2.696

Path 7
  From:                  fc2/counter[2]:CLK
  To:                    fc2/final_count[2]:D
  Delay (ns):            0.595
  Slack (ns):            0.550
  Arrival (ns):          3.246
  Required (ns):         2.696

Path 8
  From:                  fc1/counter[3]:CLK
  To:                    fc1/final_count[3]:D
  Delay (ns):            0.571
  Slack (ns):            0.554
  Arrival (ns):          3.250
  Required (ns):         2.696

Path 9
  From:                  fc2/counter[0]:CLK
  To:                    fc2/final_count[1]:D
  Delay (ns):            0.592
  Slack (ns):            0.570
  Arrival (ns):          3.266
  Required (ns):         2.696

Path 10
  From:                  fc0/counter[2]:CLK
  To:                    fc0/final_count[2]:D
  Delay (ns):            0.590
  Slack (ns):            0.571
  Arrival (ns):          3.250
  Required (ns):         2.679

Path 11
  From:                  fc2/counter[0]:CLK
  To:                    fc2/counter[0]:D
  Delay (ns):            0.576
  Slack (ns):            0.576
  Arrival (ns):          3.250
  Required (ns):         2.674

Path 12
  From:                  fc1/counter[0]:CLK
  To:                    fc1/final_count[1]:D
  Delay (ns):            0.611
  Slack (ns):            0.589
  Arrival (ns):          3.285
  Required (ns):         2.696

Path 13
  From:                  fc1/counter[0]:CLK
  To:                    fc1/counter[0]:D
  Delay (ns):            0.595
  Slack (ns):            0.595
  Arrival (ns):          3.269
  Required (ns):         2.674

Path 14
  From:                  fc0/counter[1]:CLK
  To:                    fc0/counter[1]:D
  Delay (ns):            0.633
  Slack (ns):            0.633
  Arrival (ns):          3.293
  Required (ns):         2.660

Path 15
  From:                  fc0/counter[0]:CLK
  To:                    fc0/final_count[1]:D
  Delay (ns):            0.657
  Slack (ns):            0.638
  Arrival (ns):          3.317
  Required (ns):         2.679

Path 16
  From:                  fc0/counter[0]:CLK
  To:                    fc0/counter[0]:D
  Delay (ns):            0.641
  Slack (ns):            0.641
  Arrival (ns):          3.301
  Required (ns):         2.660

Path 17
  From:                  fc0/counter[3]:CLK
  To:                    fc0/final_count[3]:D
  Delay (ns):            0.671
  Slack (ns):            0.654
  Arrival (ns):          3.319
  Required (ns):         2.665

Path 18
  From:                  fc2/counter[1]:CLK
  To:                    fc2/final_count[1]:D
  Delay (ns):            0.696
  Slack (ns):            0.674
  Arrival (ns):          3.370
  Required (ns):         2.696

Path 19
  From:                  fc1/counter[1]:CLK
  To:                    fc1/final_count[1]:D
  Delay (ns):            0.697
  Slack (ns):            0.680
  Arrival (ns):          3.376
  Required (ns):         2.696

Path 20
  From:                  fc0/counter[1]:CLK
  To:                    fc0/final_count[2]:D
  Delay (ns):            0.704
  Slack (ns):            0.685
  Arrival (ns):          3.364
  Required (ns):         2.679

Path 21
  From:                  fc1/counter[1]:CLK
  To:                    fc1/final_count[2]:D
  Delay (ns):            0.710
  Slack (ns):            0.693
  Arrival (ns):          3.389
  Required (ns):         2.696

Path 22
  From:                  fc2/counter[1]:CLK
  To:                    fc2/final_count[2]:D
  Delay (ns):            0.716
  Slack (ns):            0.694
  Arrival (ns):          3.390
  Required (ns):         2.696

Path 23
  From:                  fc0/state:CLK
  To:                    fc1/counter[3]:D
  Delay (ns):            0.749
  Slack (ns):            0.721
  Arrival (ns):          3.423
  Required (ns):         2.702

Path 24
  From:                  fc0/state:CLK
  To:                    fc2/counter[1]:D
  Delay (ns):            0.744
  Slack (ns):            0.722
  Arrival (ns):          3.418
  Required (ns):         2.696

Path 25
  From:                  fc0/state:CLK
  To:                    fc2/counter[0]:D
  Delay (ns):            0.745
  Slack (ns):            0.723
  Arrival (ns):          3.419
  Required (ns):         2.696

Path 26
  From:                  fc0/state:CLK
  To:                    fc1/final_count[3]:E
  Delay (ns):            0.750
  Slack (ns):            0.728
  Arrival (ns):          3.424
  Required (ns):         2.696

Path 27
  From:                  fc0/state:CLK
  To:                    fc2/final_count[2]:E
  Delay (ns):            0.750
  Slack (ns):            0.728
  Arrival (ns):          3.424
  Required (ns):         2.696

Path 28
  From:                  fc0/counter[0]:CLK
  To:                    fc0/counter[1]:D
  Delay (ns):            0.755
  Slack (ns):            0.736
  Arrival (ns):          3.415
  Required (ns):         2.679

Path 29
  From:                  fc0/state:CLK
  To:                    fc0/counter[0]:D
  Delay (ns):            0.745
  Slack (ns):            0.740
  Arrival (ns):          3.419
  Required (ns):         2.679

Path 30
  From:                  fc1/counter[2]:CLK
  To:                    fc1/final_count[3]:D
  Delay (ns):            0.793
  Slack (ns):            0.748
  Arrival (ns):          3.444
  Required (ns):         2.696

Path 31
  From:                  fc2/final_count[2]:CLK
  To:                    fc2/ck_ok:D
  Delay (ns):            0.754
  Slack (ns):            0.749
  Arrival (ns):          3.428
  Required (ns):         2.679

Path 32
  From:                  fc0/counter[0]:CLK
  To:                    fc0/final_count[2]:D
  Delay (ns):            0.776
  Slack (ns):            0.757
  Arrival (ns):          3.436
  Required (ns):         2.679

Path 33
  From:                  fc1/counter[2]:CLK
  To:                    fc1/final_count[2]:D
  Delay (ns):            0.808
  Slack (ns):            0.763
  Arrival (ns):          3.459
  Required (ns):         2.696

Path 34
  From:                  fc1/counter[3]:CLK
  To:                    fc1/counter[3]:D
  Delay (ns):            0.809
  Slack (ns):            0.809
  Arrival (ns):          3.488
  Required (ns):         2.679

Path 35
  From:                  fc2/counter[3]:CLK
  To:                    fc2/counter[3]:D
  Delay (ns):            0.816
  Slack (ns):            0.816
  Arrival (ns):          3.467
  Required (ns):         2.651

Path 36
  From:                  fc0/state:CLK
  To:                    fc2/counter[2]:D
  Delay (ns):            0.810
  Slack (ns):            0.816
  Arrival (ns):          3.484
  Required (ns):         2.668

Path 37
  From:                  fc0/counter[2]:CLK
  To:                    fc0/counter[2]:D
  Delay (ns):            0.824
  Slack (ns):            0.824
  Arrival (ns):          3.484
  Required (ns):         2.660

Path 38
  From:                  fc1/counter[0]:CLK
  To:                    fc1/final_count[2]:D
  Delay (ns):            0.857
  Slack (ns):            0.835
  Arrival (ns):          3.531
  Required (ns):         2.696

Path 39
  From:                  fc2/counter[2]:CLK
  To:                    fc2/counter[2]:D
  Delay (ns):            0.837
  Slack (ns):            0.837
  Arrival (ns):          3.488
  Required (ns):         2.651

Path 40
  From:                  fc0/final_count[3]:CLK
  To:                    fc0/ck_ok:D
  Delay (ns):            0.856
  Slack (ns):            0.839
  Arrival (ns):          3.504
  Required (ns):         2.665

Path 41
  From:                  fc2/counter[0]:CLK
  To:                    fc2/final_count[3]:D
  Delay (ns):            0.878
  Slack (ns):            0.856
  Arrival (ns):          3.552
  Required (ns):         2.696

Path 42
  From:                  fc2/counter[0]:CLK
  To:                    fc2/final_count[2]:D
  Delay (ns):            0.878
  Slack (ns):            0.856
  Arrival (ns):          3.552
  Required (ns):         2.696

Path 43
  From:                  fc1/final_count[0]:CLK
  To:                    fc1/ck_ok:D
  Delay (ns):            0.906
  Slack (ns):            0.884
  Arrival (ns):          3.580
  Required (ns):         2.696

Path 44
  From:                  fc1/final_count[1]:CLK
  To:                    fc1/ck_ok:D
  Delay (ns):            0.908
  Slack (ns):            0.886
  Arrival (ns):          3.582
  Required (ns):         2.696

Path 45
  From:                  fc2/final_count[0]:CLK
  To:                    fc2/ck_ok:D
  Delay (ns):            0.906
  Slack (ns):            0.887
  Arrival (ns):          3.566
  Required (ns):         2.679

Path 46
  From:                  fc0/final_count[0]:CLK
  To:                    fc0/ck_ok:D
  Delay (ns):            0.906
  Slack (ns):            0.901
  Arrival (ns):          3.566
  Required (ns):         2.665

Path 47
  From:                  fc2/final_count[1]:CLK
  To:                    fc2/ck_ok:D
  Delay (ns):            0.906
  Slack (ns):            0.901
  Arrival (ns):          3.580
  Required (ns):         2.679

Path 48
  From:                  fc0/final_count[1]:CLK
  To:                    fc0/ck_ok:D
  Delay (ns):            0.907
  Slack (ns):            0.902
  Arrival (ns):          3.567
  Required (ns):         2.665

Path 49
  From:                  fc0/counter[3]:CLK
  To:                    fc0/counter[3]:D
  Delay (ns):            0.904
  Slack (ns):            0.904
  Arrival (ns):          3.552
  Required (ns):         2.648

Path 50
  From:                  fc1/counter[0]:CLK
  To:                    fc1/counter[1]:D
  Delay (ns):            0.939
  Slack (ns):            0.911
  Arrival (ns):          3.613
  Required (ns):         2.702

Path 51
  From:                  fc0/counter[0]:CLK
  To:                    fc0/final_count[3]:D
  Delay (ns):            0.923
  Slack (ns):            0.918
  Arrival (ns):          3.583
  Required (ns):         2.665

Path 52
  From:                  fc0/counter[1]:CLK
  To:                    fc0/counter[2]:D
  Delay (ns):            0.938
  Slack (ns):            0.919
  Arrival (ns):          3.598
  Required (ns):         2.679

Path 53
  From:                  fc0/counter[2]:CLK
  To:                    fc0/final_count[3]:D
  Delay (ns):            0.928
  Slack (ns):            0.923
  Arrival (ns):          3.588
  Required (ns):         2.665

Path 54
  From:                  fc0/state:CLK
  To:                    fc0/counter[2]:D
  Delay (ns):            0.942
  Slack (ns):            0.937
  Arrival (ns):          3.616
  Required (ns):         2.679

Path 55
  From:                  fc2/counter[1]:CLK
  To:                    fc2/final_count[3]:D
  Delay (ns):            0.961
  Slack (ns):            0.939
  Arrival (ns):          3.635
  Required (ns):         2.696

Path 56
  From:                  fc0/state:CLK
  To:                    fc1/counter[0]:D
  Delay (ns):            0.973
  Slack (ns):            0.951
  Arrival (ns):          3.647
  Required (ns):         2.696

Path 57
  From:                  fc2/final_count[3]:CLK
  To:                    fc2/ck_ok:D
  Delay (ns):            0.957
  Slack (ns):            0.952
  Arrival (ns):          3.631
  Required (ns):         2.679

Path 58
  From:                  fc0/state:CLK
  To:                    fc2/final_count[1]:E
  Delay (ns):            0.976
  Slack (ns):            0.954
  Arrival (ns):          3.650
  Required (ns):         2.696

Path 59
  From:                  fc1/counter[0]:CLK
  To:                    fc1/final_count[3]:D
  Delay (ns):            0.976
  Slack (ns):            0.954
  Arrival (ns):          3.650
  Required (ns):         2.696

Path 60
  From:                  fc2/counter[2]:CLK
  To:                    fc2/final_count[3]:D
  Delay (ns):            1.006
  Slack (ns):            0.961
  Arrival (ns):          3.657
  Required (ns):         2.696

Path 61
  From:                  fc2/counter[1]:CLK
  To:                    fc2/counter[2]:D
  Delay (ns):            0.958
  Slack (ns):            0.964
  Arrival (ns):          3.632
  Required (ns):         2.668

Path 62
  From:                  fc0/state:CLK
  To:                    fc0/counter[3]:D
  Delay (ns):            0.960
  Slack (ns):            0.969
  Arrival (ns):          3.634
  Required (ns):         2.665

Path 63
  From:                  fc0/state:CLK
  To:                    fc1/final_count[1]:E
  Delay (ns):            0.997
  Slack (ns):            0.975
  Arrival (ns):          3.671
  Required (ns):         2.696

Path 64
  From:                  fc0/state:CLK
  To:                    fc1/final_count[0]:E
  Delay (ns):            0.997
  Slack (ns):            0.975
  Arrival (ns):          3.671
  Required (ns):         2.696

Path 65
  From:                  fc1/counter[2]:CLK
  To:                    fc1/counter[3]:D
  Delay (ns):            1.031
  Slack (ns):            0.980
  Arrival (ns):          3.682
  Required (ns):         2.702

Path 66
  From:                  fc2/counter[0]:CLK
  To:                    fc2/counter[1]:D
  Delay (ns):            1.010
  Slack (ns):            0.988
  Arrival (ns):          3.684
  Required (ns):         2.696

Path 67
  From:                  fc0/counter[0]:CLK
  To:                    fc0/counter[2]:D
  Delay (ns):            1.010
  Slack (ns):            0.991
  Arrival (ns):          3.670
  Required (ns):         2.679

Path 68
  From:                  fc0/state:CLK
  To:                    fc2/counter[3]:D
  Delay (ns):            0.988
  Slack (ns):            0.994
  Arrival (ns):          3.662
  Required (ns):         2.668

Path 69
  From:                  fc0/state:CLK
  To:                    fc0/final_count[0]:E
  Delay (ns):            1.001
  Slack (ns):            0.996
  Arrival (ns):          3.675
  Required (ns):         2.679

Path 70
  From:                  fc0/state:CLK
  To:                    fc0/counter[1]:D
  Delay (ns):            1.004
  Slack (ns):            0.999
  Arrival (ns):          3.678
  Required (ns):         2.679

Path 71
  From:                  fc1/counter[1]:CLK
  To:                    fc1/final_count[3]:D
  Delay (ns):            1.025
  Slack (ns):            1.008
  Arrival (ns):          3.704
  Required (ns):         2.696

Path 72
  From:                  fc0/state:CLK
  To:                    fc1/final_count[2]:E
  Delay (ns):            1.039
  Slack (ns):            1.017
  Arrival (ns):          3.713
  Required (ns):         2.696

Path 73
  From:                  fc1/counter[1]:CLK
  To:                    fc1/counter[1]:D
  Delay (ns):            1.025
  Slack (ns):            1.025
  Arrival (ns):          3.704
  Required (ns):         2.679

Path 74
  From:                  fc0/counter[1]:CLK
  To:                    fc0/final_count[3]:D
  Delay (ns):            1.031
  Slack (ns):            1.026
  Arrival (ns):          3.691
  Required (ns):         2.665

Path 75
  From:                  fc0/state:CLK
  To:                    fc0/final_count[2]:E
  Delay (ns):            1.032
  Slack (ns):            1.027
  Arrival (ns):          3.706
  Required (ns):         2.679

Path 76
  From:                  fc0/counter[1]:CLK
  To:                    fc0/final_count[1]:D
  Delay (ns):            1.058
  Slack (ns):            1.039
  Arrival (ns):          3.718
  Required (ns):         2.679

Path 77
  From:                  fc0/state:CLK
  To:                    fc0/final_count[3]:E
  Delay (ns):            1.032
  Slack (ns):            1.041
  Arrival (ns):          3.706
  Required (ns):         2.665

Path 78
  From:                  fc1/final_count[3]:CLK
  To:                    fc1/ck_ok:D
  Delay (ns):            1.065
  Slack (ns):            1.043
  Arrival (ns):          3.739
  Required (ns):         2.696

Path 79
  From:                  fc0/state:CLK
  To:                    fc1/counter[1]:D
  Delay (ns):            1.110
  Slack (ns):            1.082
  Arrival (ns):          3.784
  Required (ns):         2.702

Path 80
  From:                  fc2/counter[1]:CLK
  To:                    fc2/counter[1]:D
  Delay (ns):            1.114
  Slack (ns):            1.114
  Arrival (ns):          3.788
  Required (ns):         2.674

Path 81
  From:                  fc2/counter[0]:CLK
  To:                    fc2/counter[2]:D
  Delay (ns):            1.120
  Slack (ns):            1.126
  Arrival (ns):          3.794
  Required (ns):         2.668

Path 82
  From:                  fc2/counter[0]:CLK
  To:                    fc2/counter[3]:D
  Delay (ns):            1.120
  Slack (ns):            1.126
  Arrival (ns):          3.794
  Required (ns):         2.668

Path 83
  From:                  fc0/counter[0]:CLK
  To:                    fc0/counter[3]:D
  Delay (ns):            1.161
  Slack (ns):            1.156
  Arrival (ns):          3.821
  Required (ns):         2.665

Path 84
  From:                  fc0/counter[2]:CLK
  To:                    fc0/counter[3]:D
  Delay (ns):            1.166
  Slack (ns):            1.161
  Arrival (ns):          3.826
  Required (ns):         2.665

Path 85
  From:                  fc0/state:CLK
  To:                    fc2/final_count[0]:E
  Delay (ns):            1.174
  Slack (ns):            1.169
  Arrival (ns):          3.848
  Required (ns):         2.679

Path 86
  From:                  fc1/counter[1]:CLK
  To:                    fc1/counter[2]:D
  Delay (ns):            1.162
  Slack (ns):            1.173
  Arrival (ns):          3.841
  Required (ns):         2.668

Path 87
  From:                  fc0/state:CLK
  To:                    fc2/final_count[3]:E
  Delay (ns):            1.206
  Slack (ns):            1.184
  Arrival (ns):          3.880
  Required (ns):         2.696

Path 88
  From:                  fc1/counter[0]:CLK
  To:                    fc1/counter[3]:D
  Delay (ns):            1.214
  Slack (ns):            1.186
  Arrival (ns):          3.888
  Required (ns):         2.702

Path 89
  From:                  fc0/state:CLK
  To:                    fc1/counter[2]:D
  Delay (ns):            1.198
  Slack (ns):            1.204
  Arrival (ns):          3.872
  Required (ns):         2.668

Path 90
  From:                  fc2/counter[1]:CLK
  To:                    fc2/counter[3]:D
  Delay (ns):            1.203
  Slack (ns):            1.209
  Arrival (ns):          3.877
  Required (ns):         2.668

Path 91
  From:                  fc2/counter[2]:CLK
  To:                    fc2/counter[3]:D
  Delay (ns):            1.248
  Slack (ns):            1.231
  Arrival (ns):          3.899
  Required (ns):         2.668

Path 92
  From:                  fc1/counter[1]:CLK
  To:                    fc1/counter[3]:D
  Delay (ns):            1.263
  Slack (ns):            1.240
  Arrival (ns):          3.942
  Required (ns):         2.702

Path 93
  From:                  fc1/counter[2]:CLK
  To:                    fc1/counter[2]:D
  Delay (ns):            1.260
  Slack (ns):            1.260
  Arrival (ns):          3.911
  Required (ns):         2.651

Path 94
  From:                  fc0/counter[1]:CLK
  To:                    fc0/counter[3]:D
  Delay (ns):            1.269
  Slack (ns):            1.264
  Arrival (ns):          3.929
  Required (ns):         2.665

Path 95
  From:                  fc0/state:CLK
  To:                    fc0/final_count[1]:E
  Delay (ns):            1.287
  Slack (ns):            1.282
  Arrival (ns):          3.961
  Required (ns):         2.679

Path 96
  From:                  fc1/counter[0]:CLK
  To:                    fc1/counter[2]:D
  Delay (ns):            1.309
  Slack (ns):            1.315
  Arrival (ns):          3.983
  Required (ns):         2.668

