Timing Violation Report Max Delay Analysis

SmartTime Version v11.9 SP5
Microsemi Corporation - Microsemi Libero Software Release v11.9 SP5 (Version 11.9.5.5)
Date: Thu Apr 16 17:19:13 2020


Design: jtag_interface_top
Family: ProASIC3
Die: A3P250
Package: 144 FBGA
Temperature Range: -40 - 85 C
Voltage Range: 1.425 - 1.575 V
Speed Grade: -1
Design State: Post-Layout
Data source: Silicon verified
Min Operating Conditions: BEST - 1.575 V - -40 C
Max Operating Conditions: WORST - 1.425 V - 85 C
Using Enhanced Min Delay Analysis
Scenario for Timing Analysis: Primary


Path 1
  From:                  fc1/counter[1]:CLK
  To:                    fc1/counter[3]:D
  Delay (ns):            3.997
  Slack (ns):            -0.374
  Arrival (ns):          9.840
  Required (ns):         9.466

Path 2
  From:                  fc1/counter[0]:CLK
  To:                    fc1/counter[3]:D
  Delay (ns):            3.893
  Slack (ns):            -0.270
  Arrival (ns):          9.736
  Required (ns):         9.466

Path 3
  From:                  fc0/counter[1]:CLK
  To:                    fc0/counter[3]:D
  Delay (ns):            3.826
  Slack (ns):            -0.169
  Arrival (ns):          9.624
  Required (ns):         9.455

Path 4
  From:                  fc2/counter[1]:CLK
  To:                    fc2/counter[3]:D
  Delay (ns):            3.760
  Slack (ns):            -0.089
  Arrival (ns):          9.603
  Required (ns):         9.514

Path 5
  From:                  fc0/counter[0]:CLK
  To:                    fc0/counter[3]:D
  Delay (ns):            3.735
  Slack (ns):            -0.087
  Arrival (ns):          9.542
  Required (ns):         9.455

Path 6
  From:                  fc0/state:CLK
  To:                    fc1/counter[2]:D
  Delay (ns):            3.727
  Slack (ns):            -0.003
  Arrival (ns):          9.547
  Required (ns):         9.544

Path 7
  From:                  fc0/state:CLK
  To:                    fc0/counter[2]:D
  Delay (ns):            3.587
  Slack (ns):            0.092
  Arrival (ns):          9.407
  Required (ns):         9.499

Path 8
  From:                  fc2/counter[0]:CLK
  To:                    fc2/counter[3]:D
  Delay (ns):            3.525
  Slack (ns):            0.169
  Arrival (ns):          9.345
  Required (ns):         9.514

Path 9
  From:                  fc0/state:CLK
  To:                    fc0/counter[1]:D
  Delay (ns):            3.407
  Slack (ns):            0.272
  Arrival (ns):          9.227
  Required (ns):         9.499

Path 10
  From:                  fc1/counter[1]:CLK
  To:                    fc1/final_count[3]:D
  Delay (ns):            3.381
  Slack (ns):            0.290
  Arrival (ns):          9.224
  Required (ns):         9.514

Path 11
  From:                  fc0/state:CLK
  To:                    fc2/final_count[0]:E
  Delay (ns):            3.473
  Slack (ns):            0.342
  Arrival (ns):          9.293
  Required (ns):         9.635

Path 12
  From:                  fc1/counter[0]:CLK
  To:                    fc1/final_count[3]:D
  Delay (ns):            3.277
  Slack (ns):            0.394
  Arrival (ns):          9.120
  Required (ns):         9.514

Path 13
  From:                  fc0/state:CLK
  To:                    fc2/counter[2]:D
  Delay (ns):            3.291
  Slack (ns):            0.410
  Arrival (ns):          9.111
  Required (ns):         9.521

Path 14
  From:                  fc0/counter[1]:CLK
  To:                    fc0/final_count[3]:D
  Delay (ns):            3.212
  Slack (ns):            0.459
  Arrival (ns):          9.010
  Required (ns):         9.469

Path 15
  From:                  fc0/state:CLK
  To:                    fc1/final_count[3]:E
  Delay (ns):            3.349
  Slack (ns):            0.466
  Arrival (ns):          9.169
  Required (ns):         9.635

Path 16
  From:                  fc0/state:CLK
  To:                    fc2/counter[3]:D
  Delay (ns):            3.219
  Slack (ns):            0.505
  Arrival (ns):          9.039
  Required (ns):         9.544

Path 17
  From:                  fc2/counter[1]:CLK
  To:                    fc2/final_count[3]:D
  Delay (ns):            3.142
  Slack (ns):            0.529
  Arrival (ns):          8.985
  Required (ns):         9.514

Path 18
  From:                  fc0/counter[0]:CLK
  To:                    fc0/final_count[3]:D
  Delay (ns):            3.121
  Slack (ns):            0.541
  Arrival (ns):          8.928
  Required (ns):         9.469

Path 19
  From:                  fc0/state:CLK
  To:                    fc1/counter[1]:D
  Delay (ns):            3.154
  Slack (ns):            0.570
  Arrival (ns):          8.974
  Required (ns):         9.544

Path 20
  From:                  fc0/state:CLK
  To:                    fc0/final_count[2]:E
  Delay (ns):            3.181
  Slack (ns):            0.621
  Arrival (ns):          9.001
  Required (ns):         9.622

Path 21
  From:                  fc0/state:CLK
  To:                    fc2/final_count[1]:E
  Delay (ns):            3.165
  Slack (ns):            0.650
  Arrival (ns):          8.985
  Required (ns):         9.635

Path 22
  From:                  fc2/counter[1]:CLK
  To:                    fc2/counter[2]:D
  Delay (ns):            2.930
  Slack (ns):            0.718
  Arrival (ns):          8.773
  Required (ns):         9.491

Path 23
  From:                  fc0/state:CLK
  To:                    fc0/counter[3]:D
  Delay (ns):            2.917
  Slack (ns):            0.748
  Arrival (ns):          8.737
  Required (ns):         9.485

Path 24
  From:                  fc2/counter[0]:CLK
  To:                    fc2/counter[2]:D
  Delay (ns):            2.918
  Slack (ns):            0.753
  Arrival (ns):          8.738
  Required (ns):         9.491

Path 25
  From:                  fc1/counter[2]:CLK
  To:                    fc1/counter[3]:D
  Delay (ns):            2.861
  Slack (ns):            0.762
  Arrival (ns):          8.704
  Required (ns):         9.466

Path 26
  From:                  fc1/counter[0]:CLK
  To:                    fc1/final_count[2]:D
  Delay (ns):            2.892
  Slack (ns):            0.779
  Arrival (ns):          8.735
  Required (ns):         9.514

Path 27
  From:                  fc2/counter[0]:CLK
  To:                    fc2/final_count[3]:D
  Delay (ns):            2.907
  Slack (ns):            0.787
  Arrival (ns):          8.727
  Required (ns):         9.514

Path 28
  From:                  fc0/state:CLK
  To:                    fc2/final_count[2]:E
  Delay (ns):            2.982
  Slack (ns):            0.810
  Arrival (ns):          8.802
  Required (ns):         9.612

Path 29
  From:                  fc0/counter[1]:CLK
  To:                    fc0/counter[2]:D
  Delay (ns):            2.877
  Slack (ns):            0.824
  Arrival (ns):          8.675
  Required (ns):         9.499

Path 30
  From:                  fc0/counter[2]:CLK
  To:                    fc0/counter[3]:D
  Delay (ns):            2.832
  Slack (ns):            0.825
  Arrival (ns):          8.630
  Required (ns):         9.455

Path 31
  From:                  fc0/state:CLK
  To:                    fc0/final_count[1]:E
  Delay (ns):            2.938
  Slack (ns):            0.854
  Arrival (ns):          8.758
  Required (ns):         9.612

Path 32
  From:                  fc1/counter[1]:CLK
  To:                    fc1/final_count[2]:D
  Delay (ns):            2.777
  Slack (ns):            0.894
  Arrival (ns):          8.620
  Required (ns):         9.514

Path 33
  From:                  fc0/state:CLK
  To:                    fc0/counter[0]:D
  Delay (ns):            2.792
  Slack (ns):            0.896
  Arrival (ns):          8.612
  Required (ns):         9.508

Path 34
  From:                  fc2/counter[2]:CLK
  To:                    fc2/counter[3]:D
  Delay (ns):            2.797
  Slack (ns):            0.897
  Arrival (ns):          8.617
  Required (ns):         9.514

Path 35
  From:                  fc1/counter[1]:CLK
  To:                    fc1/counter[2]:D
  Delay (ns):            2.768
  Slack (ns):            0.903
  Arrival (ns):          8.611
  Required (ns):         9.514

Path 36
  From:                  fc0/counter[0]:CLK
  To:                    fc0/counter[2]:D
  Delay (ns):            2.786
  Slack (ns):            0.906
  Arrival (ns):          8.593
  Required (ns):         9.499

Path 37
  From:                  fc0/state:CLK
  To:                    fc2/counter[1]:D
  Delay (ns):            2.805
  Slack (ns):            0.919
  Arrival (ns):          8.625
  Required (ns):         9.544

Path 38
  From:                  fc0/state:CLK
  To:                    fc0/final_count[0]:E
  Delay (ns):            2.878
  Slack (ns):            0.924
  Arrival (ns):          8.698
  Required (ns):         9.622

Path 39
  From:                  fc2/final_count[1]:CLK
  To:                    fc2/ck_ok:D
  Delay (ns):            2.724
  Slack (ns):            0.929
  Arrival (ns):          8.567
  Required (ns):         9.496

Path 40
  From:                  fc1/final_count[1]:CLK
  To:                    fc1/ck_ok:D
  Delay (ns):            2.724
  Slack (ns):            0.929
  Arrival (ns):          8.567
  Required (ns):         9.496

Path 41
  From:                  fc0/state:CLK
  To:                    fc1/counter[3]:D
  Delay (ns):            2.714
  Slack (ns):            0.962
  Arrival (ns):          8.534
  Required (ns):         9.496

Path 42
  From:                  fc0/state:CLK
  To:                    fc2/final_count[3]:E
  Delay (ns):            2.848
  Slack (ns):            0.967
  Arrival (ns):          8.668
  Required (ns):         9.635

Path 43
  From:                  fc0/final_count[1]:CLK
  To:                    fc0/ck_ok:D
  Delay (ns):            2.724
  Slack (ns):            0.977
  Arrival (ns):          8.544
  Required (ns):         9.521

Path 44
  From:                  fc1/counter[0]:CLK
  To:                    fc1/counter[2]:D
  Delay (ns):            2.664
  Slack (ns):            1.007
  Arrival (ns):          8.507
  Required (ns):         9.514

Path 45
  From:                  fc0/final_count[3]:CLK
  To:                    fc0/ck_ok:D
  Delay (ns):            2.617
  Slack (ns):            1.076
  Arrival (ns):          8.415
  Required (ns):         9.491

Path 46
  From:                  fc2/final_count[0]:CLK
  To:                    fc2/ck_ok:D
  Delay (ns):            2.544
  Slack (ns):            1.109
  Arrival (ns):          8.387
  Required (ns):         9.496

Path 47
  From:                  fc1/final_count[0]:CLK
  To:                    fc1/ck_ok:D
  Delay (ns):            2.544
  Slack (ns):            1.109
  Arrival (ns):          8.387
  Required (ns):         9.496

Path 48
  From:                  fc0/state:CLK
  To:                    fc0/final_count[3]:E
  Delay (ns):            2.637
  Slack (ns):            1.133
  Arrival (ns):          8.457
  Required (ns):         9.590

Path 49
  From:                  fc0/final_count[0]:CLK
  To:                    fc0/ck_ok:D
  Delay (ns):            2.544
  Slack (ns):            1.147
  Arrival (ns):          8.374
  Required (ns):         9.521

Path 50
  From:                  fc0/counter[2]:CLK
  To:                    fc0/final_count[2]:D
  Delay (ns):            2.528
  Slack (ns):            1.175
  Arrival (ns):          8.326
  Required (ns):         9.501

Path 51
  From:                  fc0/counter[1]:CLK
  To:                    fc0/final_count[1]:D
  Delay (ns):            2.511
  Slack (ns):            1.182
  Arrival (ns):          8.309
  Required (ns):         9.491

Path 52
  From:                  fc0/counter[0]:CLK
  To:                    fc0/final_count[2]:D
  Delay (ns):            2.407
  Slack (ns):            1.287
  Arrival (ns):          8.214
  Required (ns):         9.501

Path 53
  From:                  fc2/final_count[3]:CLK
  To:                    fc2/ck_ok:D
  Delay (ns):            2.328
  Slack (ns):            1.295
  Arrival (ns):          8.171
  Required (ns):         9.466

Path 54
  From:                  fc1/final_count[3]:CLK
  To:                    fc1/ck_ok:D
  Delay (ns):            2.328
  Slack (ns):            1.295
  Arrival (ns):          8.171
  Required (ns):         9.466

Path 55
  From:                  fc2/counter[2]:CLK
  To:                    fc2/counter[2]:D
  Delay (ns):            2.371
  Slack (ns):            1.300
  Arrival (ns):          8.191
  Required (ns):         9.491

Path 56
  From:                  fc2/counter[1]:CLK
  To:                    fc2/final_count[2]:D
  Delay (ns):            2.316
  Slack (ns):            1.332
  Arrival (ns):          8.159
  Required (ns):         9.491

Path 57
  From:                  fc1/counter[3]:CLK
  To:                    fc1/counter[3]:D
  Delay (ns):            2.313
  Slack (ns):            1.358
  Arrival (ns):          8.108
  Required (ns):         9.466

Path 58
  From:                  fc2/counter[3]:CLK
  To:                    fc2/counter[3]:D
  Delay (ns):            2.312
  Slack (ns):            1.359
  Arrival (ns):          8.155
  Required (ns):         9.514

Path 59
  From:                  fc0/counter[3]:CLK
  To:                    fc0/counter[3]:D
  Delay (ns):            2.311
  Slack (ns):            1.360
  Arrival (ns):          8.095
  Required (ns):         9.455

Path 60
  From:                  fc2/counter[0]:CLK
  To:                    fc2/final_count[2]:D
  Delay (ns):            2.304
  Slack (ns):            1.367
  Arrival (ns):          8.124
  Required (ns):         9.491

Path 61
  From:                  fc1/counter[2]:CLK
  To:                    fc1/final_count[2]:D
  Delay (ns):            2.280
  Slack (ns):            1.391
  Arrival (ns):          8.123
  Required (ns):         9.514

Path 62
  From:                  fc0/counter[1]:CLK
  To:                    fc0/final_count[2]:D
  Delay (ns):            2.288
  Slack (ns):            1.415
  Arrival (ns):          8.086
  Required (ns):         9.501

Path 63
  From:                  fc1/counter[1]:CLK
  To:                    fc1/final_count[1]:D
  Delay (ns):            2.254
  Slack (ns):            1.417
  Arrival (ns):          8.097
  Required (ns):         9.514

Path 64
  From:                  fc2/counter[1]:CLK
  To:                    fc2/final_count[1]:D
  Delay (ns):            2.254
  Slack (ns):            1.417
  Arrival (ns):          8.097
  Required (ns):         9.514

Path 65
  From:                  fc0/counter[0]:CLK
  To:                    fc0/counter[1]:D
  Delay (ns):            2.242
  Slack (ns):            1.420
  Arrival (ns):          8.049
  Required (ns):         9.469

Path 66
  From:                  fc1/counter[2]:CLK
  To:                    fc1/final_count[3]:D
  Delay (ns):            2.245
  Slack (ns):            1.426
  Arrival (ns):          8.088
  Required (ns):         9.514

Path 67
  From:                  fc1/counter[0]:CLK
  To:                    fc1/counter[1]:D
  Delay (ns):            2.234
  Slack (ns):            1.437
  Arrival (ns):          8.077
  Required (ns):         9.514

Path 68
  From:                  fc0/counter[2]:CLK
  To:                    fc0/final_count[3]:D
  Delay (ns):            2.218
  Slack (ns):            1.453
  Arrival (ns):          8.016
  Required (ns):         9.469

Path 69
  From:                  fc0/counter[0]:CLK
  To:                    fc0/final_count[1]:D
  Delay (ns):            2.219
  Slack (ns):            1.465
  Arrival (ns):          8.026
  Required (ns):         9.491

Path 70
  From:                  fc0/state:CLK
  To:                    fc2/counter[0]:D
  Delay (ns):            2.196
  Slack (ns):            1.505
  Arrival (ns):          8.016
  Required (ns):         9.521

Path 71
  From:                  fc2/counter[2]:CLK
  To:                    fc2/final_count[3]:D
  Delay (ns):            2.179
  Slack (ns):            1.515
  Arrival (ns):          7.999
  Required (ns):         9.514

Path 72
  From:                  fc0/state:CLK
  To:                    fc1/counter[0]:D
  Delay (ns):            2.196
  Slack (ns):            1.528
  Arrival (ns):          8.016
  Required (ns):         9.544

Path 73
  From:                  fc2/counter[0]:CLK
  To:                    fc2/counter[1]:D
  Delay (ns):            2.107
  Slack (ns):            1.587
  Arrival (ns):          7.927
  Required (ns):         9.514

Path 74
  From:                  fc1/counter[2]:CLK
  To:                    fc1/counter[2]:D
  Delay (ns):            2.042
  Slack (ns):            1.629
  Arrival (ns):          7.885
  Required (ns):         9.514

Path 75
  From:                  fc2/final_count[2]:CLK
  To:                    fc2/ck_ok:D
  Delay (ns):            2.047
  Slack (ns):            1.629
  Arrival (ns):          7.867
  Required (ns):         9.496

Path 76
  From:                  fc0/counter[2]:CLK
  To:                    fc0/counter[2]:D
  Delay (ns):            2.021
  Slack (ns):            1.650
  Arrival (ns):          7.819
  Required (ns):         9.469

Path 77
  From:                  fc2/counter[0]:CLK
  To:                    fc2/final_count[1]:D
  Delay (ns):            1.988
  Slack (ns):            1.706
  Arrival (ns):          7.808
  Required (ns):         9.514

Path 78
  From:                  fc1/counter[0]:CLK
  To:                    fc1/final_count[1]:D
  Delay (ns):            1.961
  Slack (ns):            1.710
  Arrival (ns):          7.804
  Required (ns):         9.514

Path 79
  From:                  fc0/counter[1]:CLK
  To:                    fc0/counter[1]:D
  Delay (ns):            1.965
  Slack (ns):            1.736
  Arrival (ns):          7.763
  Required (ns):         9.499

Path 80
  From:                  fc1/counter[1]:CLK
  To:                    fc1/counter[1]:D
  Delay (ns):            1.933
  Slack (ns):            1.738
  Arrival (ns):          7.776
  Required (ns):         9.514

Path 81
  From:                  fc2/counter[1]:CLK
  To:                    fc2/counter[1]:D
  Delay (ns):            1.933
  Slack (ns):            1.738
  Arrival (ns):          7.776
  Required (ns):         9.514

Path 82
  From:                  fc0/state:CLK
  To:                    fc1/final_count[1]:E
  Delay (ns):            2.060
  Slack (ns):            1.755
  Arrival (ns):          7.880
  Required (ns):         9.635

Path 83
  From:                  fc0/state:CLK
  To:                    fc1/final_count[0]:E
  Delay (ns):            2.060
  Slack (ns):            1.755
  Arrival (ns):          7.880
  Required (ns):         9.635

Path 84
  From:                  fc0/state:CLK
  To:                    fc1/final_count[2]:E
  Delay (ns):            2.060
  Slack (ns):            1.755
  Arrival (ns):          7.880
  Required (ns):         9.635

Path 85
  From:                  fc0/counter[0]:CLK
  To:                    fc0/counter[0]:D
  Delay (ns):            1.892
  Slack (ns):            1.809
  Arrival (ns):          7.699
  Required (ns):         9.508

Path 86
  From:                  fc1/counter[0]:CLK
  To:                    fc1/counter[0]:D
  Delay (ns):            1.863
  Slack (ns):            1.838
  Arrival (ns):          7.706
  Required (ns):         9.544

Path 87
  From:                  fc2/counter[2]:CLK
  To:                    fc2/final_count[2]:D
  Delay (ns):            1.757
  Slack (ns):            1.914
  Arrival (ns):          7.577
  Required (ns):         9.491

Path 88
  From:                  fc2/counter[0]:CLK
  To:                    fc2/counter[0]:D
  Delay (ns):            1.732
  Slack (ns):            1.969
  Arrival (ns):          7.552
  Required (ns):         9.521

Path 89
  From:                  fc2/counter[3]:CLK
  To:                    fc2/final_count[3]:D
  Delay (ns):            1.694
  Slack (ns):            1.977
  Arrival (ns):          7.537
  Required (ns):         9.514

Path 90
  From:                  fc0/counter[3]:CLK
  To:                    fc0/final_count[3]:D
  Delay (ns):            1.697
  Slack (ns):            1.988
  Arrival (ns):          7.481
  Required (ns):         9.469

Path 91
  From:                  fc1/counter[3]:CLK
  To:                    fc1/final_count[3]:D
  Delay (ns):            1.697
  Slack (ns):            2.022
  Arrival (ns):          7.492
  Required (ns):         9.514

Path 92
  From:                  fc1/final_count[2]:CLK
  To:                    fc1/ck_ok:D
  Delay (ns):            1.521
  Slack (ns):            2.132
  Arrival (ns):          7.364
  Required (ns):         9.496

Path 93
  From:                  fc0/final_count[2]:CLK
  To:                    fc0/ck_ok:D
  Delay (ns):            1.521
  Slack (ns):            2.170
  Arrival (ns):          7.351
  Required (ns):         9.521

Path 94
  From:                  fc2/counter[0]:CLK
  To:                    fc2/final_count[0]:D
  Delay (ns):            1.314
  Slack (ns):            2.410
  Arrival (ns):          7.134
  Required (ns):         9.544

Path 95
  From:                  fc1/counter[0]:CLK
  To:                    fc1/final_count[0]:D
  Delay (ns):            1.184
  Slack (ns):            2.517
  Arrival (ns):          7.027
  Required (ns):         9.544

Path 96
  From:                  fc0/counter[0]:CLK
  To:                    fc0/final_count[0]:D
  Delay (ns):            1.202
  Slack (ns):            2.522
  Arrival (ns):          7.009
  Required (ns):         9.531

