Timing Violation Report Min Delay Analysis

SmartTime Version v11.9 SP5
Microsemi Corporation - Microsemi Libero Software Release v11.9 SP5 (Version 11.9.5.5)
Date: Thu Apr 16 17:36:49 2020


Design: jtag_interface_top
Family: ProASIC3
Die: A3P250
Package: 144 FBGA
Temperature Range: -40 - 85 C
Voltage Range: 1.425 - 1.575 V
Speed Grade: -1
Design State: Post-Layout
Data source: Silicon verified
Min Operating Conditions: BEST - 1.575 V - -40 C
Max Operating Conditions: WORST - 1.425 V - 85 C
Using Enhanced Min Delay Analysis
Scenario for Timing Analysis: Primary


Path 1
  From:                  fc1/counter[0]:CLK
  To:                    fc1/final_count[0]:D
  Delay (ns):            0.354
  Slack (ns):            0.334
  Arrival (ns):          3.015
  Required (ns):         2.681

Path 2
  From:                  fc0/counter[0]:CLK
  To:                    fc0/final_count[0]:D
  Delay (ns):            0.405
  Slack (ns):            0.374
  Arrival (ns):          3.055
  Required (ns):         2.681

Path 3
  From:                  fc2/counter[0]:CLK
  To:                    fc2/counter[0]:D
  Delay (ns):            0.564
  Slack (ns):            0.564
  Arrival (ns):          3.225
  Required (ns):         2.661

Path 4
  From:                  fc1/counter[0]:CLK
  To:                    fc1/counter[0]:D
  Delay (ns):            0.594
  Slack (ns):            0.594
  Arrival (ns):          3.255
  Required (ns):         2.661

Path 5
  From:                  fc0/counter[0]:CLK
  To:                    fc0/counter[0]:D
  Delay (ns):            0.595
  Slack (ns):            0.595
  Arrival (ns):          3.245
  Required (ns):         2.650

Path 6
  From:                  fc0/counter[0]:CLK
  To:                    fc0/final_count[1]:D
  Delay (ns):            0.632
  Slack (ns):            0.601
  Arrival (ns):          3.282
  Required (ns):         2.681

Path 7
  From:                  fc2/counter[0]:CLK
  To:                    fc2/final_count[0]:D
  Delay (ns):            0.669
  Slack (ns):            0.649
  Arrival (ns):          3.330
  Required (ns):         2.681

Path 8
  From:                  fc2/counter[3]:CLK
  To:                    fc2/final_count[3]:D
  Delay (ns):            0.670
  Slack (ns):            0.650
  Arrival (ns):          3.331
  Required (ns):         2.681

Path 9
  From:                  fc2/counter[0]:CLK
  To:                    fc2/final_count[1]:D
  Delay (ns):            0.676
  Slack (ns):            0.656
  Arrival (ns):          3.337
  Required (ns):         2.681

Path 10
  From:                  fc0/counter[3]:CLK
  To:                    fc0/final_count[3]:D
  Delay (ns):            0.682
  Slack (ns):            0.664
  Arrival (ns):          3.332
  Required (ns):         2.668

Path 11
  From:                  fc0/counter[1]:CLK
  To:                    fc0/final_count[1]:D
  Delay (ns):            0.692
  Slack (ns):            0.672
  Arrival (ns):          3.353
  Required (ns):         2.681

Path 12
  From:                  fc0/state:CLK
  To:                    fc1/final_count[3]:E
  Delay (ns):            0.701
  Slack (ns):            0.681
  Arrival (ns):          3.362
  Required (ns):         2.681

Path 13
  From:                  fc0/state:CLK
  To:                    fc1/final_count[0]:E
  Delay (ns):            0.701
  Slack (ns):            0.681
  Arrival (ns):          3.362
  Required (ns):         2.681

Path 14
  From:                  fc0/state:CLK
  To:                    fc2/final_count[1]:E
  Delay (ns):            0.701
  Slack (ns):            0.681
  Arrival (ns):          3.362
  Required (ns):         2.681

Path 15
  From:                  fc1/counter[1]:CLK
  To:                    fc1/final_count[1]:D
  Delay (ns):            0.716
  Slack (ns):            0.685
  Arrival (ns):          3.366
  Required (ns):         2.681

Path 16
  From:                  fc2/counter[1]:CLK
  To:                    fc2/final_count[1]:D
  Delay (ns):            0.716
  Slack (ns):            0.696
  Arrival (ns):          3.377
  Required (ns):         2.681

Path 17
  From:                  fc1/counter[0]:CLK
  To:                    fc1/final_count[1]:D
  Delay (ns):            0.721
  Slack (ns):            0.701
  Arrival (ns):          3.382
  Required (ns):         2.681

Path 18
  From:                  fc2/counter[2]:CLK
  To:                    fc2/final_count[2]:D
  Delay (ns):            0.764
  Slack (ns):            0.733
  Arrival (ns):          3.414
  Required (ns):         2.681

Path 19
  From:                  fc0/state:CLK
  To:                    fc1/final_count[1]:E
  Delay (ns):            0.797
  Slack (ns):            0.777
  Arrival (ns):          3.458
  Required (ns):         2.681

Path 20
  From:                  fc0/final_count[1]:CLK
  To:                    fc0/ck_ok:D
  Delay (ns):            0.816
  Slack (ns):            0.796
  Arrival (ns):          3.477
  Required (ns):         2.681

Path 21
  From:                  fc1/counter[2]:CLK
  To:                    fc1/counter[2]:D
  Delay (ns):            0.803
  Slack (ns):            0.803
  Arrival (ns):          3.453
  Required (ns):         2.650

Path 22
  From:                  fc2/counter[2]:CLK
  To:                    fc2/counter[2]:D
  Delay (ns):            0.805
  Slack (ns):            0.805
  Arrival (ns):          3.455
  Required (ns):         2.650

Path 23
  From:                  fc1/final_count[1]:CLK
  To:                    fc1/ck_ok:D
  Delay (ns):            0.816
  Slack (ns):            0.809
  Arrival (ns):          3.477
  Required (ns):         2.668

Path 24
  From:                  fc0/state:CLK
  To:                    fc2/final_count[3]:E
  Delay (ns):            0.850
  Slack (ns):            0.830
  Arrival (ns):          3.511
  Required (ns):         2.681

Path 25
  From:                  fc0/counter[2]:CLK
  To:                    fc0/final_count[2]:D
  Delay (ns):            0.848
  Slack (ns):            0.830
  Arrival (ns):          3.498
  Required (ns):         2.668

Path 26
  From:                  fc2/counter[0]:CLK
  To:                    fc2/final_count[2]:D
  Delay (ns):            0.873
  Slack (ns):            0.853
  Arrival (ns):          3.534
  Required (ns):         2.681

Path 27
  From:                  fc0/final_count[2]:CLK
  To:                    fc0/ck_ok:D
  Delay (ns):            0.898
  Slack (ns):            0.867
  Arrival (ns):          3.548
  Required (ns):         2.681

Path 28
  From:                  fc2/counter[1]:CLK
  To:                    fc2/final_count[2]:D
  Delay (ns):            0.888
  Slack (ns):            0.868
  Arrival (ns):          3.549
  Required (ns):         2.681

Path 29
  From:                  fc0/counter[0]:CLK
  To:                    fc0/final_count[3]:D
  Delay (ns):            0.889
  Slack (ns):            0.871
  Arrival (ns):          3.539
  Required (ns):         2.668

Path 30
  From:                  fc0/final_count[0]:CLK
  To:                    fc0/ck_ok:D
  Delay (ns):            0.893
  Slack (ns):            0.873
  Arrival (ns):          3.554
  Required (ns):         2.681

Path 31
  From:                  fc2/final_count[2]:CLK
  To:                    fc2/ck_ok:D
  Delay (ns):            0.898
  Slack (ns):            0.878
  Arrival (ns):          3.559
  Required (ns):         2.681

Path 32
  From:                  fc0/counter[2]:CLK
  To:                    fc0/counter[2]:D
  Delay (ns):            0.883
  Slack (ns):            0.883
  Arrival (ns):          3.533
  Required (ns):         2.650

Path 33
  From:                  fc0/state:CLK
  To:                    fc2/counter[2]:D
  Delay (ns):            0.892
  Slack (ns):            0.885
  Arrival (ns):          3.553
  Required (ns):         2.668

Path 34
  From:                  fc1/final_count[0]:CLK
  To:                    fc1/ck_ok:D
  Delay (ns):            0.894
  Slack (ns):            0.887
  Arrival (ns):          3.555
  Required (ns):         2.668

Path 35
  From:                  fc1/counter[3]:CLK
  To:                    fc1/final_count[3]:D
  Delay (ns):            0.923
  Slack (ns):            0.889
  Arrival (ns):          3.570
  Required (ns):         2.681

Path 36
  From:                  fc2/final_count[0]:CLK
  To:                    fc2/ck_ok:D
  Delay (ns):            0.909
  Slack (ns):            0.889
  Arrival (ns):          3.570
  Required (ns):         2.681

Path 37
  From:                  fc1/final_count[2]:CLK
  To:                    fc1/ck_ok:D
  Delay (ns):            0.898
  Slack (ns):            0.891
  Arrival (ns):          3.559
  Required (ns):         2.668

Path 38
  From:                  fc1/counter[3]:CLK
  To:                    fc1/counter[3]:D
  Delay (ns):            0.896
  Slack (ns):            0.896
  Arrival (ns):          3.543
  Required (ns):         2.647

Path 39
  From:                  fc0/state:CLK
  To:                    fc2/final_count[0]:E
  Delay (ns):            0.917
  Slack (ns):            0.897
  Arrival (ns):          3.578
  Required (ns):         2.681

Path 40
  From:                  fc2/counter[2]:CLK
  To:                    fc2/final_count[3]:D
  Delay (ns):            0.928
  Slack (ns):            0.897
  Arrival (ns):          3.578
  Required (ns):         2.681

Path 41
  From:                  fc2/counter[3]:CLK
  To:                    fc2/counter[3]:D
  Delay (ns):            0.905
  Slack (ns):            0.905
  Arrival (ns):          3.566
  Required (ns):         2.661

Path 42
  From:                  fc2/counter[0]:CLK
  To:                    fc2/counter[2]:D
  Delay (ns):            0.914
  Slack (ns):            0.907
  Arrival (ns):          3.575
  Required (ns):         2.668

Path 43
  From:                  fc1/counter[1]:CLK
  To:                    fc1/counter[2]:D
  Delay (ns):            0.930
  Slack (ns):            0.912
  Arrival (ns):          3.580
  Required (ns):         2.668

Path 44
  From:                  fc0/state:CLK
  To:                    fc0/final_count[3]:E
  Delay (ns):            0.921
  Slack (ns):            0.914
  Arrival (ns):          3.582
  Required (ns):         2.668

Path 45
  From:                  fc0/counter[0]:CLK
  To:                    fc0/counter[1]:D
  Delay (ns):            0.948
  Slack (ns):            0.917
  Arrival (ns):          3.598
  Required (ns):         2.681

Path 46
  From:                  fc0/state:CLK
  To:                    fc1/counter[2]:D
  Delay (ns):            0.927
  Slack (ns):            0.920
  Arrival (ns):          3.588
  Required (ns):         2.668

Path 47
  From:                  fc1/counter[0]:CLK
  To:                    fc1/counter[2]:D
  Delay (ns):            0.927
  Slack (ns):            0.920
  Arrival (ns):          3.588
  Required (ns):         2.668

Path 48
  From:                  fc2/counter[1]:CLK
  To:                    fc2/final_count[3]:D
  Delay (ns):            0.941
  Slack (ns):            0.921
  Arrival (ns):          3.602
  Required (ns):         2.681

Path 49
  From:                  fc1/counter[2]:CLK
  To:                    fc1/final_count[2]:D
  Delay (ns):            0.953
  Slack (ns):            0.922
  Arrival (ns):          3.603
  Required (ns):         2.681

Path 50
  From:                  fc0/counter[2]:CLK
  To:                    fc0/final_count[3]:D
  Delay (ns):            0.940
  Slack (ns):            0.922
  Arrival (ns):          3.590
  Required (ns):         2.668

Path 51
  From:                  fc2/counter[1]:CLK
  To:                    fc2/counter[2]:D
  Delay (ns):            0.929
  Slack (ns):            0.922
  Arrival (ns):          3.590
  Required (ns):         2.668

Path 52
  From:                  fc0/counter[3]:CLK
  To:                    fc0/counter[3]:D
  Delay (ns):            0.936
  Slack (ns):            0.936
  Arrival (ns):          3.586
  Required (ns):         2.650

Path 53
  From:                  fc0/state:CLK
  To:                    fc1/counter[1]:D
  Delay (ns):            0.943
  Slack (ns):            0.936
  Arrival (ns):          3.604
  Required (ns):         2.668

Path 54
  From:                  fc0/counter[1]:CLK
  To:                    fc0/final_count[2]:D
  Delay (ns):            0.948
  Slack (ns):            0.941
  Arrival (ns):          3.609
  Required (ns):         2.668

Path 55
  From:                  fc0/counter[1]:CLK
  To:                    fc0/counter[2]:D
  Delay (ns):            0.951
  Slack (ns):            0.944
  Arrival (ns):          3.612
  Required (ns):         2.668

Path 56
  From:                  fc0/state:CLK
  To:                    fc2/final_count[2]:E
  Delay (ns):            0.968
  Slack (ns):            0.948
  Arrival (ns):          3.629
  Required (ns):         2.681

Path 57
  From:                  fc1/counter[1]:CLK
  To:                    fc1/counter[1]:D
  Delay (ns):            0.950
  Slack (ns):            0.950
  Arrival (ns):          3.600
  Required (ns):         2.650

Path 58
  From:                  fc0/state:CLK
  To:                    fc0/counter[0]:D
  Delay (ns):            0.962
  Slack (ns):            0.955
  Arrival (ns):          3.623
  Required (ns):         2.668

Path 59
  From:                  fc0/state:CLK
  To:                    fc2/counter[3]:D
  Delay (ns):            0.977
  Slack (ns):            0.957
  Arrival (ns):          3.638
  Required (ns):         2.681

Path 60
  From:                  fc0/state:CLK
  To:                    fc2/counter[1]:D
  Delay (ns):            0.979
  Slack (ns):            0.959
  Arrival (ns):          3.640
  Required (ns):         2.681

Path 61
  From:                  fc0/state:CLK
  To:                    fc0/counter[3]:D
  Delay (ns):            0.973
  Slack (ns):            0.967
  Arrival (ns):          3.634
  Required (ns):         2.667

Path 62
  From:                  fc0/counter[0]:CLK
  To:                    fc0/final_count[2]:D
  Delay (ns):            0.988
  Slack (ns):            0.970
  Arrival (ns):          3.638
  Required (ns):         2.668

Path 63
  From:                  fc2/counter[0]:CLK
  To:                    fc2/counter[1]:D
  Delay (ns):            0.991
  Slack (ns):            0.971
  Arrival (ns):          3.652
  Required (ns):         2.681

Path 64
  From:                  fc0/counter[1]:CLK
  To:                    fc0/counter[1]:D
  Delay (ns):            0.978
  Slack (ns):            0.978
  Arrival (ns):          3.639
  Required (ns):         2.661

Path 65
  From:                  fc0/counter[0]:CLK
  To:                    fc0/counter[2]:D
  Delay (ns):            1.002
  Slack (ns):            0.984
  Arrival (ns):          3.652
  Required (ns):         2.668

Path 66
  From:                  fc0/state:CLK
  To:                    fc1/counter[0]:D
  Delay (ns):            1.005
  Slack (ns):            0.985
  Arrival (ns):          3.666
  Required (ns):         2.681

Path 67
  From:                  fc0/counter[1]:CLK
  To:                    fc0/final_count[3]:D
  Delay (ns):            0.993
  Slack (ns):            0.986
  Arrival (ns):          3.654
  Required (ns):         2.668

Path 68
  From:                  fc0/state:CLK
  To:                    fc1/counter[3]:D
  Delay (ns):            0.995
  Slack (ns):            0.993
  Arrival (ns):          3.656
  Required (ns):         2.663

Path 69
  From:                  fc2/counter[1]:CLK
  To:                    fc2/counter[1]:D
  Delay (ns):            1.001
  Slack (ns):            1.001
  Arrival (ns):          3.662
  Required (ns):         2.661

Path 70
  From:                  fc0/state:CLK
  To:                    fc2/counter[0]:D
  Delay (ns):            1.023
  Slack (ns):            1.003
  Arrival (ns):          3.684
  Required (ns):         2.681

Path 71
  From:                  fc0/state:CLK
  To:                    fc0/final_count[1]:E
  Delay (ns):            1.033
  Slack (ns):            1.013
  Arrival (ns):          3.694
  Required (ns):         2.681

Path 72
  From:                  fc0/state:CLK
  To:                    fc1/final_count[2]:E
  Delay (ns):            1.043
  Slack (ns):            1.023
  Arrival (ns):          3.704
  Required (ns):         2.681

Path 73
  From:                  fc2/counter[0]:CLK
  To:                    fc2/final_count[3]:D
  Delay (ns):            1.045
  Slack (ns):            1.025
  Arrival (ns):          3.706
  Required (ns):         2.681

Path 74
  From:                  fc0/state:CLK
  To:                    fc0/counter[1]:D
  Delay (ns):            1.054
  Slack (ns):            1.034
  Arrival (ns):          3.715
  Required (ns):         2.681

Path 75
  From:                  fc0/state:CLK
  To:                    fc0/final_count[2]:E
  Delay (ns):            1.046
  Slack (ns):            1.039
  Arrival (ns):          3.707
  Required (ns):         2.668

Path 76
  From:                  fc2/final_count[1]:CLK
  To:                    fc2/ck_ok:D
  Delay (ns):            1.068
  Slack (ns):            1.048
  Arrival (ns):          3.729
  Required (ns):         2.681

Path 77
  From:                  fc1/counter[1]:CLK
  To:                    fc1/final_count[2]:D
  Delay (ns):            1.080
  Slack (ns):            1.049
  Arrival (ns):          3.730
  Required (ns):         2.681

Path 78
  From:                  fc1/counter[0]:CLK
  To:                    fc1/final_count[2]:D
  Delay (ns):            1.077
  Slack (ns):            1.057
  Arrival (ns):          3.738
  Required (ns):         2.681

Path 79
  From:                  fc0/state:CLK
  To:                    fc0/final_count[0]:E
  Delay (ns):            1.134
  Slack (ns):            1.114
  Arrival (ns):          3.795
  Required (ns):         2.681

Path 80
  From:                  fc0/counter[0]:CLK
  To:                    fc0/counter[3]:D
  Delay (ns):            1.148
  Slack (ns):            1.131
  Arrival (ns):          3.798
  Required (ns):         2.667

Path 81
  From:                  fc2/counter[2]:CLK
  To:                    fc2/counter[3]:D
  Delay (ns):            1.167
  Slack (ns):            1.136
  Arrival (ns):          3.817
  Required (ns):         2.681

Path 82
  From:                  fc1/counter[2]:CLK
  To:                    fc1/counter[3]:D
  Delay (ns):            1.158
  Slack (ns):            1.145
  Arrival (ns):          3.808
  Required (ns):         2.663

Path 83
  From:                  fc1/counter[2]:CLK
  To:                    fc1/final_count[3]:D
  Delay (ns):            1.188
  Slack (ns):            1.157
  Arrival (ns):          3.838
  Required (ns):         2.681

Path 84
  From:                  fc1/counter[1]:CLK
  To:                    fc1/counter[3]:D
  Delay (ns):            1.170
  Slack (ns):            1.157
  Arrival (ns):          3.820
  Required (ns):         2.663

Path 85
  From:                  fc2/counter[1]:CLK
  To:                    fc2/counter[3]:D
  Delay (ns):            1.180
  Slack (ns):            1.160
  Arrival (ns):          3.841
  Required (ns):         2.681

Path 86
  From:                  fc1/counter[1]:CLK
  To:                    fc1/final_count[3]:D
  Delay (ns):            1.200
  Slack (ns):            1.169
  Arrival (ns):          3.850
  Required (ns):         2.681

Path 87
  From:                  fc1/counter[0]:CLK
  To:                    fc1/counter[3]:D
  Delay (ns):            1.181
  Slack (ns):            1.179
  Arrival (ns):          3.842
  Required (ns):         2.663

Path 88
  From:                  fc0/counter[2]:CLK
  To:                    fc0/counter[3]:D
  Delay (ns):            1.199
  Slack (ns):            1.182
  Arrival (ns):          3.849
  Required (ns):         2.667

Path 89
  From:                  fc1/counter[0]:CLK
  To:                    fc1/final_count[3]:D
  Delay (ns):            1.211
  Slack (ns):            1.191
  Arrival (ns):          3.872
  Required (ns):         2.681

Path 90
  From:                  fc0/state:CLK
  To:                    fc0/counter[2]:D
  Delay (ns):            1.228
  Slack (ns):            1.221
  Arrival (ns):          3.889
  Required (ns):         2.668

Path 91
  From:                  fc0/counter[1]:CLK
  To:                    fc0/counter[3]:D
  Delay (ns):            1.252
  Slack (ns):            1.246
  Arrival (ns):          3.913
  Required (ns):         2.667

Path 92
  From:                  fc0/final_count[3]:CLK
  To:                    fc0/ck_ok:D
  Delay (ns):            1.282
  Slack (ns):            1.251
  Arrival (ns):          3.932
  Required (ns):         2.681

Path 93
  From:                  fc2/final_count[3]:CLK
  To:                    fc2/ck_ok:D
  Delay (ns):            1.282
  Slack (ns):            1.262
  Arrival (ns):          3.943
  Required (ns):         2.681

Path 94
  From:                  fc2/counter[0]:CLK
  To:                    fc2/counter[3]:D
  Delay (ns):            1.284
  Slack (ns):            1.264
  Arrival (ns):          3.945
  Required (ns):         2.681

