Timing Violation Report Min Delay Analysis

SmartTime Version v11.9 SP5
Microsemi Corporation - Microsemi Libero Software Release v11.9 SP5 (Version 11.9.5.5)
Date: Wed Apr 15 16:31:02 2020


Design: jtag_interface_top
Family: ProASIC3
Die: A3P250
Package: 144 FBGA
Temperature Range: -40 - 85 C
Voltage Range: 1.425 - 1.575 V
Speed Grade: -1
Design State: Post-Layout
Data source: Silicon verified
Min Operating Conditions: BEST - 1.575 V - -40 C
Max Operating Conditions: WORST - 1.425 V - 85 C
Using Enhanced Min Delay Analysis
Scenario for Timing Analysis: Primary


Path 1
  From:                  fc1/counter[0]:CLK
  To:                    fc1/final_count[0]:D
  Delay (ns):            0.423
  Slack (ns):            0.390
  Arrival (ns):          3.080
  Required (ns):         2.690

Path 2
  From:                  fc0/counter[0]:CLK
  To:                    fc0/final_count[0]:D
  Delay (ns):            0.561
  Slack (ns):            0.528
  Arrival (ns):          3.218
  Required (ns):         2.690

Path 3
  From:                  fc0/counter[2]:CLK
  To:                    fc0/final_count[2]:D
  Delay (ns):            0.591
  Slack (ns):            0.570
  Arrival (ns):          3.260
  Required (ns):         2.690

Path 4
  From:                  fc2/counter[0]:CLK
  To:                    fc2/counter[0]:D
  Delay (ns):            0.575
  Slack (ns):            0.575
  Arrival (ns):          3.232
  Required (ns):         2.657

Path 5
  From:                  fc0/counter[0]:CLK
  To:                    fc0/counter[0]:D
  Delay (ns):            0.586
  Slack (ns):            0.586
  Arrival (ns):          3.243
  Required (ns):         2.657

Path 6
  From:                  fc1/counter[0]:CLK
  To:                    fc1/final_count[1]:D
  Delay (ns):            0.633
  Slack (ns):            0.615
  Arrival (ns):          3.290
  Required (ns):         2.675

Path 7
  From:                  fc1/counter[0]:CLK
  To:                    fc1/counter[0]:D
  Delay (ns):            0.615
  Slack (ns):            0.615
  Arrival (ns):          3.272
  Required (ns):         2.657

Path 8
  From:                  fc2/counter[0]:CLK
  To:                    fc2/final_count[0]:D
  Delay (ns):            0.659
  Slack (ns):            0.626
  Arrival (ns):          3.316
  Required (ns):         2.690

Path 9
  From:                  fc2/counter[2]:CLK
  To:                    fc2/final_count[2]:D
  Delay (ns):            0.662
  Slack (ns):            0.634
  Arrival (ns):          3.324
  Required (ns):         2.690

Path 10
  From:                  fc0/counter[3]:CLK
  To:                    fc0/final_count[3]:D
  Delay (ns):            0.671
  Slack (ns):            0.638
  Arrival (ns):          3.328
  Required (ns):         2.690

Path 11
  From:                  fc2/counter[0]:CLK
  To:                    fc2/final_count[1]:D
  Delay (ns):            0.675
  Slack (ns):            0.642
  Arrival (ns):          3.332
  Required (ns):         2.690

Path 12
  From:                  fc1/counter[3]:CLK
  To:                    fc1/final_count[3]:D
  Delay (ns):            0.670
  Slack (ns):            0.652
  Arrival (ns):          3.327
  Required (ns):         2.675

Path 13
  From:                  fc1/counter[1]:CLK
  To:                    fc1/final_count[1]:D
  Delay (ns):            0.692
  Slack (ns):            0.663
  Arrival (ns):          3.338
  Required (ns):         2.675

Path 14
  From:                  fc2/counter[3]:CLK
  To:                    fc2/final_count[3]:D
  Delay (ns):            0.671
  Slack (ns):            0.665
  Arrival (ns):          3.340
  Required (ns):         2.675

Path 15
  From:                  fc0/state:CLK
  To:                    fc1/final_count[2]:E
  Delay (ns):            0.686
  Slack (ns):            0.665
  Arrival (ns):          3.355
  Required (ns):         2.690

Path 16
  From:                  fc0/state:CLK
  To:                    fc2/final_count[1]:E
  Delay (ns):            0.686
  Slack (ns):            0.665
  Arrival (ns):          3.355
  Required (ns):         2.690

Path 17
  From:                  fc0/state:CLK
  To:                    fc0/counter[3]:D
  Delay (ns):            0.679
  Slack (ns):            0.673
  Arrival (ns):          3.348
  Required (ns):         2.675

Path 18
  From:                  fc2/counter[1]:CLK
  To:                    fc2/final_count[1]:D
  Delay (ns):            0.714
  Slack (ns):            0.681
  Arrival (ns):          3.371
  Required (ns):         2.690

Path 19
  From:                  fc0/counter[1]:CLK
  To:                    fc0/final_count[2]:D
  Delay (ns):            0.715
  Slack (ns):            0.682
  Arrival (ns):          3.372
  Required (ns):         2.690

Path 20
  From:                  fc0/counter[0]:CLK
  To:                    fc0/final_count[2]:D
  Delay (ns):            0.717
  Slack (ns):            0.684
  Arrival (ns):          3.374
  Required (ns):         2.690

Path 21
  From:                  fc1/counter[2]:CLK
  To:                    fc1/final_count[2]:D
  Delay (ns):            0.767
  Slack (ns):            0.723
  Arrival (ns):          3.413
  Required (ns):         2.690

Path 22
  From:                  fc2/counter[0]:CLK
  To:                    fc2/final_count[2]:D
  Delay (ns):            0.763
  Slack (ns):            0.730
  Arrival (ns):          3.420
  Required (ns):         2.690

Path 23
  From:                  fc2/counter[1]:CLK
  To:                    fc2/final_count[2]:D
  Delay (ns):            0.785
  Slack (ns):            0.752
  Arrival (ns):          3.442
  Required (ns):         2.690

Path 24
  From:                  fc2/final_count[1]:CLK
  To:                    fc2/ck_ok:D
  Delay (ns):            0.797
  Slack (ns):            0.791
  Arrival (ns):          3.466
  Required (ns):         2.675

Path 25
  From:                  fc0/final_count[1]:CLK
  To:                    fc0/ck_ok:D
  Delay (ns):            0.816
  Slack (ns):            0.810
  Arrival (ns):          3.485
  Required (ns):         2.675

Path 26
  From:                  fc2/counter[2]:CLK
  To:                    fc2/counter[2]:D
  Delay (ns):            0.813
  Slack (ns):            0.813
  Arrival (ns):          3.475
  Required (ns):         2.662

Path 27
  From:                  fc1/counter[1]:CLK
  To:                    fc1/final_count[2]:D
  Delay (ns):            0.868
  Slack (ns):            0.824
  Arrival (ns):          3.514
  Required (ns):         2.690

Path 28
  From:                  fc1/final_count[1]:CLK
  To:                    fc1/ck_ok:D
  Delay (ns):            0.845
  Slack (ns):            0.827
  Arrival (ns):          3.502
  Required (ns):         2.675

Path 29
  From:                  fc0/counter[2]:CLK
  To:                    fc0/counter[2]:D
  Delay (ns):            0.830
  Slack (ns):            0.830
  Arrival (ns):          3.499
  Required (ns):         2.669

Path 30
  From:                  fc1/counter[0]:CLK
  To:                    fc1/final_count[3]:D
  Delay (ns):            0.879
  Slack (ns):            0.861
  Arrival (ns):          3.536
  Required (ns):         2.675

Path 31
  From:                  fc1/counter[0]:CLK
  To:                    fc1/counter[1]:D
  Delay (ns):            0.867
  Slack (ns):            0.862
  Arrival (ns):          3.524
  Required (ns):         2.662

Path 32
  From:                  fc1/counter[0]:CLK
  To:                    fc1/final_count[2]:D
  Delay (ns):            0.909
  Slack (ns):            0.876
  Arrival (ns):          3.566
  Required (ns):         2.690

Path 33
  From:                  fc1/counter[2]:CLK
  To:                    fc1/counter[2]:D
  Delay (ns):            0.883
  Slack (ns):            0.883
  Arrival (ns):          3.529
  Required (ns):         2.646

Path 34
  From:                  fc2/counter[0]:CLK
  To:                    fc2/counter[2]:D
  Delay (ns):            0.914
  Slack (ns):            0.890
  Arrival (ns):          3.571
  Required (ns):         2.681

Path 35
  From:                  fc2/counter[0]:CLK
  To:                    fc2/counter[1]:D
  Delay (ns):            0.909
  Slack (ns):            0.891
  Arrival (ns):          3.566
  Required (ns):         2.675

Path 36
  From:                  fc2/final_count[2]:CLK
  To:                    fc2/ck_ok:D
  Delay (ns):            0.898
  Slack (ns):            0.892
  Arrival (ns):          3.567
  Required (ns):         2.675

Path 37
  From:                  fc0/final_count[2]:CLK
  To:                    fc0/ck_ok:D
  Delay (ns):            0.898
  Slack (ns):            0.892
  Arrival (ns):          3.567
  Required (ns):         2.675

Path 38
  From:                  fc1/final_count[2]:CLK
  To:                    fc1/ck_ok:D
  Delay (ns):            0.898
  Slack (ns):            0.892
  Arrival (ns):          3.567
  Required (ns):         2.675

Path 39
  From:                  fc1/counter[2]:CLK
  To:                    fc1/final_count[3]:D
  Delay (ns):            0.928
  Slack (ns):            0.899
  Arrival (ns):          3.574
  Required (ns):         2.675

Path 40
  From:                  fc2/final_count[0]:CLK
  To:                    fc2/ck_ok:D
  Delay (ns):            0.909
  Slack (ns):            0.903
  Arrival (ns):          3.578
  Required (ns):         2.675

Path 41
  From:                  fc0/final_count[0]:CLK
  To:                    fc0/ck_ok:D
  Delay (ns):            0.909
  Slack (ns):            0.903
  Arrival (ns):          3.578
  Required (ns):         2.675

Path 42
  From:                  fc1/final_count[0]:CLK
  To:                    fc1/ck_ok:D
  Delay (ns):            0.909
  Slack (ns):            0.903
  Arrival (ns):          3.578
  Required (ns):         2.675

Path 43
  From:                  fc1/counter[3]:CLK
  To:                    fc1/counter[3]:D
  Delay (ns):            0.905
  Slack (ns):            0.905
  Arrival (ns):          3.562
  Required (ns):         2.657

Path 44
  From:                  fc0/counter[3]:CLK
  To:                    fc0/counter[3]:D
  Delay (ns):            0.905
  Slack (ns):            0.905
  Arrival (ns):          3.562
  Required (ns):         2.657

Path 45
  From:                  fc0/counter[2]:CLK
  To:                    fc0/final_count[3]:D
  Delay (ns):            0.928
  Slack (ns):            0.907
  Arrival (ns):          3.597
  Required (ns):         2.690

Path 46
  From:                  fc0/counter[1]:CLK
  To:                    fc0/final_count[3]:D
  Delay (ns):            0.941
  Slack (ns):            0.908
  Arrival (ns):          3.598
  Required (ns):         2.690

Path 47
  From:                  fc0/state:CLK
  To:                    fc0/final_count[1]:E
  Delay (ns):            0.932
  Slack (ns):            0.911
  Arrival (ns):          3.601
  Required (ns):         2.690

Path 48
  From:                  fc0/state:CLK
  To:                    fc0/final_count[2]:E
  Delay (ns):            0.933
  Slack (ns):            0.912
  Arrival (ns):          3.602
  Required (ns):         2.690

Path 49
  From:                  fc2/counter[1]:CLK
  To:                    fc2/counter[2]:D
  Delay (ns):            0.936
  Slack (ns):            0.912
  Arrival (ns):          3.593
  Required (ns):         2.681

Path 50
  From:                  fc2/counter[2]:CLK
  To:                    fc2/final_count[3]:D
  Delay (ns):            0.930
  Slack (ns):            0.917
  Arrival (ns):          3.592
  Required (ns):         2.675

Path 51
  From:                  fc0/counter[1]:CLK
  To:                    fc0/counter[2]:D
  Delay (ns):            0.954
  Slack (ns):            0.921
  Arrival (ns):          3.611
  Required (ns):         2.690

Path 52
  From:                  fc0/counter[0]:CLK
  To:                    fc0/counter[2]:D
  Delay (ns):            0.956
  Slack (ns):            0.923
  Arrival (ns):          3.613
  Required (ns):         2.690

Path 53
  From:                  fc2/counter[1]:CLK
  To:                    fc2/final_count[3]:D
  Delay (ns):            0.942
  Slack (ns):            0.924
  Arrival (ns):          3.599
  Required (ns):         2.675

Path 54
  From:                  fc1/counter[1]:CLK
  To:                    fc1/counter[1]:D
  Delay (ns):            0.926
  Slack (ns):            0.926
  Arrival (ns):          3.572
  Required (ns):         2.646

Path 55
  From:                  fc0/state:CLK
  To:                    fc1/counter[3]:D
  Delay (ns):            0.938
  Slack (ns):            0.932
  Arrival (ns):          3.607
  Required (ns):         2.675

Path 56
  From:                  fc1/counter[1]:CLK
  To:                    fc1/counter[2]:D
  Delay (ns):            0.952
  Slack (ns):            0.936
  Arrival (ns):          3.598
  Required (ns):         2.662

Path 57
  From:                  fc0/counter[0]:CLK
  To:                    fc0/final_count[1]:D
  Delay (ns):            0.974
  Slack (ns):            0.941
  Arrival (ns):          3.631
  Required (ns):         2.690

Path 58
  From:                  fc2/counter[1]:CLK
  To:                    fc2/counter[1]:D
  Delay (ns):            0.948
  Slack (ns):            0.948
  Arrival (ns):          3.605
  Required (ns):         2.657

Path 59
  From:                  fc0/state:CLK
  To:                    fc2/counter[2]:D
  Delay (ns):            0.963
  Slack (ns):            0.951
  Arrival (ns):          3.632
  Required (ns):         2.681

Path 60
  From:                  fc0/state:CLK
  To:                    fc2/counter[1]:D
  Delay (ns):            0.962
  Slack (ns):            0.956
  Arrival (ns):          3.631
  Required (ns):         2.675

Path 61
  From:                  fc2/counter[3]:CLK
  To:                    fc2/counter[3]:D
  Delay (ns):            0.957
  Slack (ns):            0.957
  Arrival (ns):          3.626
  Required (ns):         2.669

Path 62
  From:                  fc0/state:CLK
  To:                    fc2/final_count[0]:E
  Delay (ns):            0.982
  Slack (ns):            0.961
  Arrival (ns):          3.651
  Required (ns):         2.690

Path 63
  From:                  fc0/state:CLK
  To:                    fc2/final_count[2]:E
  Delay (ns):            0.982
  Slack (ns):            0.961
  Arrival (ns):          3.651
  Required (ns):         2.690

Path 64
  From:                  fc0/state:CLK
  To:                    fc2/final_count[3]:E
  Delay (ns):            0.982
  Slack (ns):            0.976
  Arrival (ns):          3.651
  Required (ns):         2.675

Path 65
  From:                  fc0/state:CLK
  To:                    fc0/counter[2]:D
  Delay (ns):            0.997
  Slack (ns):            0.976
  Arrival (ns):          3.666
  Required (ns):         2.690

Path 66
  From:                  fc0/state:CLK
  To:                    fc2/counter[0]:D
  Delay (ns):            0.989
  Slack (ns):            0.983
  Arrival (ns):          3.658
  Required (ns):         2.675

Path 67
  From:                  fc0/state:CLK
  To:                    fc0/final_count[3]:E
  Delay (ns):            1.017
  Slack (ns):            0.996
  Arrival (ns):          3.686
  Required (ns):         2.690

Path 68
  From:                  fc0/state:CLK
  To:                    fc0/final_count[0]:E
  Delay (ns):            1.017
  Slack (ns):            0.996
  Arrival (ns):          3.686
  Required (ns):         2.690

Path 69
  From:                  fc0/state:CLK
  To:                    fc0/counter[1]:D
  Delay (ns):            1.004
  Slack (ns):            0.998
  Arrival (ns):          3.673
  Required (ns):         2.675

Path 70
  From:                  fc1/counter[0]:CLK
  To:                    fc1/counter[2]:D
  Delay (ns):            1.004
  Slack (ns):            0.999
  Arrival (ns):          3.661
  Required (ns):         2.662

Path 71
  From:                  fc2/counter[0]:CLK
  To:                    fc2/final_count[3]:D
  Delay (ns):            1.019
  Slack (ns):            1.001
  Arrival (ns):          3.676
  Required (ns):         2.675

Path 72
  From:                  fc0/state:CLK
  To:                    fc1/counter[1]:D
  Delay (ns):            0.997
  Slack (ns):            1.004
  Arrival (ns):          3.666
  Required (ns):         2.662

Path 73
  From:                  fc0/counter[0]:CLK
  To:                    fc0/final_count[3]:D
  Delay (ns):            1.070
  Slack (ns):            1.037
  Arrival (ns):          3.727
  Required (ns):         2.690

Path 74
  From:                  fc0/counter[1]:CLK
  To:                    fc0/final_count[1]:D
  Delay (ns):            1.072
  Slack (ns):            1.039
  Arrival (ns):          3.729
  Required (ns):         2.690

Path 75
  From:                  fc0/counter[0]:CLK
  To:                    fc0/counter[1]:D
  Delay (ns):            1.067
  Slack (ns):            1.049
  Arrival (ns):          3.724
  Required (ns):         2.675

Path 76
  From:                  fc1/counter[1]:CLK
  To:                    fc1/final_count[3]:D
  Delay (ns):            1.087
  Slack (ns):            1.058
  Arrival (ns):          3.733
  Required (ns):         2.675

Path 77
  From:                  fc0/state:CLK
  To:                    fc1/final_count[0]:E
  Delay (ns):            1.086
  Slack (ns):            1.065
  Arrival (ns):          3.755
  Required (ns):         2.690

Path 78
  From:                  fc0/state:CLK
  To:                    fc0/counter[0]:D
  Delay (ns):            1.072
  Slack (ns):            1.066
  Arrival (ns):          3.741
  Required (ns):         2.675

Path 79
  From:                  fc0/state:CLK
  To:                    fc1/final_count[1]:E
  Delay (ns):            1.086
  Slack (ns):            1.080
  Arrival (ns):          3.755
  Required (ns):         2.675

Path 80
  From:                  fc1/counter[0]:CLK
  To:                    fc1/counter[3]:D
  Delay (ns):            1.118
  Slack (ns):            1.100
  Arrival (ns):          3.775
  Required (ns):         2.675

Path 81
  From:                  fc0/state:CLK
  To:                    fc1/counter[0]:D
  Delay (ns):            1.109
  Slack (ns):            1.103
  Arrival (ns):          3.778
  Required (ns):         2.675

Path 82
  From:                  fc0/state:CLK
  To:                    fc1/final_count[3]:E
  Delay (ns):            1.111
  Slack (ns):            1.105
  Arrival (ns):          3.780
  Required (ns):         2.675

Path 83
  From:                  fc1/counter[2]:CLK
  To:                    fc1/counter[3]:D
  Delay (ns):            1.167
  Slack (ns):            1.138
  Arrival (ns):          3.813
  Required (ns):         2.675

Path 84
  From:                  fc0/counter[2]:CLK
  To:                    fc0/counter[3]:D
  Delay (ns):            1.167
  Slack (ns):            1.161
  Arrival (ns):          3.836
  Required (ns):         2.675

Path 85
  From:                  fc0/counter[1]:CLK
  To:                    fc0/counter[3]:D
  Delay (ns):            1.180
  Slack (ns):            1.162
  Arrival (ns):          3.837
  Required (ns):         2.675

Path 86
  From:                  fc0/counter[1]:CLK
  To:                    fc0/counter[1]:D
  Delay (ns):            1.165
  Slack (ns):            1.165
  Arrival (ns):          3.822
  Required (ns):         2.657

Path 87
  From:                  fc2/counter[2]:CLK
  To:                    fc2/counter[3]:D
  Delay (ns):            1.210
  Slack (ns):            1.182
  Arrival (ns):          3.872
  Required (ns):         2.690

Path 88
  From:                  fc2/counter[1]:CLK
  To:                    fc2/counter[3]:D
  Delay (ns):            1.222
  Slack (ns):            1.189
  Arrival (ns):          3.879
  Required (ns):         2.690

Path 89
  From:                  fc0/state:CLK
  To:                    fc1/counter[2]:D
  Delay (ns):            1.219
  Slack (ns):            1.226
  Arrival (ns):          3.888
  Required (ns):         2.662

Path 90
  From:                  fc0/state:CLK
  To:                    fc2/counter[3]:D
  Delay (ns):            1.271
  Slack (ns):            1.250
  Arrival (ns):          3.940
  Required (ns):         2.690

Path 91
  From:                  fc2/final_count[3]:CLK
  To:                    fc2/ck_ok:D
  Delay (ns):            1.281
  Slack (ns):            1.263
  Arrival (ns):          3.938
  Required (ns):         2.675

Path 92
  From:                  fc1/final_count[3]:CLK
  To:                    fc1/ck_ok:D
  Delay (ns):            1.281
  Slack (ns):            1.263
  Arrival (ns):          3.938
  Required (ns):         2.675

Path 93
  From:                  fc2/counter[0]:CLK
  To:                    fc2/counter[3]:D
  Delay (ns):            1.299
  Slack (ns):            1.266
  Arrival (ns):          3.956
  Required (ns):         2.690

Path 94
  From:                  fc0/final_count[3]:CLK
  To:                    fc0/ck_ok:D
  Delay (ns):            1.282
  Slack (ns):            1.276
  Arrival (ns):          3.951
  Required (ns):         2.675

Path 95
  From:                  fc0/counter[0]:CLK
  To:                    fc0/counter[3]:D
  Delay (ns):            1.309
  Slack (ns):            1.291
  Arrival (ns):          3.966
  Required (ns):         2.675

Path 96
  From:                  fc1/counter[1]:CLK
  To:                    fc1/counter[3]:D
  Delay (ns):            1.326
  Slack (ns):            1.297
  Arrival (ns):          3.972
  Required (ns):         2.675

